%YAML 1.1
%TAG !u! tag:unity3d.com,2011:
--- !u!1 &1013704709244780
GameObject:
  m_ObjectHideFlags: 0
  m_CorrespondingSourceObject: {fileID: 0}
  m_PrefabInstance: {fileID: 0}
  m_PrefabAsset: {fileID: 0}
  serializedVersion: 6
  m_Component:
  - component: {fileID: 4457419654995938}
  m_Layer: 0
  m_Name: Clavicle_R
  m_TagString: Untagged
  m_Icon: {fileID: 0}
  m_NavMeshLayer: 0
  m_StaticEditorFlags: 0
  m_IsActive: 1
--- !u!4 &4457419654995938
Transform:
  m_ObjectHideFlags: 0
  m_CorrespondingSourceObject: {fileID: 0}
  m_PrefabInstance: {fileID: 0}
  m_PrefabAsset: {fileID: 0}
  m_GameObject: {fileID: 1013704709244780}
  m_LocalRotation: {x: 0.6243929, y: 0.42177823, z: 0.50111043, w: -0.42558777}
  m_LocalPosition: {x: -0.07733742, y: -0.0015131371, z: 0.16716298}
  m_LocalScale: {x: 1, y: 1, z: 1}
  m_Children:
  - {fileID: 4989779744055174}
  m_Father: {fileID: 4553271016686658}
  m_RootOrder: 1
  m_LocalEulerAnglesHint: {x: 0, y: 0, z: 0}
--- !u!1 &1032242405904462
GameObject:
  m_ObjectHideFlags: 0
  m_CorrespondingSourceObject: {fileID: 0}
  m_PrefabInstance: {fileID: 0}
  m_PrefabAsset: {fileID: 0}
  serializedVersion: 6
  m_Component:
  - component: {fileID: 4126503885711522}
  m_Layer: 0
  m_Name: Root
  m_TagString: Untagged
  m_Icon: {fileID: 0}
  m_NavMeshLayer: 0
  m_StaticEditorFlags: 0
  m_IsActive: 1
--- !u!4 &4126503885711522
Transform:
  m_ObjectHideFlags: 0
  m_CorrespondingSourceObject: {fileID: 0}
  m_PrefabInstance: {fileID: 0}
  m_PrefabAsset: {fileID: 0}
  m_GameObject: {fileID: 1032242405904462}
  m_LocalRotation: {x: 0, y: -0, z: -0, w: 1}
  m_LocalPosition: {x: -0, y: 0, z: 0}
  m_LocalScale: {x: 1, y: 1, z: 1}
  m_Children:
  - {fileID: 4989090799191106}
  m_Father: {fileID: 4804301688967996}
  m_RootOrder: 11
  m_LocalEulerAnglesHint: {x: 0, y: 0, z: 0}
--- !u!1 &1036130040082100
GameObject:
  m_ObjectHideFlags: 0
  m_CorrespondingSourceObject: {fileID: 0}
  m_PrefabInstance: {fileID: 0}
  m_PrefabAsset: {fileID: 0}
  serializedVersion: 6
  m_Component:
  - component: {fileID: 4501710217679214}
  m_Layer: 0
  m_Name: Elbow_L
  m_TagString: Untagged
  m_Icon: {fileID: 0}
  m_NavMeshLayer: 0
  m_StaticEditorFlags: 0
  m_IsActive: 1
--- !u!4 &4501710217679214
Transform:
  m_ObjectHideFlags: 0
  m_CorrespondingSourceObject: {fileID: 0}
  m_PrefabInstance: {fileID: 0}
  m_PrefabAsset: {fileID: 0}
  m_GameObject: {fileID: 1036130040082100}
  m_LocalRotation: {x: -9.216485e-17, y: 0.059024446, z: 2.8739455e-15, w: 0.99825656}
  m_LocalPosition: {x: -0.4568335, y: -1.3457903e-16, z: 2.1094237e-16}
  m_LocalScale: {x: 1, y: 1, z: 1}
  m_Children:
  - {fileID: 4560055581439608}
  m_Father: {fileID: 4660255790010246}
  m_RootOrder: 0
  m_LocalEulerAnglesHint: {x: 0, y: 0, z: 0}
--- !u!1 &1037460439368596
GameObject:
  m_ObjectHideFlags: 0
  m_CorrespondingSourceObject: {fileID: 0}
  m_PrefabInstance: {fileID: 0}
  m_PrefabAsset: {fileID: 0}
  serializedVersion: 6
  m_Component:
  - component: {fileID: 4502431616319154}
  m_Layer: 0
  m_Name: Toes_R
  m_TagString: Untagged
  m_Icon: {fileID: 0}
  m_NavMeshLayer: 0
  m_StaticEditorFlags: 0
  m_IsActive: 1
--- !u!4 &4502431616319154
Transform:
  m_ObjectHideFlags: 0
  m_CorrespondingSourceObject: {fileID: 0}
  m_PrefabInstance: {fileID: 0}
  m_PrefabAsset: {fileID: 0}
  m_GameObject: {fileID: 1037460439368596}
  m_LocalRotation: {x: -3.31909e-14, y: -0.7071068, z: -3.31909e-14, w: 0.7071068}
  m_LocalPosition: {x: 0.0729575, y: -4.0909496e-14, z: 3.5527136e-17}
  m_LocalScale: {x: 1, y: 1, z: 1}
  m_Children: []
  m_Father: {fileID: 4099127232496944}
  m_RootOrder: 0
  m_LocalEulerAnglesHint: {x: 0, y: 0, z: 0}
--- !u!1 &1058325120049730
GameObject:
  m_ObjectHideFlags: 0
  m_CorrespondingSourceObject: {fileID: 0}
  m_PrefabInstance: {fileID: 0}
  m_PrefabAsset: {fileID: 0}
  serializedVersion: 6
  m_Component:
  - component: {fileID: 4513298969763580}
  m_Layer: 0
  m_Name: Clavicle_L
  m_TagString: Untagged
  m_Icon: {fileID: 0}
  m_NavMeshLayer: 0
  m_StaticEditorFlags: 0
  m_IsActive: 1
--- !u!4 &4513298969763580
Transform:
  m_ObjectHideFlags: 0
  m_CorrespondingSourceObject: {fileID: 0}
  m_PrefabInstance: {fileID: 0}
  m_PrefabAsset: {fileID: 0}
  m_GameObject: {fileID: 1058325120049730}
  m_LocalRotation: {x: 0.42177826, y: -0.6243929, z: 0.4255878, w: 0.5011104}
  m_LocalPosition: {x: -0.07733449, y: -0.0015139526, z: -0.16716343}
  m_LocalScale: {x: 1, y: 1, z: 1}
  m_Children:
  - {fileID: 4660255790010246}
  m_Father: {fileID: 4553271016686658}
  m_RootOrder: 0
  m_LocalEulerAnglesHint: {x: 0, y: 0, z: 0}
--- !u!1 &1069183002302998
GameObject:
  m_ObjectHideFlags: 0
  m_CorrespondingSourceObject: {fileID: 0}
  m_PrefabInstance: {fileID: 0}
  m_PrefabAsset: {fileID: 0}
  serializedVersion: 6
  m_Component:
  - component: {fileID: 4311295535969032}
  m_Layer: 0
  m_Name: IndexFinger_03
  m_TagString: Untagged
  m_Icon: {fileID: 0}
  m_NavMeshLayer: 0
  m_StaticEditorFlags: 0
  m_IsActive: 1
--- !u!4 &4311295535969032
Transform:
  m_ObjectHideFlags: 0
  m_CorrespondingSourceObject: {fileID: 0}
  m_PrefabInstance: {fileID: 0}
  m_PrefabAsset: {fileID: 0}
  m_GameObject: {fileID: 1069183002302998}
  m_LocalRotation: {x: -0.009142615, y: -0.025011526, z: 0.07340528, w: 0.99694663}
  m_LocalPosition: {x: -0.057940163, y: 1.8041123e-18, z: -2.5535128e-17}
  m_LocalScale: {x: 1, y: 1, z: 1}
  m_Children:
  - {fileID: 4371745685903772}
  m_Father: {fileID: 4479491893653310}
  m_RootOrder: 0
  m_LocalEulerAnglesHint: {x: 0, y: 0, z: 0}
--- !u!1 &1083795373630146
GameObject:
  m_ObjectHideFlags: 0
  m_CorrespondingSourceObject: {fileID: 0}
  m_PrefabInstance: {fileID: 0}
  m_PrefabAsset: {fileID: 0}
  serializedVersion: 6
  m_Component:
  - component: {fileID: 4371745685903772}
  m_Layer: 0
  m_Name: IndexFinger_04
  m_TagString: Untagged
  m_Icon: {fileID: 0}
  m_NavMeshLayer: 0
  m_StaticEditorFlags: 0
  m_IsActive: 1
--- !u!4 &4371745685903772
Transform:
  m_ObjectHideFlags: 0
  m_CorrespondingSourceObject: {fileID: 0}
  m_PrefabInstance: {fileID: 0}
  m_PrefabAsset: {fileID: 0}
  m_GameObject: {fileID: 1083795373630146}
  m_LocalRotation: {x: -0.00597543, y: -0.02776615, z: -0.21030392, w: 0.9772234}
  m_LocalPosition: {x: -0.059118144, y: -1.8624858e-16, z: -5.551115e-19}
  m_LocalScale: {x: 1, y: 1, z: 1}
  m_Children: []
  m_Father: {fileID: 4311295535969032}
  m_RootOrder: 0
  m_LocalEulerAnglesHint: {x: 0, y: 0, z: 0}
--- !u!1 &1128228963136840
GameObject:
  m_ObjectHideFlags: 0
  m_CorrespondingSourceObject: {fileID: 0}
  m_PrefabInstance: {fileID: 0}
  m_PrefabAsset: {fileID: 0}
  serializedVersion: 6
  m_Component:
  - component: {fileID: 4262038750106164}
  m_Layer: 0
  m_Name: Finger_03 1
  m_TagString: Untagged
  m_Icon: {fileID: 0}
  m_NavMeshLayer: 0
  m_StaticEditorFlags: 0
  m_IsActive: 1
--- !u!4 &4262038750106164
Transform:
  m_ObjectHideFlags: 0
  m_CorrespondingSourceObject: {fileID: 0}
  m_PrefabInstance: {fileID: 0}
  m_PrefabAsset: {fileID: 0}
  m_GameObject: {fileID: 1128228963136840}
  m_LocalRotation: {x: -0.023977656, y: -0.06974028, z: 0.11959571, w: 0.99007994}
  m_LocalPosition: {x: 0.05329311, y: 0.0000014939407, z: 0.00000036493486}
  m_LocalScale: {x: 1, y: 1, z: 1}
  m_Children:
  - {fileID: 4665497756585074}
  m_Father: {fileID: 4852381176437968}
  m_RootOrder: 0
  m_LocalEulerAnglesHint: {x: 0, y: 0, z: 0}
--- !u!1 &1152777776456054
GameObject:
  m_ObjectHideFlags: 0
  m_CorrespondingSourceObject: {fileID: 0}
  m_PrefabInstance: {fileID: 0}
  m_PrefabAsset: {fileID: 0}
  serializedVersion: 6
  m_Component:
  - component: {fileID: 4617807866573612}
  m_Layer: 0
  m_Name: Eyebrows
  m_TagString: Untagged
  m_Icon: {fileID: 0}
  m_NavMeshLayer: 0
  m_StaticEditorFlags: 0
  m_IsActive: 1
--- !u!4 &4617807866573612
Transform:
  m_ObjectHideFlags: 0
  m_CorrespondingSourceObject: {fileID: 0}
  m_PrefabInstance: {fileID: 0}
  m_PrefabAsset: {fileID: 0}
  m_GameObject: {fileID: 1152777776456054}
  m_LocalRotation: {x: 0.8059357, y: -0.5920031, z: 1.1494296e-15, w: 9.202946e-16}
  m_LocalPosition: {x: -0.19999892, y: 0.02186953, z: 1.6423345e-10}
  m_LocalScale: {x: 1, y: 1, z: 1}
  m_Children: []
  m_Father: {fileID: 4902622719025336}
  m_RootOrder: 0
  m_LocalEulerAnglesHint: {x: 0, y: 0, z: 0}
--- !u!1 &1157064329805200
GameObject:
  m_ObjectHideFlags: 0
  m_CorrespondingSourceObject: {fileID: 0}
  m_PrefabInstance: {fileID: 0}
  m_PrefabAsset: {fileID: 0}
  serializedVersion: 6
  m_Component:
  - component: {fileID: 4309228329308116}
  - component: {fileID: 137801808211052420}
  m_Layer: 0
  m_Name: Character_MutantGuy_01
  m_TagString: Untagged
  m_Icon: {fileID: 0}
  m_NavMeshLayer: 0
  m_StaticEditorFlags: 0
  m_IsActive: 0
--- !u!4 &4309228329308116
Transform:
  m_ObjectHideFlags: 0
  m_CorrespondingSourceObject: {fileID: 0}
  m_PrefabInstance: {fileID: 0}
  m_PrefabAsset: {fileID: 0}
  m_GameObject: {fileID: 1157064329805200}
  m_LocalRotation: {x: 0, y: -0, z: -0, w: 1}
  m_LocalPosition: {x: -0, y: 0, z: 0}
  m_LocalScale: {x: 1, y: 1, z: 1}
  m_Children: []
  m_Father: {fileID: 4804301688967996}
  m_RootOrder: 6
  m_LocalEulerAnglesHint: {x: 0, y: 0, z: 0}
--- !u!137 &137801808211052420
SkinnedMeshRenderer:
  m_ObjectHideFlags: 0
  m_CorrespondingSourceObject: {fileID: 0}
  m_PrefabInstance: {fileID: 0}
  m_PrefabAsset: {fileID: 0}
  m_GameObject: {fileID: 1157064329805200}
  m_Enabled: 1
  m_CastShadows: 1
  m_ReceiveShadows: 1
  m_DynamicOccludee: 1
  m_MotionVectors: 1
  m_LightProbeUsage: 1
  m_ReflectionProbeUsage: 1
  m_RayTracingMode: 3
  m_RayTraceProcedural: 0
  m_RenderingLayerMask: 1
  m_RendererPriority: 0
  m_Materials:
  - {fileID: 2100000, guid: caf01dd5152f3934d8079e6160aa3b1e, type: 2}
  m_StaticBatchInfo:
    firstSubMesh: 0
    subMeshCount: 0
  m_StaticBatchRoot: {fileID: 0}
  m_ProbeAnchor: {fileID: 0}
  m_LightProbeVolumeOverride: {fileID: 0}
  m_ScaleInLightmap: 1
  m_ReceiveGI: 1
  m_PreserveUVs: 0
  m_IgnoreNormalsForChartDetection: 0
  m_ImportantGI: 0
  m_StitchLightmapSeams: 1
  m_SelectedEditorRenderState: 3
  m_MinimumChartSize: 4
  m_AutoUVMaxDistance: 0.5
  m_AutoUVMaxAngle: 89
  m_LightmapParameters: {fileID: 0}
  m_SortingLayerID: 0
  m_SortingLayer: 0
  m_SortingOrder: 0
  serializedVersion: 2
  m_Quality: 0
  m_UpdateWhenOffscreen: 0
  m_SkinnedMotionVectors: 1
  m_Mesh: {fileID: 4300018, guid: a50cd06a0668d1a418d586a2944e3ed5, type: 3}
  m_Bones:
  - {fileID: 4126503885711522}
  - {fileID: 4989090799191106}
  - {fileID: 4601202157104068}
  - {fileID: 4262036049574412}
  - {fileID: 4553271016686658}
  - {fileID: 4631115421022552}
  - {fileID: 4902622719025336}
  - {fileID: 4617807866573612}
  - {fileID: 4127911727306416}
  - {fileID: 4513298969763580}
  - {fileID: 4660255790010246}
  - {fileID: 4501710217679214}
  - {fileID: 4560055581439608}
  - {fileID: 4888351131131176}
  - {fileID: 4466865001989010}
  - {fileID: 4537212362510854}
  - {fileID: 4282794962123234}
  - {fileID: 4479491893653310}
  - {fileID: 4311295535969032}
  - {fileID: 4371745685903772}
  - {fileID: 4213632767839780}
  - {fileID: 4609493299269268}
  - {fileID: 4457419654995938}
  - {fileID: 4989779744055174}
  - {fileID: 4695245593314644}
  - {fileID: 4218663422984900}
  - {fileID: 4846300618272398}
  - {fileID: 4767971958850650}
  - {fileID: 4943969476639552}
  - {fileID: 4405512925850162}
  - {fileID: 4305624847783708}
  - {fileID: 4738543612806020}
  - {fileID: 4511122004756990}
  - {fileID: 4421323432092938}
  - {fileID: 4852381176437968}
  - {fileID: 4262038750106164}
  - {fileID: 4665497756585074}
  - {fileID: 4171947991725432}
  - {fileID: 4036884547687828}
  - {fileID: 4405093732578160}
  - {fileID: 4762820446997994}
  - {fileID: 4642324463211748}
  - {fileID: 4932497365270714}
  - {fileID: 4416874678015742}
  - {fileID: 4691668724006914}
  - {fileID: 4099127232496944}
  - {fileID: 4502431616319154}
  m_BlendShapeWeights: []
  m_RootBone: {fileID: 4126503885711522}
  m_AABB:
    m_Center: {x: -0.089358985, y: 0.995961, z: 0.0422931}
    m_Extent: {x: 1.5576978, y: 1.098748, z: 0.5417956}
  m_DirtyAABB: 0
--- !u!1 &1158782849295606
GameObject:
  m_ObjectHideFlags: 0
  m_CorrespondingSourceObject: {fileID: 0}
  m_PrefabInstance: {fileID: 0}
  m_PrefabAsset: {fileID: 0}
  serializedVersion: 6
  m_Component:
  - component: {fileID: 4052520935977764}
  - component: {fileID: 137816262398935294}
  m_Layer: 0
  m_Name: Character_RedDemon_01
  m_TagString: Untagged
  m_Icon: {fileID: 0}
  m_NavMeshLayer: 0
  m_StaticEditorFlags: 0
  m_IsActive: 0
--- !u!4 &4052520935977764
Transform:
  m_ObjectHideFlags: 0
  m_CorrespondingSourceObject: {fileID: 0}
  m_PrefabInstance: {fileID: 0}
  m_PrefabAsset: {fileID: 0}
  m_GameObject: {fileID: 1158782849295606}
  m_LocalRotation: {x: 0, y: -0, z: -0, w: 1}
  m_LocalPosition: {x: -0, y: 0, z: 0}
  m_LocalScale: {x: 1, y: 1, z: 1}
  m_Children: []
  m_Father: {fileID: 4804301688967996}
  m_RootOrder: 8
  m_LocalEulerAnglesHint: {x: 0, y: 0, z: 0}
--- !u!137 &137816262398935294
SkinnedMeshRenderer:
  m_ObjectHideFlags: 0
  m_CorrespondingSourceObject: {fileID: 0}
  m_PrefabInstance: {fileID: 0}
  m_PrefabAsset: {fileID: 0}
  m_GameObject: {fileID: 1158782849295606}
  m_Enabled: 1
  m_CastShadows: 1
  m_ReceiveShadows: 1
  m_DynamicOccludee: 1
  m_MotionVectors: 1
  m_LightProbeUsage: 1
  m_ReflectionProbeUsage: 1
  m_RayTracingMode: 3
  m_RayTraceProcedural: 0
  m_RenderingLayerMask: 1
  m_RendererPriority: 0
  m_Materials:
  - {fileID: 2100000, guid: caf01dd5152f3934d8079e6160aa3b1e, type: 2}
  m_StaticBatchInfo:
    firstSubMesh: 0
    subMeshCount: 0
  m_StaticBatchRoot: {fileID: 0}
  m_ProbeAnchor: {fileID: 0}
  m_LightProbeVolumeOverride: {fileID: 0}
  m_ScaleInLightmap: 1
  m_ReceiveGI: 1
  m_PreserveUVs: 0
  m_IgnoreNormalsForChartDetection: 0
  m_ImportantGI: 0
  m_StitchLightmapSeams: 1
  m_SelectedEditorRenderState: 3
  m_MinimumChartSize: 4
  m_AutoUVMaxDistance: 0.5
  m_AutoUVMaxAngle: 89
  m_LightmapParameters: {fileID: 0}
  m_SortingLayerID: 0
  m_SortingLayer: 0
  m_SortingOrder: 0
  serializedVersion: 2
  m_Quality: 0
  m_UpdateWhenOffscreen: 0
  m_SkinnedMotionVectors: 1
  m_Mesh: {fileID: 4300008, guid: a50cd06a0668d1a418d586a2944e3ed5, type: 3}
  m_Bones:
  - {fileID: 4126503885711522}
  - {fileID: 4989090799191106}
  - {fileID: 4601202157104068}
  - {fileID: 4262036049574412}
  - {fileID: 4553271016686658}
  - {fileID: 4631115421022552}
  - {fileID: 4902622719025336}
  - {fileID: 4617807866573612}
  - {fileID: 4127911727306416}
  - {fileID: 4513298969763580}
  - {fileID: 4660255790010246}
  - {fileID: 4501710217679214}
  - {fileID: 4560055581439608}
  - {fileID: 4888351131131176}
  - {fileID: 4466865001989010}
  - {fileID: 4537212362510854}
  - {fileID: 4282794962123234}
  - {fileID: 4479491893653310}
  - {fileID: 4311295535969032}
  - {fileID: 4371745685903772}
  - {fileID: 4213632767839780}
  - {fileID: 4609493299269268}
  - {fileID: 4204949961472384}
  - {fileID: 4750721027814448}
  - {fileID: 4457419654995938}
  - {fileID: 4989779744055174}
  - {fileID: 4695245593314644}
  - {fileID: 4218663422984900}
  - {fileID: 4846300618272398}
  - {fileID: 4767971958850650}
  - {fileID: 4943969476639552}
  - {fileID: 4405512925850162}
  - {fileID: 4305624847783708}
  - {fileID: 4738543612806020}
  - {fileID: 4511122004756990}
  - {fileID: 4421323432092938}
  - {fileID: 4852381176437968}
  - {fileID: 4262038750106164}
  - {fileID: 4665497756585074}
  - {fileID: 4171947991725432}
  - {fileID: 4036884547687828}
  - {fileID: 4405093732578160}
  - {fileID: 4762820446997994}
  - {fileID: 4642324463211748}
  - {fileID: 4932497365270714}
  - {fileID: 4416874678015742}
  - {fileID: 4691668724006914}
  - {fileID: 4099127232496944}
  - {fileID: 4502431616319154}
  m_BlendShapeWeights: []
  m_RootBone: {fileID: 4126503885711522}
  m_AABB:
    m_Center: {x: 0.00000011920929, y: 0.99551123, z: 0.04906304}
    m_Extent: {x: 1.4562893, y: 1.0842607, z: 0.40284848}
  m_DirtyAABB: 0
--- !u!1 &1169155489922792
GameObject:
  m_ObjectHideFlags: 0
  m_CorrespondingSourceObject: {fileID: 0}
  m_PrefabInstance: {fileID: 0}
  m_PrefabAsset: {fileID: 0}
  serializedVersion: 6
  m_Component:
  - component: {fileID: 4974874458919070}
  - component: {fileID: 137989006526839976}
  m_Layer: 0
  m_Name: Character_Troll_01
  m_TagString: Untagged
  m_Icon: {fileID: 0}
  m_NavMeshLayer: 0
  m_StaticEditorFlags: 0
  m_IsActive: 0
--- !u!4 &4974874458919070
Transform:
  m_ObjectHideFlags: 0
  m_CorrespondingSourceObject: {fileID: 0}
  m_PrefabInstance: {fileID: 0}
  m_PrefabAsset: {fileID: 0}
  m_GameObject: {fileID: 1169155489922792}
  m_LocalRotation: {x: 0, y: -0, z: -0, w: 1}
  m_LocalPosition: {x: -0, y: 0, z: 0}
  m_LocalScale: {x: 1, y: 1, z: 1}
  m_Children: []
  m_Father: {fileID: 4804301688967996}
  m_RootOrder: 10
  m_LocalEulerAnglesHint: {x: 0, y: 0, z: 0}
--- !u!137 &137989006526839976
SkinnedMeshRenderer:
  m_ObjectHideFlags: 0
  m_CorrespondingSourceObject: {fileID: 0}
  m_PrefabInstance: {fileID: 0}
  m_PrefabAsset: {fileID: 0}
  m_GameObject: {fileID: 1169155489922792}
  m_Enabled: 1
  m_CastShadows: 1
  m_ReceiveShadows: 1
  m_DynamicOccludee: 1
  m_MotionVectors: 1
  m_LightProbeUsage: 1
  m_ReflectionProbeUsage: 1
  m_RayTracingMode: 3
  m_RayTraceProcedural: 0
  m_RenderingLayerMask: 1
  m_RendererPriority: 0
  m_Materials:
  - {fileID: 2100000, guid: caf01dd5152f3934d8079e6160aa3b1e, type: 2}
  m_StaticBatchInfo:
    firstSubMesh: 0
    subMeshCount: 0
  m_StaticBatchRoot: {fileID: 0}
  m_ProbeAnchor: {fileID: 0}
  m_LightProbeVolumeOverride: {fileID: 0}
  m_ScaleInLightmap: 1
  m_ReceiveGI: 1
  m_PreserveUVs: 0
  m_IgnoreNormalsForChartDetection: 0
  m_ImportantGI: 0
  m_StitchLightmapSeams: 1
  m_SelectedEditorRenderState: 3
  m_MinimumChartSize: 4
  m_AutoUVMaxDistance: 0.5
  m_AutoUVMaxAngle: 89
  m_LightmapParameters: {fileID: 0}
  m_SortingLayerID: 0
  m_SortingLayer: 0
  m_SortingOrder: 0
  serializedVersion: 2
  m_Quality: 0
  m_UpdateWhenOffscreen: 0
  m_SkinnedMotionVectors: 1
  m_Mesh: {fileID: 4300006, guid: a50cd06a0668d1a418d586a2944e3ed5, type: 3}
  m_Bones:
  - {fileID: 4126503885711522}
  - {fileID: 4989090799191106}
  - {fileID: 4601202157104068}
  - {fileID: 4262036049574412}
  - {fileID: 4553271016686658}
  - {fileID: 4631115421022552}
  - {fileID: 4902622719025336}
  - {fileID: 4617807866573612}
  - {fileID: 4127911727306416}
  - {fileID: 4513298969763580}
  - {fileID: 4660255790010246}
  - {fileID: 4501710217679214}
  - {fileID: 4560055581439608}
  - {fileID: 4888351131131176}
  - {fileID: 4466865001989010}
  - {fileID: 4537212362510854}
  - {fileID: 4282794962123234}
  - {fileID: 4479491893653310}
  - {fileID: 4311295535969032}
  - {fileID: 4371745685903772}
  - {fileID: 4213632767839780}
  - {fileID: 4609493299269268}
  - {fileID: 4204949961472384}
  - {fileID: 4750721027814448}
  - {fileID: 4457419654995938}
  - {fileID: 4989779744055174}
  - {fileID: 4695245593314644}
  - {fileID: 4218663422984900}
  - {fileID: 4846300618272398}
  - {fileID: 4767971958850650}
  - {fileID: 4943969476639552}
  - {fileID: 4405512925850162}
  - {fileID: 4305624847783708}
  - {fileID: 4738543612806020}
  - {fileID: 4511122004756990}
  - {fileID: 4421323432092938}
  - {fileID: 4852381176437968}
  - {fileID: 4262038750106164}
  - {fileID: 4665497756585074}
  - {fileID: 4171947991725432}
  - {fileID: 4036884547687828}
  - {fileID: 4405093732578160}
  - {fileID: 4762820446997994}
  - {fileID: 4642324463211748}
  - {fileID: 4932497365270714}
  - {fileID: 4416874678015742}
  - {fileID: 4691668724006914}
  - {fileID: 4099127232496944}
  - {fileID: 4502431616319154}
  m_BlendShapeWeights: []
  m_RootBone: {fileID: 4126503885711522}
  m_AABB:
    m_Center: {x: 0.00000011920929, y: 0.8836477, z: 0.022629485}
    m_Extent: {x: 1.4515892, y: 0.9803884, z: 0.3923989}
  m_DirtyAABB: 0
--- !u!1 &1200704411587398
GameObject:
  m_ObjectHideFlags: 0
  m_CorrespondingSourceObject: {fileID: 0}
  m_PrefabInstance: {fileID: 0}
  m_PrefabAsset: {fileID: 0}
  serializedVersion: 6
  m_Component:
  - component: {fileID: 4213632767839780}
  m_Layer: 0
  m_Name: Finger_01
  m_TagString: Untagged
  m_Icon: {fileID: 0}
  m_NavMeshLayer: 0
  m_StaticEditorFlags: 0
  m_IsActive: 1
--- !u!4 &4213632767839780
Transform:
  m_ObjectHideFlags: 0
  m_CorrespondingSourceObject: {fileID: 0}
  m_PrefabInstance: {fileID: 0}
  m_PrefabAsset: {fileID: 0}
  m_GameObject: {fileID: 1200704411587398}
  m_LocalRotation: {x: -0.10106448, y: -0.46700662, z: -0.052073725, w: 0.87691456}
  m_LocalPosition: {x: -0.051985342, y: 0.012058426, z: -0.14852415}
  m_LocalScale: {x: 1, y: 1, z: 1}
  m_Children:
  - {fileID: 4609493299269268}
  m_Father: {fileID: 4560055581439608}
  m_RootOrder: 0
  m_LocalEulerAnglesHint: {x: 0, y: 0, z: 0}
--- !u!1 &1221473528308172
GameObject:
  m_ObjectHideFlags: 0
  m_CorrespondingSourceObject: {fileID: 0}
  m_PrefabInstance: {fileID: 0}
  m_PrefabAsset: {fileID: 0}
  serializedVersion: 6
  m_Component:
  - component: {fileID: 4665497756585074}
  m_Layer: 0
  m_Name: Finger_04 1
  m_TagString: Untagged
  m_Icon: {fileID: 0}
  m_NavMeshLayer: 0
  m_StaticEditorFlags: 0
  m_IsActive: 1
--- !u!4 &4665497756585074
Transform:
  m_ObjectHideFlags: 0
  m_CorrespondingSourceObject: {fileID: 0}
  m_PrefabInstance: {fileID: 0}
  m_PrefabAsset: {fileID: 0}
  m_GameObject: {fileID: 1221473528308172}
  m_LocalRotation: {x: 0.021918453, y: 0.095466346, z: -0.22269535, w: 0.9699549}
  m_LocalPosition: {x: 0.047220778, y: -0.000008236042, z: -0.00000043038915}
  m_LocalScale: {x: 1, y: 1, z: 1}
  m_Children: []
  m_Father: {fileID: 4262038750106164}
  m_RootOrder: 0
  m_LocalEulerAnglesHint: {x: 0, y: 0, z: 0}
--- !u!1 &1274856872214002
GameObject:
  m_ObjectHideFlags: 0
  m_CorrespondingSourceObject: {fileID: 0}
  m_PrefabInstance: {fileID: 0}
  m_PrefabAsset: {fileID: 0}
  serializedVersion: 6
  m_Component:
  - component: {fileID: 4852381176437968}
  m_Layer: 0
  m_Name: Finger_02 1
  m_TagString: Untagged
  m_Icon: {fileID: 0}
  m_NavMeshLayer: 0
  m_StaticEditorFlags: 0
  m_IsActive: 1
--- !u!4 &4852381176437968
Transform:
  m_ObjectHideFlags: 0
  m_CorrespondingSourceObject: {fileID: 0}
  m_PrefabInstance: {fileID: 0}
  m_PrefabAsset: {fileID: 0}
  m_GameObject: {fileID: 1274856872214002}
  m_LocalRotation: {x: 0.0035674032, y: 0.019343419, z: 0.028556598, w: 0.99939865}
  m_LocalPosition: {x: 0.064152494, y: 0.000001623162, z: -0.000000044617604}
  m_LocalScale: {x: 1, y: 1, z: 1}
  m_Children:
  - {fileID: 4262038750106164}
  m_Father: {fileID: 4421323432092938}
  m_RootOrder: 0
  m_LocalEulerAnglesHint: {x: 0, y: 0, z: 0}
--- !u!1 &1283730260895264
GameObject:
  m_ObjectHideFlags: 0
  m_CorrespondingSourceObject: {fileID: 0}
  m_PrefabInstance: {fileID: 0}
  m_PrefabAsset: {fileID: 0}
  serializedVersion: 6
  m_Component:
  - component: {fileID: 4204949961472384}
  m_Layer: 0
  m_Name: Finger_03
  m_TagString: Untagged
  m_Icon: {fileID: 0}
  m_NavMeshLayer: 0
  m_StaticEditorFlags: 0
  m_IsActive: 1
--- !u!4 &4204949961472384
Transform:
  m_ObjectHideFlags: 0
  m_CorrespondingSourceObject: {fileID: 0}
  m_PrefabInstance: {fileID: 0}
  m_PrefabAsset: {fileID: 0}
  m_GameObject: {fileID: 1283730260895264}
  m_LocalRotation: {x: -0.023977656, y: -0.06974028, z: 0.11959571, w: 0.99007994}
  m_LocalPosition: {x: -0.05330061, y: -1.7347668e-16, z: 4.2188474e-17}
  m_LocalScale: {x: 1, y: 1, z: 1}
  m_Children:
  - {fileID: 4750721027814448}
  m_Father: {fileID: 4609493299269268}
  m_RootOrder: 0
  m_LocalEulerAnglesHint: {x: 0, y: 0, z: 0}
--- !u!1 &1289457754827658
GameObject:
  m_ObjectHideFlags: 0
  m_CorrespondingSourceObject: {fileID: 0}
  m_PrefabInstance: {fileID: 0}
  m_PrefabAsset: {fileID: 0}
  serializedVersion: 6
  m_Component:
  - component: {fileID: 4691668724006914}
  m_Layer: 0
  m_Name: Ankle_R
  m_TagString: Untagged
  m_Icon: {fileID: 0}
  m_NavMeshLayer: 0
  m_StaticEditorFlags: 0
  m_IsActive: 1
--- !u!4 &4691668724006914
Transform:
  m_ObjectHideFlags: 0
  m_CorrespondingSourceObject: {fileID: 0}
  m_PrefabInstance: {fileID: 0}
  m_PrefabAsset: {fileID: 0}
  m_GameObject: {fileID: 1289457754827658}
  m_LocalRotation: {x: 0.7458738, y: 0.51436746, z: -0.19933209, w: 0.37331632}
  m_LocalPosition: {x: 0.37842116, y: 0.0000002667152, z: 0.00000034490833}
  m_LocalScale: {x: 1, y: 1, z: 1}
  m_Children:
  - {fileID: 4099127232496944}
  m_Father: {fileID: 4416874678015742}
  m_RootOrder: 0
  m_LocalEulerAnglesHint: {x: 0, y: 0, z: 0}
--- !u!1 &1326844820862806
GameObject:
  m_ObjectHideFlags: 0
  m_CorrespondingSourceObject: {fileID: 0}
  m_PrefabInstance: {fileID: 0}
  m_PrefabAsset: {fileID: 0}
  serializedVersion: 6
  m_Component:
  - component: {fileID: 4767971958850650}
  m_Layer: 0
  m_Name: Thumb_02 1
  m_TagString: Untagged
  m_Icon: {fileID: 0}
  m_NavMeshLayer: 0
  m_StaticEditorFlags: 0
  m_IsActive: 1
--- !u!4 &4767971958850650
Transform:
  m_ObjectHideFlags: 0
  m_CorrespondingSourceObject: {fileID: 0}
  m_PrefabInstance: {fileID: 0}
  m_PrefabAsset: {fileID: 0}
  m_GameObject: {fileID: 1326844820862806}
  m_LocalRotation: {x: -0.051516745, y: -0.11325954, z: 0.1766006, w: 0.9763865}
  m_LocalPosition: {x: 0.09702438, y: -0.0000012559718, z: 0.000003968674}
  m_LocalScale: {x: 1, y: 1, z: 1}
  m_Children:
  - {fileID: 4943969476639552}
  m_Father: {fileID: 4846300618272398}
  m_RootOrder: 0
  m_LocalEulerAnglesHint: {x: 0, y: 0, z: 0}
--- !u!1 &1338236771604098
GameObject:
  m_ObjectHideFlags: 0
  m_CorrespondingSourceObject: {fileID: 0}
  m_PrefabInstance: {fileID: 0}
  m_PrefabAsset: {fileID: 0}
  serializedVersion: 6
  m_Component:
  - component: {fileID: 4466865001989010}
  m_Layer: 0
  m_Name: Thumb_02
  m_TagString: Untagged
  m_Icon: {fileID: 0}
  m_NavMeshLayer: 0
  m_StaticEditorFlags: 0
  m_IsActive: 1
--- !u!4 &4466865001989010
Transform:
  m_ObjectHideFlags: 0
  m_CorrespondingSourceObject: {fileID: 0}
  m_PrefabInstance: {fileID: 0}
  m_PrefabAsset: {fileID: 0}
  m_GameObject: {fileID: 1338236771604098}
  m_LocalRotation: {x: -0.051516745, y: -0.11325954, z: 0.1766006, w: 0.9763865}
  m_LocalPosition: {x: -0.09701814, y: 4.396483e-16, z: 1.8651746e-16}
  m_LocalScale: {x: 1, y: 1, z: 1}
  m_Children:
  - {fileID: 4537212362510854}
  m_Father: {fileID: 4888351131131176}
  m_RootOrder: 0
  m_LocalEulerAnglesHint: {x: 0, y: 0, z: 0}
--- !u!1 &1363853261233740
GameObject:
  m_ObjectHideFlags: 0
  m_CorrespondingSourceObject: {fileID: 0}
  m_PrefabInstance: {fileID: 0}
  m_PrefabAsset: {fileID: 0}
  serializedVersion: 6
  m_Component:
  - component: {fileID: 4932497365270714}
  m_Layer: 0
  m_Name: UpperLeg_R
  m_TagString: Untagged
  m_Icon: {fileID: 0}
  m_NavMeshLayer: 0
  m_StaticEditorFlags: 0
  m_IsActive: 1
--- !u!4 &4932497365270714
Transform:
  m_ObjectHideFlags: 0
  m_CorrespondingSourceObject: {fileID: 0}
  m_PrefabInstance: {fileID: 0}
  m_PrefabAsset: {fileID: 0}
  m_GameObject: {fileID: 1363853261233740}
  m_LocalRotation: {x: -0.5862797, y: 0.73465014, z: 0.28922027, w: -0.18143037}
  m_LocalPosition: {x: 0.102061786, y: -0.08152349, z: -1.1102199e-17}
  m_LocalScale: {x: 1, y: 1, z: 1}
  m_Children:
  - {fileID: 4416874678015742}
  m_Father: {fileID: 4989090799191106}
  m_RootOrder: 2
  m_LocalEulerAnglesHint: {x: 0, y: 0, z: 0}
--- !u!1 &1371941175352072
GameObject:
  m_ObjectHideFlags: 0
  m_CorrespondingSourceObject: {fileID: 0}
  m_PrefabInstance: {fileID: 0}
  m_PrefabAsset: {fileID: 0}
  serializedVersion: 6
  m_Component:
  - component: {fileID: 4660255790010246}
  m_Layer: 0
  m_Name: Shoulder_L
  m_TagString: Untagged
  m_Icon: {fileID: 0}
  m_NavMeshLayer: 0
  m_StaticEditorFlags: 0
  m_IsActive: 1
--- !u!4 &4660255790010246
Transform:
  m_ObjectHideFlags: 0
  m_CorrespondingSourceObject: {fileID: 0}
  m_PrefabInstance: {fileID: 0}
  m_PrefabAsset: {fileID: 0}
  m_GameObject: {fileID: 1371941175352072}
  m_LocalRotation: {x: 0.002854416, y: 0.05185208, z: -0.05489182, w: 0.997141}
  m_LocalPosition: {x: -0.16134125, y: -4.7947756e-17, z: -5.7731595e-17}
  m_LocalScale: {x: 1, y: 1, z: 1}
  m_Children:
  - {fileID: 4501710217679214}
  m_Father: {fileID: 4513298969763580}
  m_RootOrder: 0
  m_LocalEulerAnglesHint: {x: 0, y: 0, z: 0}
--- !u!1 &1378675084474314
GameObject:
  m_ObjectHideFlags: 0
  m_CorrespondingSourceObject: {fileID: 0}
  m_PrefabInstance: {fileID: 0}
  m_PrefabAsset: {fileID: 0}
  serializedVersion: 6
  m_Component:
  - component: {fileID: 4099127232496944}
  m_Layer: 0
  m_Name: Ball_R
  m_TagString: Untagged
  m_Icon: {fileID: 0}
  m_NavMeshLayer: 0
  m_StaticEditorFlags: 0
  m_IsActive: 1
--- !u!4 &4099127232496944
Transform:
  m_ObjectHideFlags: 0
  m_CorrespondingSourceObject: {fileID: 0}
  m_PrefabInstance: {fileID: 0}
  m_PrefabAsset: {fileID: 0}
  m_GameObject: {fileID: 1378675084474314}
  m_LocalRotation: {x: 8.331955e-17, y: -2.5633195e-15, z: -0.23606834, w: 0.9717365}
  m_LocalPosition: {x: 0.12877613, y: -0.000000010258867, z: -1.0658141e-16}
  m_LocalScale: {x: 1, y: 1, z: 1}
  m_Children:
  - {fileID: 4502431616319154}
  m_Father: {fileID: 4691668724006914}
  m_RootOrder: 0
  m_LocalEulerAnglesHint: {x: 0, y: 0, z: 0}
--- !u!1 &1388872832045742
GameObject:
  m_ObjectHideFlags: 0
  m_CorrespondingSourceObject: {fileID: 0}
  m_PrefabInstance: {fileID: 0}
  m_PrefabAsset: {fileID: 0}
  serializedVersion: 6
  m_Component:
  - component: {fileID: 4624960838008448}
  - component: {fileID: 137064809956163120}
  m_Layer: 0
  m_Name: Character_Pig_Butcher_01
  m_TagString: Untagged
  m_Icon: {fileID: 0}
  m_NavMeshLayer: 0
  m_StaticEditorFlags: 0
  m_IsActive: 0
--- !u!4 &4624960838008448
Transform:
  m_ObjectHideFlags: 0
  m_CorrespondingSourceObject: {fileID: 0}
  m_PrefabInstance: {fileID: 0}
  m_PrefabAsset: {fileID: 0}
  m_GameObject: {fileID: 1388872832045742}
  m_LocalRotation: {x: 0, y: -0, z: -0, w: 1}
  m_LocalPosition: {x: -0, y: 0, z: 0}
  m_LocalScale: {x: 1, y: 1, z: 1}
  m_Children: []
  m_Father: {fileID: 4804301688967996}
  m_RootOrder: 7
  m_LocalEulerAnglesHint: {x: 0, y: 0, z: 0}
--- !u!137 &137064809956163120
SkinnedMeshRenderer:
  m_ObjectHideFlags: 0
  m_CorrespondingSourceObject: {fileID: 0}
  m_PrefabInstance: {fileID: 0}
  m_PrefabAsset: {fileID: 0}
  m_GameObject: {fileID: 1388872832045742}
  m_Enabled: 1
  m_CastShadows: 1
  m_ReceiveShadows: 1
  m_DynamicOccludee: 1
  m_MotionVectors: 1
  m_LightProbeUsage: 1
  m_ReflectionProbeUsage: 1
  m_RayTracingMode: 3
  m_RayTraceProcedural: 0
  m_RenderingLayerMask: 1
  m_RendererPriority: 0
  m_Materials:
  - {fileID: 2100000, guid: caf01dd5152f3934d8079e6160aa3b1e, type: 2}
  m_StaticBatchInfo:
    firstSubMesh: 0
    subMeshCount: 0
  m_StaticBatchRoot: {fileID: 0}
  m_ProbeAnchor: {fileID: 0}
  m_LightProbeVolumeOverride: {fileID: 0}
  m_ScaleInLightmap: 1
  m_ReceiveGI: 1
  m_PreserveUVs: 0
  m_IgnoreNormalsForChartDetection: 0
  m_ImportantGI: 0
  m_StitchLightmapSeams: 1
  m_SelectedEditorRenderState: 3
  m_MinimumChartSize: 4
  m_AutoUVMaxDistance: 0.5
  m_AutoUVMaxAngle: 89
  m_LightmapParameters: {fileID: 0}
  m_SortingLayerID: 0
  m_SortingLayer: 0
  m_SortingOrder: 0
  serializedVersion: 2
  m_Quality: 0
  m_UpdateWhenOffscreen: 0
  m_SkinnedMotionVectors: 1
  m_Mesh: {fileID: 4300012, guid: a50cd06a0668d1a418d586a2944e3ed5, type: 3}
  m_Bones:
  - {fileID: 4126503885711522}
  - {fileID: 4989090799191106}
  - {fileID: 4601202157104068}
  - {fileID: 4262036049574412}
  - {fileID: 4553271016686658}
  - {fileID: 4631115421022552}
  - {fileID: 4902622719025336}
  - {fileID: 4617807866573612}
  - {fileID: 4127911727306416}
  - {fileID: 4513298969763580}
  - {fileID: 4660255790010246}
  - {fileID: 4501710217679214}
  - {fileID: 4560055581439608}
  - {fileID: 4888351131131176}
  - {fileID: 4466865001989010}
  - {fileID: 4537212362510854}
  - {fileID: 4282794962123234}
  - {fileID: 4479491893653310}
  - {fileID: 4311295535969032}
  - {fileID: 4371745685903772}
  - {fileID: 4213632767839780}
  - {fileID: 4609493299269268}
  - {fileID: 4204949961472384}
  - {fileID: 4750721027814448}
  - {fileID: 4457419654995938}
  - {fileID: 4989779744055174}
  - {fileID: 4695245593314644}
  - {fileID: 4218663422984900}
  - {fileID: 4846300618272398}
  - {fileID: 4767971958850650}
  - {fileID: 4943969476639552}
  - {fileID: 4405512925850162}
  - {fileID: 4305624847783708}
  - {fileID: 4738543612806020}
  - {fileID: 4511122004756990}
  - {fileID: 4421323432092938}
  - {fileID: 4852381176437968}
  - {fileID: 4262038750106164}
  - {fileID: 4665497756585074}
  - {fileID: 4171947991725432}
  - {fileID: 4036884547687828}
  - {fileID: 4405093732578160}
  - {fileID: 4762820446997994}
  - {fileID: 4642324463211748}
  - {fileID: 4932497365270714}
  - {fileID: 4416874678015742}
  - {fileID: 4691668724006914}
  - {fileID: 4099127232496944}
  - {fileID: 4502431616319154}
  m_BlendShapeWeights: []
  m_RootBone: {fileID: 4126503885711522}
  m_AABB:
    m_Center: {x: 0.00000011920929, y: 0.9029965, z: -0.012227356}
    m_Extent: {x: 1.451589, y: 0.9868483, z: 0.46186703}
  m_DirtyAABB: 0
--- !u!1 &1406308692531080
GameObject:
  m_ObjectHideFlags: 0
  m_CorrespondingSourceObject: {fileID: 0}
  m_PrefabInstance: {fileID: 0}
  m_PrefabAsset: {fileID: 0}
  serializedVersion: 6
  m_Component:
  - component: {fileID: 4171947991725432}
  m_Layer: 0
  m_Name: UpperLeg_L
  m_TagString: Untagged
  m_Icon: {fileID: 0}
  m_NavMeshLayer: 0
  m_StaticEditorFlags: 0
  m_IsActive: 1
--- !u!4 &4171947991725432
Transform:
  m_ObjectHideFlags: 0
  m_CorrespondingSourceObject: {fileID: 0}
  m_PrefabInstance: {fileID: 0}
  m_PrefabAsset: {fileID: 0}
  m_GameObject: {fileID: 1406308692531080}
  m_LocalRotation: {x: -0.2668567, y: -0.21296215, z: 0.49947354, w: 0.7962166}
  m_LocalPosition: {x: -0.13062388, y: -8.881784e-18, z: -1.11022296e-17}
  m_LocalScale: {x: 1, y: 1, z: 1}
  m_Children:
  - {fileID: 4036884547687828}
  m_Father: {fileID: 4989090799191106}
  m_RootOrder: 1
  m_LocalEulerAnglesHint: {x: 0, y: 0, z: 0}
--- !u!1 &1409815662558462
GameObject:
  m_ObjectHideFlags: 0
  m_CorrespondingSourceObject: {fileID: 0}
  m_PrefabInstance: {fileID: 0}
  m_PrefabAsset: {fileID: 0}
  serializedVersion: 6
  m_Component:
  - component: {fileID: 4989090799191106}
  m_Layer: 0
  m_Name: Hips
  m_TagString: Untagged
  m_Icon: {fileID: 0}
  m_NavMeshLayer: 0
  m_StaticEditorFlags: 0
  m_IsActive: 1
--- !u!4 &4989090799191106
Transform:
  m_ObjectHideFlags: 0
  m_CorrespondingSourceObject: {fileID: 0}
  m_PrefabInstance: {fileID: 0}
  m_PrefabAsset: {fileID: 0}
  m_GameObject: {fileID: 1409815662558462}
  m_LocalRotation: {x: -2.9400024e-16, y: 5.6125208e-15, z: 0.16770098, w: 0.98583794}
  m_LocalPosition: {x: -0, y: 0.8762761, z: 0}
  m_LocalScale: {x: 1, y: 1, z: 1}
  m_Children:
  - {fileID: 4601202157104068}
  - {fileID: 4171947991725432}
  - {fileID: 4932497365270714}
  m_Father: {fileID: 4126503885711522}
  m_RootOrder: 0
  m_LocalEulerAnglesHint: {x: 0, y: 0, z: 0}
--- !u!1 &1429416797599622
GameObject:
  m_ObjectHideFlags: 0
  m_CorrespondingSourceObject: {fileID: 0}
  m_PrefabInstance: {fileID: 0}
  m_PrefabAsset: {fileID: 0}
  serializedVersion: 6
  m_Component:
  - component: {fileID: 4305624847783708}
  m_Layer: 0
  m_Name: IndexFinger_02 1
  m_TagString: Untagged
  m_Icon: {fileID: 0}
  m_NavMeshLayer: 0
  m_StaticEditorFlags: 0
  m_IsActive: 1
--- !u!4 &4305624847783708
Transform:
  m_ObjectHideFlags: 0
  m_CorrespondingSourceObject: {fileID: 0}
  m_PrefabInstance: {fileID: 0}
  m_PrefabAsset: {fileID: 0}
  m_GameObject: {fileID: 1429416797599622}
  m_LocalRotation: {x: -0.0015534081, y: -0.010691182, z: 0.13226552, w: 0.9911555}
  m_LocalPosition: {x: 0.061476283, y: -0.0000047270864, z: 0.00000030396376}
  m_LocalScale: {x: 1, y: 1, z: 1}
  m_Children:
  - {fileID: 4738543612806020}
  m_Father: {fileID: 4405512925850162}
  m_RootOrder: 0
  m_LocalEulerAnglesHint: {x: 0, y: 0, z: 0}
--- !u!1 &1507882752340762
GameObject:
  m_ObjectHideFlags: 0
  m_CorrespondingSourceObject: {fileID: 0}
  m_PrefabInstance: {fileID: 0}
  m_PrefabAsset: {fileID: 0}
  serializedVersion: 6
  m_Component:
  - component: {fileID: 4902622719025336}
  m_Layer: 0
  m_Name: Head
  m_TagString: Untagged
  m_Icon: {fileID: 0}
  m_NavMeshLayer: 0
  m_StaticEditorFlags: 0
  m_IsActive: 1
--- !u!4 &4902622719025336
Transform:
  m_ObjectHideFlags: 0
  m_CorrespondingSourceObject: {fileID: 0}
  m_PrefabInstance: {fileID: 0}
  m_PrefabAsset: {fileID: 0}
  m_GameObject: {fileID: 1507882752340762}
  m_LocalRotation: {x: 2.7247159e-15, y: 2.640653e-15, z: 0.10955092, w: 0.9939812}
  m_LocalPosition: {x: -0.08285272, y: 0.036295444, z: -0.0000000011654561}
  m_LocalScale: {x: 1, y: 1, z: 1}
  m_Children:
  - {fileID: 4617807866573612}
  - {fileID: 4127911727306416}
  m_Father: {fileID: 4631115421022552}
  m_RootOrder: 0
  m_LocalEulerAnglesHint: {x: 0, y: 0, z: 0}
--- !u!1 &1553062572792240
GameObject:
  m_ObjectHideFlags: 0
  m_CorrespondingSourceObject: {fileID: 0}
  m_PrefabInstance: {fileID: 0}
  m_PrefabAsset: {fileID: 0}
  serializedVersion: 6
  m_Component:
  - component: {fileID: 4601202157104068}
  m_Layer: 0
  m_Name: Spine_01
  m_TagString: Untagged
  m_Icon: {fileID: 0}
  m_NavMeshLayer: 0
  m_StaticEditorFlags: 0
  m_IsActive: 1
--- !u!4 &4601202157104068
Transform:
  m_ObjectHideFlags: 0
  m_CorrespondingSourceObject: {fileID: 0}
  m_PrefabInstance: {fileID: 0}
  m_PrefabAsset: {fileID: 0}
  m_GameObject: {fileID: 1553062572792240}
  m_LocalRotation: {x: -0.39460626, y: 0.58675885, z: -0.5664237, w: 0.42327797}
  m_LocalPosition: {x: 0.03397978, y: 0.0969857, z: -0.015528781}
  m_LocalScale: {x: 1, y: 1, z: 1}
  m_Children:
  - {fileID: 4262036049574412}
  m_Father: {fileID: 4989090799191106}
  m_RootOrder: 0
  m_LocalEulerAnglesHint: {x: 0, y: 0, z: 0}
--- !u!1 &1555219447580646
GameObject:
  m_ObjectHideFlags: 0
  m_CorrespondingSourceObject: {fileID: 0}
  m_PrefabInstance: {fileID: 0}
  m_PrefabAsset: {fileID: 0}
  serializedVersion: 6
  m_Component:
  - component: {fileID: 4750721027814448}
  m_Layer: 0
  m_Name: Finger_04
  m_TagString: Untagged
  m_Icon: {fileID: 0}
  m_NavMeshLayer: 0
  m_StaticEditorFlags: 0
  m_IsActive: 1
--- !u!4 &4750721027814448
Transform:
  m_ObjectHideFlags: 0
  m_CorrespondingSourceObject: {fileID: 0}
  m_PrefabInstance: {fileID: 0}
  m_PrefabAsset: {fileID: 0}
  m_GameObject: {fileID: 1555219447580646}
  m_LocalRotation: {x: 0.021918453, y: 0.095466346, z: -0.22269535, w: 0.9699549}
  m_LocalPosition: {x: -0.047222238, y: -3.8635761e-16, z: -5.662137e-17}
  m_LocalScale: {x: 1, y: 1, z: 1}
  m_Children: []
  m_Father: {fileID: 4204949961472384}
  m_RootOrder: 0
  m_LocalEulerAnglesHint: {x: 0, y: 0, z: 0}
--- !u!1 &1579765813080028
GameObject:
  m_ObjectHideFlags: 0
  m_CorrespondingSourceObject: {fileID: 0}
  m_PrefabInstance: {fileID: 0}
  m_PrefabAsset: {fileID: 0}
  serializedVersion: 6
  m_Component:
  - component: {fileID: 4405512925850162}
  m_Layer: 0
  m_Name: IndexFinger_01 1
  m_TagString: Untagged
  m_Icon: {fileID: 0}
  m_NavMeshLayer: 0
  m_StaticEditorFlags: 0
  m_IsActive: 1
--- !u!4 &4405512925850162
Transform:
  m_ObjectHideFlags: 0
  m_CorrespondingSourceObject: {fileID: 0}
  m_PrefabInstance: {fileID: 0}
  m_PrefabAsset: {fileID: 0}
  m_GameObject: {fileID: 1579765813080028}
  m_LocalRotation: {x: -0.05360258, y: -0.37485918, z: -0.12035185, w: 0.9176725}
  m_LocalPosition: {x: 0.12075663, y: -0.04220975, z: 0.09842222}
  m_LocalScale: {x: 1, y: 1, z: 1}
  m_Children:
  - {fileID: 4305624847783708}
  m_Father: {fileID: 4218663422984900}
  m_RootOrder: 1
  m_LocalEulerAnglesHint: {x: 0, y: 0, z: 0}
--- !u!1 &1581299515109872
GameObject:
  m_ObjectHideFlags: 0
  m_CorrespondingSourceObject: {fileID: 0}
  m_PrefabInstance: {fileID: 0}
  m_PrefabAsset: {fileID: 0}
  serializedVersion: 6
  m_Component:
  - component: {fileID: 4553271016686658}
  m_Layer: 0
  m_Name: Spine_03
  m_TagString: Untagged
  m_Icon: {fileID: 0}
  m_NavMeshLayer: 0
  m_StaticEditorFlags: 0
  m_IsActive: 1
--- !u!4 &4553271016686658
Transform:
  m_ObjectHideFlags: 0
  m_CorrespondingSourceObject: {fileID: 0}
  m_PrefabInstance: {fileID: 0}
  m_PrefabAsset: {fileID: 0}
  m_GameObject: {fileID: 1581299515109872}
  m_LocalRotation: {x: 0.97811157, y: -0.20808119, z: 8.1877877e-10, w: 1.7418517e-10}
  m_LocalPosition: {x: -0.17903724, y: 2.5588683e-17, z: -5.236993e-15}
  m_LocalScale: {x: 1, y: 1, z: 1}
  m_Children:
  - {fileID: 4513298969763580}
  - {fileID: 4457419654995938}
  - {fileID: 4631115421022552}
  m_Father: {fileID: 4262036049574412}
  m_RootOrder: 0
  m_LocalEulerAnglesHint: {x: 0, y: 0, z: 0}
--- !u!1 &1591816257567320
GameObject:
  m_ObjectHideFlags: 0
  m_CorrespondingSourceObject: {fileID: 0}
  m_PrefabInstance: {fileID: 0}
  m_PrefabAsset: {fileID: 0}
  serializedVersion: 6
  m_Component:
  - component: {fileID: 4405093732578160}
  m_Layer: 0
  m_Name: Ankle_L
  m_TagString: Untagged
  m_Icon: {fileID: 0}
  m_NavMeshLayer: 0
  m_StaticEditorFlags: 0
  m_IsActive: 1
--- !u!4 &4405093732578160
Transform:
  m_ObjectHideFlags: 0
  m_CorrespondingSourceObject: {fileID: 0}
  m_PrefabInstance: {fileID: 0}
  m_PrefabAsset: {fileID: 0}
  m_GameObject: {fileID: 1591816257567320}
  m_LocalRotation: {x: 0.7458738, y: 0.51436746, z: -0.19933209, w: 0.37331632}
  m_LocalPosition: {x: -0.37842098, y: -0.00000000799083, z: -0.00000017884236}
  m_LocalScale: {x: 1, y: 1, z: 1}
  m_Children:
  - {fileID: 4762820446997994}
  m_Father: {fileID: 4036884547687828}
  m_RootOrder: 0
  m_LocalEulerAnglesHint: {x: 0, y: 0, z: 0}
--- !u!1 &1599232494487260
GameObject:
  m_ObjectHideFlags: 0
  m_CorrespondingSourceObject: {fileID: 0}
  m_PrefabInstance: {fileID: 0}
  m_PrefabAsset: {fileID: 0}
  serializedVersion: 6
  m_Component:
  - component: {fileID: 4989779744055174}
  m_Layer: 0
  m_Name: Shoulder_R
  m_TagString: Untagged
  m_Icon: {fileID: 0}
  m_NavMeshLayer: 0
  m_StaticEditorFlags: 0
  m_IsActive: 1
--- !u!4 &4989779744055174
Transform:
  m_ObjectHideFlags: 0
  m_CorrespondingSourceObject: {fileID: 0}
  m_PrefabInstance: {fileID: 0}
  m_PrefabAsset: {fileID: 0}
  m_GameObject: {fileID: 1599232494487260}
  m_LocalRotation: {x: 0.002854416, y: 0.05185208, z: -0.05489182, w: 0.997141}
  m_LocalPosition: {x: 0.16134152, y: 0.00000022487666, z: -0.00000006441897}
  m_LocalScale: {x: 1, y: 1, z: 1}
  m_Children:
  - {fileID: 4695245593314644}
  m_Father: {fileID: 4457419654995938}
  m_RootOrder: 0
  m_LocalEulerAnglesHint: {x: 0, y: 0, z: 0}
--- !u!1 &1610686935283876
GameObject:
  m_ObjectHideFlags: 0
  m_CorrespondingSourceObject: {fileID: 0}
  m_PrefabInstance: {fileID: 0}
  m_PrefabAsset: {fileID: 0}
  serializedVersion: 6
  m_Component:
  - component: {fileID: 4560055581439608}
  m_Layer: 0
  m_Name: Hand_L
  m_TagString: Untagged
  m_Icon: {fileID: 0}
  m_NavMeshLayer: 0
  m_StaticEditorFlags: 0
  m_IsActive: 1
--- !u!4 &4560055581439608
Transform:
  m_ObjectHideFlags: 0
  m_CorrespondingSourceObject: {fileID: 0}
  m_PrefabInstance: {fileID: 0}
  m_PrefabAsset: {fileID: 0}
  m_GameObject: {fileID: 1610686935283876}
  m_LocalRotation: {x: 0.05427486, y: 0.395974, z: 0.124479234, w: 0.9081651}
  m_LocalPosition: {x: -0.3286817, y: -5.684342e-16, z: 1.4654943e-16}
  m_LocalScale: {x: 1, y: 1, z: 1}
  m_Children:
  - {fileID: 4213632767839780}
  - {fileID: 4282794962123234}
  - {fileID: 4888351131131176}
  m_Father: {fileID: 4501710217679214}
  m_RootOrder: 0
  m_LocalEulerAnglesHint: {x: 0, y: 0, z: 0}
--- !u!1 &1652650793432430
GameObject:
  m_ObjectHideFlags: 0
  m_CorrespondingSourceObject: {fileID: 0}
  m_PrefabInstance: {fileID: 0}
  m_PrefabAsset: {fileID: 0}
  serializedVersion: 6
  m_Component:
  - component: {fileID: 4804301688967996}
  - component: {fileID: 95888706063046028}
  - component: {fileID: -4695153632676145004}
  m_Layer: 0
  m_Name: Character_BR_BarbarianGiant_01
  m_TagString: Untagged
  m_Icon: {fileID: 0}
  m_NavMeshLayer: 0
  m_StaticEditorFlags: 0
  m_IsActive: 1
--- !u!4 &4804301688967996
Transform:
  m_ObjectHideFlags: 0
  m_CorrespondingSourceObject: {fileID: 0}
  m_PrefabInstance: {fileID: 0}
  m_PrefabAsset: {fileID: 0}
  m_GameObject: {fileID: 1652650793432430}
  m_LocalRotation: {x: 0, y: 0, z: 0, w: 1}
  m_LocalPosition: {x: 0, y: 0, z: 0}
  m_LocalScale: {x: 2.2, y: 2.2, z: 2.2}
  m_Children:
  - {fileID: 4479315128745756}
  - {fileID: 4377680284669650}
  - {fileID: 4387620352287270}
  - {fileID: 4043079554339452}
  - {fileID: 4962827175803514}
  - {fileID: 4700688279953658}
  - {fileID: 4309228329308116}
  - {fileID: 4624960838008448}
  - {fileID: 4052520935977764}
  - {fileID: 4063953315584156}
  - {fileID: 4974874458919070}
  - {fileID: 4126503885711522}
  m_Father: {fileID: 0}
  m_RootOrder: 0
  m_LocalEulerAnglesHint: {x: 0, y: 0, z: 0}
--- !u!95 &95888706063046028
Animator:
  serializedVersion: 3
  m_ObjectHideFlags: 0
  m_CorrespondingSourceObject: {fileID: 0}
  m_PrefabInstance: {fileID: 0}
  m_PrefabAsset: {fileID: 0}
  m_GameObject: {fileID: 1652650793432430}
  m_Enabled: 1
  m_Avatar: {fileID: 9000000, guid: 4f62b44da4d9d514d8fdc6ef71434554, type: 3}
  m_Controller: {fileID: 9100000, guid: 6e460db62e3333f4888fe9ba9d0366fc, type: 2}
  m_CullingMode: 1
  m_UpdateMode: 0
  m_ApplyRootMotion: 0
  m_LinearVelocityBlending: 0
  m_WarningMessage: 
  m_HasTransformHierarchy: 1
  m_AllowConstantClipSamplingOptimization: 1
  m_KeepAnimatorControllerStateOnDisable: 0
--- !u!114 &-4695153632676145004
MonoBehaviour:
  m_ObjectHideFlags: 0
  m_CorrespondingSourceObject: {fileID: 0}
  m_PrefabInstance: {fileID: 0}
  m_PrefabAsset: {fileID: 0}
  m_GameObject: {fileID: 1652650793432430}
  m_Enabled: 1
  m_EditorHideFlags: 0
  m_Script: {fileID: 11500000, guid: 3cc298df91de2f447a688a6cbcaab9d4, type: 3}
  m_Name: 
  m_EditorClassIdentifier: 
--- !u!1 &1667054414730968
GameObject:
  m_ObjectHideFlags: 0
  m_CorrespondingSourceObject: {fileID: 0}
  m_PrefabInstance: {fileID: 0}
  m_PrefabAsset: {fileID: 0}
  serializedVersion: 6
  m_Component:
  - component: {fileID: 4479315128745756}
  - component: {fileID: 137649435594546306}
  m_Layer: 0
  m_Name: Character_BarbarianGiant_01
  m_TagString: Untagged
  m_Icon: {fileID: 0}
  m_NavMeshLayer: 0
  m_StaticEditorFlags: 0
  m_IsActive: 1
--- !u!4 &4479315128745756
Transform:
  m_ObjectHideFlags: 0
  m_CorrespondingSourceObject: {fileID: 0}
  m_PrefabInstance: {fileID: 0}
  m_PrefabAsset: {fileID: 0}
  m_GameObject: {fileID: 1667054414730968}
  m_LocalRotation: {x: 0, y: -0, z: -0, w: 1}
  m_LocalPosition: {x: -0, y: 0, z: 0}
  m_LocalScale: {x: 1, y: 1, z: 1}
  m_Children: []
  m_Father: {fileID: 4804301688967996}
  m_RootOrder: 0
  m_LocalEulerAnglesHint: {x: 0, y: 0, z: 0}
--- !u!137 &137649435594546306
SkinnedMeshRenderer:
  m_ObjectHideFlags: 0
  m_CorrespondingSourceObject: {fileID: 0}
  m_PrefabInstance: {fileID: 0}
  m_PrefabAsset: {fileID: 0}
  m_GameObject: {fileID: 1667054414730968}
  m_Enabled: 1
  m_CastShadows: 1
  m_ReceiveShadows: 1
  m_DynamicOccludee: 1
  m_MotionVectors: 1
  m_LightProbeUsage: 1
  m_ReflectionProbeUsage: 1
  m_RayTracingMode: 3
  m_RayTraceProcedural: 0
  m_RenderingLayerMask: 1
  m_RendererPriority: 0
  m_Materials:
  - {fileID: 2100000, guid: caf01dd5152f3934d8079e6160aa3b1e, type: 2}
  m_StaticBatchInfo:
    firstSubMesh: 0
    subMeshCount: 0
  m_StaticBatchRoot: {fileID: 0}
  m_ProbeAnchor: {fileID: 0}
  m_LightProbeVolumeOverride: {fileID: 0}
  m_ScaleInLightmap: 1
  m_ReceiveGI: 1
  m_PreserveUVs: 0
  m_IgnoreNormalsForChartDetection: 0
  m_ImportantGI: 0
  m_StitchLightmapSeams: 1
  m_SelectedEditorRenderState: 3
  m_MinimumChartSize: 4
  m_AutoUVMaxDistance: 0.5
  m_AutoUVMaxAngle: 89
  m_LightmapParameters: {fileID: 0}
  m_SortingLayerID: 0
  m_SortingLayer: 0
  m_SortingOrder: 0
  serializedVersion: 2
  m_Quality: 0
  m_UpdateWhenOffscreen: 0
  m_SkinnedMotionVectors: 1
  m_Mesh: {fileID: 7898535415190616381, guid: 4f62b44da4d9d514d8fdc6ef71434554, type: 3}
  m_Bones:
  - {fileID: 4126503885711522}
  - {fileID: 4989090799191106}
  - {fileID: 4601202157104068}
  - {fileID: 4262036049574412}
  - {fileID: 4553271016686658}
  - {fileID: 4631115421022552}
  - {fileID: 4902622719025336}
  - {fileID: 4617807866573612}
  - {fileID: 4127911727306416}
  - {fileID: 4513298969763580}
  - {fileID: 4660255790010246}
  - {fileID: 4501710217679214}
  - {fileID: 4560055581439608}
  - {fileID: 4888351131131176}
  - {fileID: 4466865001989010}
  - {fileID: 4537212362510854}
  - {fileID: 4282794962123234}
  - {fileID: 4479491893653310}
  - {fileID: 4311295535969032}
  - {fileID: 4371745685903772}
  - {fileID: 4213632767839780}
  - {fileID: 4609493299269268}
  - {fileID: 4204949961472384}
  - {fileID: 4750721027814448}
  - {fileID: 4457419654995938}
  - {fileID: 4989779744055174}
  - {fileID: 4695245593314644}
  - {fileID: 4218663422984900}
  - {fileID: 4846300618272398}
  - {fileID: 4767971958850650}
  - {fileID: 4943969476639552}
  - {fileID: 4405512925850162}
  - {fileID: 4305624847783708}
  - {fileID: 4738543612806020}
  - {fileID: 4511122004756990}
  - {fileID: 4421323432092938}
  - {fileID: 4852381176437968}
  - {fileID: 4262038750106164}
  - {fileID: 4665497756585074}
  - {fileID: 4171947991725432}
  - {fileID: 4036884547687828}
  - {fileID: 4405093732578160}
  - {fileID: 4762820446997994}
  - {fileID: 4642324463211748}
  - {fileID: 4932497365270714}
  - {fileID: 4416874678015742}
  - {fileID: 4691668724006914}
  - {fileID: 4099127232496944}
  - {fileID: 4502431616319154}
  m_BlendShapeWeights: []
  m_RootBone: {fileID: 4126503885711522}
  m_AABB:
    m_Center: {x: 0.00000017881393, y: 0.9082171, z: 0.035351098}
    m_Extent: {x: 1.4515893, y: 0.9894341, z: 0.41817784}
  m_DirtyAABB: 0
--- !u!1 &1686198788676102
GameObject:
  m_ObjectHideFlags: 0
  m_CorrespondingSourceObject: {fileID: 0}
  m_PrefabInstance: {fileID: 0}
  m_PrefabAsset: {fileID: 0}
  serializedVersion: 6
  m_Component:
  - component: {fileID: 4036884547687828}
  m_Layer: 0
  m_Name: LowerLeg_L
  m_TagString: Untagged
  m_Icon: {fileID: 0}
  m_NavMeshLayer: 0
  m_StaticEditorFlags: 0
  m_IsActive: 1
--- !u!4 &4036884547687828
Transform:
  m_ObjectHideFlags: 0
  m_CorrespondingSourceObject: {fileID: 0}
  m_PrefabInstance: {fileID: 0}
  m_PrefabAsset: {fileID: 0}
  m_GameObject: {fileID: 1686198788676102}
  m_LocalRotation: {x: 7.4940054e-16, y: -9.2374025e-17, z: 3.0335977e-15, w: 1}
  m_LocalPosition: {x: -0.37842098, y: 1.02140514e-16, z: 2.2204459e-17}
  m_LocalScale: {x: 1, y: 1, z: 1}
  m_Children:
  - {fileID: 4405093732578160}
  m_Father: {fileID: 4171947991725432}
  m_RootOrder: 0
  m_LocalEulerAnglesHint: {x: 0, y: 0, z: 0}
--- !u!1 &1730216139665836
GameObject:
  m_ObjectHideFlags: 0
  m_CorrespondingSourceObject: {fileID: 0}
  m_PrefabInstance: {fileID: 0}
  m_PrefabAsset: {fileID: 0}
  serializedVersion: 6
  m_Component:
  - component: {fileID: 4846300618272398}
  m_Layer: 0
  m_Name: Thumb_01 1
  m_TagString: Untagged
  m_Icon: {fileID: 0}
  m_NavMeshLayer: 0
  m_StaticEditorFlags: 0
  m_IsActive: 1
--- !u!4 &4846300618272398
Transform:
  m_ObjectHideFlags: 0
  m_CorrespondingSourceObject: {fileID: 0}
  m_PrefabInstance: {fileID: 0}
  m_PrefabAsset: {fileID: 0}
  m_GameObject: {fileID: 1730216139665836}
  m_LocalRotation: {x: -0.044153277, y: -0.16584834, z: -0.012062183, w: 0.9850885}
  m_LocalPosition: {x: 0.08908848, y: -0.0000018401335, z: 0.0000010454004}
  m_LocalScale: {x: 1, y: 1, z: 1}
  m_Children:
  - {fileID: 4767971958850650}
  m_Father: {fileID: 4218663422984900}
  m_RootOrder: 2
  m_LocalEulerAnglesHint: {x: 0, y: 0, z: 0}
--- !u!1 &1738405017610626
GameObject:
  m_ObjectHideFlags: 0
  m_CorrespondingSourceObject: {fileID: 0}
  m_PrefabInstance: {fileID: 0}
  m_PrefabAsset: {fileID: 0}
  serializedVersion: 6
  m_Component:
  - component: {fileID: 4387620352287270}
  - component: {fileID: 137819180172031790}
  m_Layer: 0
  m_Name: Character_Dwarf_01
  m_TagString: Untagged
  m_Icon: {fileID: 0}
  m_NavMeshLayer: 0
  m_StaticEditorFlags: 0
  m_IsActive: 0
--- !u!4 &4387620352287270
Transform:
  m_ObjectHideFlags: 0
  m_CorrespondingSourceObject: {fileID: 0}
  m_PrefabInstance: {fileID: 0}
  m_PrefabAsset: {fileID: 0}
  m_GameObject: {fileID: 1738405017610626}
  m_LocalRotation: {x: 0, y: -0, z: -0, w: 1}
  m_LocalPosition: {x: -0, y: 0, z: 0}
  m_LocalScale: {x: 1, y: 1, z: 1}
  m_Children: []
  m_Father: {fileID: 4804301688967996}
  m_RootOrder: 2
  m_LocalEulerAnglesHint: {x: 0, y: 0, z: 0}
--- !u!137 &137819180172031790
SkinnedMeshRenderer:
  m_ObjectHideFlags: 0
  m_CorrespondingSourceObject: {fileID: 0}
  m_PrefabInstance: {fileID: 0}
  m_PrefabAsset: {fileID: 0}
  m_GameObject: {fileID: 1738405017610626}
  m_Enabled: 1
  m_CastShadows: 1
  m_ReceiveShadows: 1
  m_DynamicOccludee: 1
  m_MotionVectors: 1
  m_LightProbeUsage: 1
  m_ReflectionProbeUsage: 1
  m_RayTracingMode: 3
  m_RayTraceProcedural: 0
  m_RenderingLayerMask: 1
  m_RendererPriority: 0
  m_Materials:
  - {fileID: 2100000, guid: caf01dd5152f3934d8079e6160aa3b1e, type: 2}
  m_StaticBatchInfo:
    firstSubMesh: 0
    subMeshCount: 0
  m_StaticBatchRoot: {fileID: 0}
  m_ProbeAnchor: {fileID: 0}
  m_LightProbeVolumeOverride: {fileID: 0}
  m_ScaleInLightmap: 1
  m_ReceiveGI: 1
  m_PreserveUVs: 0
  m_IgnoreNormalsForChartDetection: 0
  m_ImportantGI: 0
  m_StitchLightmapSeams: 1
  m_SelectedEditorRenderState: 3
  m_MinimumChartSize: 4
  m_AutoUVMaxDistance: 0.5
  m_AutoUVMaxAngle: 89
  m_LightmapParameters: {fileID: 0}
  m_SortingLayerID: 0
  m_SortingLayer: 0
  m_SortingOrder: 0
  serializedVersion: 2
  m_Quality: 0
  m_UpdateWhenOffscreen: 0
  m_SkinnedMotionVectors: 1
  m_Mesh: {fileID: 4300020, guid: a50cd06a0668d1a418d586a2944e3ed5, type: 3}
  m_Bones:
  - {fileID: 4126503885711522}
  - {fileID: 4989090799191106}
  - {fileID: 4601202157104068}
  - {fileID: 4262036049574412}
  - {fileID: 4553271016686658}
  - {fileID: 4631115421022552}
  - {fileID: 4902622719025336}
  - {fileID: 4617807866573612}
  - {fileID: 4127911727306416}
  - {fileID: 4513298969763580}
  - {fileID: 4660255790010246}
  - {fileID: 4501710217679214}
  - {fileID: 4560055581439608}
  - {fileID: 4888351131131176}
  - {fileID: 4466865001989010}
  - {fileID: 4537212362510854}
  - {fileID: 4282794962123234}
  - {fileID: 4479491893653310}
  - {fileID: 4311295535969032}
  - {fileID: 4371745685903772}
  - {fileID: 4213632767839780}
  - {fileID: 4609493299269268}
  - {fileID: 4204949961472384}
  - {fileID: 4750721027814448}
  - {fileID: 4457419654995938}
  - {fileID: 4989779744055174}
  - {fileID: 4695245593314644}
  - {fileID: 4218663422984900}
  - {fileID: 4846300618272398}
  - {fileID: 4767971958850650}
  - {fileID: 4943969476639552}
  - {fileID: 4405512925850162}
  - {fileID: 4305624847783708}
  - {fileID: 4738543612806020}
  - {fileID: 4511122004756990}
  - {fileID: 4421323432092938}
  - {fileID: 4852381176437968}
  - {fileID: 4262038750106164}
  - {fileID: 4665497756585074}
  - {fileID: 4171947991725432}
  - {fileID: 4036884547687828}
  - {fileID: 4405093732578160}
  - {fileID: 4762820446997994}
  - {fileID: 4642324463211748}
  - {fileID: 4932497365270714}
  - {fileID: 4416874678015742}
  - {fileID: 4691668724006914}
  - {fileID: 4099127232496944}
  - {fileID: 4502431616319154}
  m_BlendShapeWeights: []
  m_RootBone: {fileID: 4126503885711522}
  m_AABB:
    m_Center: {x: 0.000000059604645, y: 0.9959277, z: 0.012999177}
    m_Extent: {x: 1.4546254, y: 1.088936, z: 0.46276748}
  m_DirtyAABB: 0
--- !u!1 &1743543206251902
GameObject:
  m_ObjectHideFlags: 0
  m_CorrespondingSourceObject: {fileID: 0}
  m_PrefabInstance: {fileID: 0}
  m_PrefabAsset: {fileID: 0}
  serializedVersion: 6
  m_Component:
  - component: {fileID: 4738543612806020}
  m_Layer: 0
  m_Name: IndexFinger_03 1
  m_TagString: Untagged
  m_Icon: {fileID: 0}
  m_NavMeshLayer: 0
  m_StaticEditorFlags: 0
  m_IsActive: 1
--- !u!4 &4738543612806020
Transform:
  m_ObjectHideFlags: 0
  m_CorrespondingSourceObject: {fileID: 0}
  m_PrefabInstance: {fileID: 0}
  m_PrefabAsset: {fileID: 0}
  m_GameObject: {fileID: 1743543206251902}
  m_LocalRotation: {x: -0.009142615, y: -0.025011526, z: 0.07340528, w: 0.99694663}
  m_LocalPosition: {x: 0.05794711, y: 0.0000061344235, z: 0.00000056286797}
  m_LocalScale: {x: 1, y: 1, z: 1}
  m_Children:
  - {fileID: 4511122004756990}
  m_Father: {fileID: 4305624847783708}
  m_RootOrder: 0
  m_LocalEulerAnglesHint: {x: 0, y: 0, z: 0}
--- !u!1 &1760728279378168
GameObject:
  m_ObjectHideFlags: 0
  m_CorrespondingSourceObject: {fileID: 0}
  m_PrefabInstance: {fileID: 0}
  m_PrefabAsset: {fileID: 0}
  serializedVersion: 6
  m_Component:
  - component: {fileID: 4127911727306416}
  m_Layer: 0
  m_Name: Eyes
  m_TagString: Untagged
  m_Icon: {fileID: 0}
  m_NavMeshLayer: 0
  m_StaticEditorFlags: 0
  m_IsActive: 1
--- !u!4 &4127911727306416
Transform:
  m_ObjectHideFlags: 0
  m_CorrespondingSourceObject: {fileID: 0}
  m_PrefabInstance: {fileID: 0}
  m_PrefabAsset: {fileID: 0}
  m_GameObject: {fileID: 1760728279378168}
  m_LocalRotation: {x: 0.15786923, y: -0.6892585, z: 0.15786923, w: 0.6892585}
  m_LocalPosition: {x: -0.18457133, y: 0.010586951, z: 7.950428e-11}
  m_LocalScale: {x: 1, y: 1, z: 1}
  m_Children: []
  m_Father: {fileID: 4902622719025336}
  m_RootOrder: 1
  m_LocalEulerAnglesHint: {x: 0, y: 0, z: 0}
--- !u!1 &1768750893662832
GameObject:
  m_ObjectHideFlags: 0
  m_CorrespondingSourceObject: {fileID: 0}
  m_PrefabInstance: {fileID: 0}
  m_PrefabAsset: {fileID: 0}
  serializedVersion: 6
  m_Component:
  - component: {fileID: 4962827175803514}
  - component: {fileID: 137354900205918612}
  m_Layer: 0
  m_Name: Character_FortGolem_01
  m_TagString: Untagged
  m_Icon: {fileID: 0}
  m_NavMeshLayer: 0
  m_StaticEditorFlags: 0
  m_IsActive: 0
--- !u!4 &4962827175803514
Transform:
  m_ObjectHideFlags: 0
  m_CorrespondingSourceObject: {fileID: 0}
  m_PrefabInstance: {fileID: 0}
  m_PrefabAsset: {fileID: 0}
  m_GameObject: {fileID: 1768750893662832}
  m_LocalRotation: {x: 0, y: -0, z: -0, w: 1}
  m_LocalPosition: {x: -0, y: 0, z: 0}
  m_LocalScale: {x: 1, y: 1, z: 1}
  m_Children: []
  m_Father: {fileID: 4804301688967996}
  m_RootOrder: 4
  m_LocalEulerAnglesHint: {x: 0, y: 0, z: 0}
--- !u!137 &137354900205918612
SkinnedMeshRenderer:
  m_ObjectHideFlags: 0
  m_CorrespondingSourceObject: {fileID: 0}
  m_PrefabInstance: {fileID: 0}
  m_PrefabAsset: {fileID: 0}
  m_GameObject: {fileID: 1768750893662832}
  m_Enabled: 1
  m_CastShadows: 1
  m_ReceiveShadows: 1
  m_DynamicOccludee: 1
  m_MotionVectors: 1
  m_LightProbeUsage: 1
  m_ReflectionProbeUsage: 1
  m_RayTracingMode: 3
  m_RayTraceProcedural: 0
  m_RenderingLayerMask: 1
  m_RendererPriority: 0
  m_Materials:
  - {fileID: 2100000, guid: caf01dd5152f3934d8079e6160aa3b1e, type: 2}
  m_StaticBatchInfo:
    firstSubMesh: 0
    subMeshCount: 0
  m_StaticBatchRoot: {fileID: 0}
  m_ProbeAnchor: {fileID: 0}
  m_LightProbeVolumeOverride: {fileID: 0}
  m_ScaleInLightmap: 1
  m_ReceiveGI: 1
  m_PreserveUVs: 0
  m_IgnoreNormalsForChartDetection: 0
  m_ImportantGI: 0
  m_StitchLightmapSeams: 1
  m_SelectedEditorRenderState: 3
  m_MinimumChartSize: 4
  m_AutoUVMaxDistance: 0.5
  m_AutoUVMaxAngle: 89
  m_LightmapParameters: {fileID: 0}
  m_SortingLayerID: 0
  m_SortingLayer: 0
  m_SortingOrder: 0
  serializedVersion: 2
  m_Quality: 0
  m_UpdateWhenOffscreen: 0
  m_SkinnedMotionVectors: 1
  m_Mesh: {fileID: 4300004, guid: a50cd06a0668d1a418d586a2944e3ed5, type: 3}
  m_Bones:
  - {fileID: 4126503885711522}
  - {fileID: 4989090799191106}
  - {fileID: 4601202157104068}
  - {fileID: 4262036049574412}
  - {fileID: 4553271016686658}
  - {fileID: 4631115421022552}
  - {fileID: 4902622719025336}
  - {fileID: 4617807866573612}
  - {fileID: 4127911727306416}
  - {fileID: 4513298969763580}
  - {fileID: 4660255790010246}
  - {fileID: 4501710217679214}
  - {fileID: 4560055581439608}
  - {fileID: 4888351131131176}
  - {fileID: 4466865001989010}
  - {fileID: 4537212362510854}
  - {fileID: 4282794962123234}
  - {fileID: 4479491893653310}
  - {fileID: 4311295535969032}
  - {fileID: 4371745685903772}
  - {fileID: 4213632767839780}
  - {fileID: 4609493299269268}
  - {fileID: 4204949961472384}
  - {fileID: 4750721027814448}
  - {fileID: 4457419654995938}
  - {fileID: 4989779744055174}
  - {fileID: 4695245593314644}
  - {fileID: 4218663422984900}
  - {fileID: 4846300618272398}
  - {fileID: 4767971958850650}
  - {fileID: 4943969476639552}
  - {fileID: 4405512925850162}
  - {fileID: 4305624847783708}
  - {fileID: 4738543612806020}
  - {fileID: 4511122004756990}
  - {fileID: 4421323432092938}
  - {fileID: 4852381176437968}
  - {fileID: 4262038750106164}
  - {fileID: 4665497756585074}
  - {fileID: 4171947991725432}
  - {fileID: 4036884547687828}
  - {fileID: 4405093732578160}
  - {fileID: 4762820446997994}
  - {fileID: 4642324463211748}
  - {fileID: 4932497365270714}
  - {fileID: 4416874678015742}
  - {fileID: 4691668724006914}
  - {fileID: 4099127232496944}
  - {fileID: 4502431616319154}
  m_BlendShapeWeights: []
  m_RootBone: {fileID: 4126503885711522}
  m_AABB:
    m_Center: {x: 0, y: 0.8960201, z: -0.0006971657}
    m_Extent: {x: 1.4520414, y: 1.0003002, z: 0.41423014}
  m_DirtyAABB: 0
--- !u!1 &1786545728903366
GameObject:
  m_ObjectHideFlags: 0
  m_CorrespondingSourceObject: {fileID: 0}
  m_PrefabInstance: {fileID: 0}
  m_PrefabAsset: {fileID: 0}
  serializedVersion: 6
  m_Component:
  - component: {fileID: 4888351131131176}
  m_Layer: 0
  m_Name: Thumb_01
  m_TagString: Untagged
  m_Icon: {fileID: 0}
  m_NavMeshLayer: 0
  m_StaticEditorFlags: 0
  m_IsActive: 1
--- !u!4 &4888351131131176
Transform:
  m_ObjectHideFlags: 0
  m_CorrespondingSourceObject: {fileID: 0}
  m_PrefabInstance: {fileID: 0}
  m_PrefabAsset: {fileID: 0}
  m_GameObject: {fileID: 1786545728903366}
  m_LocalRotation: {x: -0.044153277, y: -0.16584834, z: -0.012062183, w: 0.9850885}
  m_LocalPosition: {x: -0.08908812, y: -2.753353e-16, z: -4.4408918e-17}
  m_LocalScale: {x: 1, y: 1, z: 1}
  m_Children:
  - {fileID: 4466865001989010}
  m_Father: {fileID: 4560055581439608}
  m_RootOrder: 2
  m_LocalEulerAnglesHint: {x: 0, y: 0, z: 0}
--- !u!1 &1788684181897916
GameObject:
  m_ObjectHideFlags: 0
  m_CorrespondingSourceObject: {fileID: 0}
  m_PrefabInstance: {fileID: 0}
  m_PrefabAsset: {fileID: 0}
  serializedVersion: 6
  m_Component:
  - component: {fileID: 4943969476639552}
  m_Layer: 0
  m_Name: Thumb_03 1
  m_TagString: Untagged
  m_Icon: {fileID: 0}
  m_NavMeshLayer: 0
  m_StaticEditorFlags: 0
  m_IsActive: 1
--- !u!4 &4943969476639552
Transform:
  m_ObjectHideFlags: 0
  m_CorrespondingSourceObject: {fileID: 0}
  m_PrefabInstance: {fileID: 0}
  m_PrefabAsset: {fileID: 0}
  m_GameObject: {fileID: 1788684181897916}
  m_LocalRotation: {x: -0.04663384, y: -0.14921467, z: -0.29463205, w: 0.94273657}
  m_LocalPosition: {x: 0.09227324, y: 0.0000074613017, z: -0.000000493297}
  m_LocalScale: {x: 1, y: 1, z: 1}
  m_Children: []
  m_Father: {fileID: 4767971958850650}
  m_RootOrder: 0
  m_LocalEulerAnglesHint: {x: 0, y: 0, z: 0}
--- !u!1 &1796912190189316
GameObject:
  m_ObjectHideFlags: 0
  m_CorrespondingSourceObject: {fileID: 0}
  m_PrefabInstance: {fileID: 0}
  m_PrefabAsset: {fileID: 0}
  serializedVersion: 6
  m_Component:
  - component: {fileID: 4762820446997994}
  m_Layer: 0
  m_Name: Ball_L
  m_TagString: Untagged
  m_Icon: {fileID: 0}
  m_NavMeshLayer: 0
  m_StaticEditorFlags: 0
  m_IsActive: 1
--- !u!4 &4762820446997994
Transform:
  m_ObjectHideFlags: 0
  m_CorrespondingSourceObject: {fileID: 0}
  m_PrefabInstance: {fileID: 0}
  m_PrefabAsset: {fileID: 0}
  m_GameObject: {fileID: 1796912190189316}
  m_LocalRotation: {x: 1.196298e-15, y: -4.923229e-16, z: -0.23606834, w: 0.9717365}
  m_LocalPosition: {x: -0.12877615, y: 3.5527136e-17, z: 3.3500888e-17}
  m_LocalScale: {x: 1, y: 1, z: 1}
  m_Children:
  - {fileID: 4642324463211748}
  m_Father: {fileID: 4405093732578160}
  m_RootOrder: 0
  m_LocalEulerAnglesHint: {x: 0, y: 0, z: 0}
--- !u!1 &1799394223648922
GameObject:
  m_ObjectHideFlags: 0
  m_CorrespondingSourceObject: {fileID: 0}
  m_PrefabInstance: {fileID: 0}
  m_PrefabAsset: {fileID: 0}
  serializedVersion: 6
  m_Component:
  - component: {fileID: 4609493299269268}
  m_Layer: 0
  m_Name: Finger_02
  m_TagString: Untagged
  m_Icon: {fileID: 0}
  m_NavMeshLayer: 0
  m_StaticEditorFlags: 0
  m_IsActive: 1
--- !u!4 &4609493299269268
Transform:
  m_ObjectHideFlags: 0
  m_CorrespondingSourceObject: {fileID: 0}
  m_PrefabInstance: {fileID: 0}
  m_PrefabAsset: {fileID: 0}
  m_GameObject: {fileID: 1799394223648922}
  m_LocalRotation: {x: 0.0035674032, y: 0.019343419, z: 0.028556598, w: 0.99939865}
  m_LocalPosition: {x: -0.0641512, y: 1.8214596e-19, z: 2.220446e-18}
  m_LocalScale: {x: 1, y: 1, z: 1}
  m_Children:
  - {fileID: 4204949961472384}
  m_Father: {fileID: 4213632767839780}
  m_RootOrder: 0
  m_LocalEulerAnglesHint: {x: 0, y: 0, z: 0}
--- !u!1 &1802954357381086
GameObject:
  m_ObjectHideFlags: 0
  m_CorrespondingSourceObject: {fileID: 0}
  m_PrefabInstance: {fileID: 0}
  m_PrefabAsset: {fileID: 0}
  serializedVersion: 6
  m_Component:
  - component: {fileID: 4537212362510854}
  m_Layer: 0
  m_Name: Thumb_03
  m_TagString: Untagged
  m_Icon: {fileID: 0}
  m_NavMeshLayer: 0
  m_StaticEditorFlags: 0
  m_IsActive: 1
--- !u!4 &4537212362510854
Transform:
  m_ObjectHideFlags: 0
  m_CorrespondingSourceObject: {fileID: 0}
  m_PrefabInstance: {fileID: 0}
  m_PrefabAsset: {fileID: 0}
  m_GameObject: {fileID: 1802954357381086}
  m_LocalRotation: {x: -0.04663384, y: -0.14921467, z: -0.29463205, w: 0.94273657}
  m_LocalPosition: {x: -0.092271924, y: 4.2188474e-17, z: -2.220446e-16}
  m_LocalScale: {x: 1, y: 1, z: 1}
  m_Children: []
  m_Father: {fileID: 4466865001989010}
  m_RootOrder: 0
  m_LocalEulerAnglesHint: {x: 0, y: 0, z: 0}
--- !u!1 &1805702453394562
GameObject:
  m_ObjectHideFlags: 0
  m_CorrespondingSourceObject: {fileID: 0}
  m_PrefabInstance: {fileID: 0}
  m_PrefabAsset: {fileID: 0}
  serializedVersion: 6
  m_Component:
  - component: {fileID: 4642324463211748}
  m_Layer: 0
  m_Name: Toes_L
  m_TagString: Untagged
  m_Icon: {fileID: 0}
  m_NavMeshLayer: 0
  m_StaticEditorFlags: 0
  m_IsActive: 1
--- !u!4 &4642324463211748
Transform:
  m_ObjectHideFlags: 0
  m_CorrespondingSourceObject: {fileID: 0}
  m_PrefabInstance: {fileID: 0}
  m_PrefabAsset: {fileID: 0}
  m_GameObject: {fileID: 1805702453394562}
  m_LocalRotation: {x: -1.36058335e-14, y: -0.7071068, z: -1.36058335e-14, w: 0.7071068}
  m_LocalPosition: {x: -0.0729575, y: 8.228515e-18, z: -1.3369588e-15}
  m_LocalScale: {x: 1, y: 1, z: 1}
  m_Children: []
  m_Father: {fileID: 4762820446997994}
  m_RootOrder: 0
  m_LocalEulerAnglesHint: {x: 0, y: 0, z: 0}
--- !u!1 &1810062545974450
GameObject:
  m_ObjectHideFlags: 0
  m_CorrespondingSourceObject: {fileID: 0}
  m_PrefabInstance: {fileID: 0}
  m_PrefabAsset: {fileID: 0}
  serializedVersion: 6
  m_Component:
  - component: {fileID: 4377680284669650}
  - component: {fileID: 137322321829993048}
  m_Layer: 0
  m_Name: Character_Big_Ork_01
  m_TagString: Untagged
  m_Icon: {fileID: 0}
  m_NavMeshLayer: 0
  m_StaticEditorFlags: 0
  m_IsActive: 0
--- !u!4 &4377680284669650
Transform:
  m_ObjectHideFlags: 0
  m_CorrespondingSourceObject: {fileID: 0}
  m_PrefabInstance: {fileID: 0}
  m_PrefabAsset: {fileID: 0}
  m_GameObject: {fileID: 1810062545974450}
  m_LocalRotation: {x: 0, y: -0, z: -0, w: 1}
  m_LocalPosition: {x: -0, y: 0, z: 0}
  m_LocalScale: {x: 1, y: 1, z: 1}
  m_Children: []
  m_Father: {fileID: 4804301688967996}
  m_RootOrder: 1
  m_LocalEulerAnglesHint: {x: 0, y: 0, z: 0}
--- !u!137 &137322321829993048
SkinnedMeshRenderer:
  m_ObjectHideFlags: 0
  m_CorrespondingSourceObject: {fileID: 0}
  m_PrefabInstance: {fileID: 0}
  m_PrefabAsset: {fileID: 0}
  m_GameObject: {fileID: 1810062545974450}
  m_Enabled: 1
  m_CastShadows: 1
  m_ReceiveShadows: 1
  m_DynamicOccludee: 1
  m_MotionVectors: 1
  m_LightProbeUsage: 1
  m_ReflectionProbeUsage: 1
  m_RayTracingMode: 3
  m_RayTraceProcedural: 0
  m_RenderingLayerMask: 1
  m_RendererPriority: 0
  m_Materials:
  - {fileID: 2100000, guid: caf01dd5152f3934d8079e6160aa3b1e, type: 2}
  m_StaticBatchInfo:
    firstSubMesh: 0
    subMeshCount: 0
  m_StaticBatchRoot: {fileID: 0}
  m_ProbeAnchor: {fileID: 0}
  m_LightProbeVolumeOverride: {fileID: 0}
  m_ScaleInLightmap: 1
  m_ReceiveGI: 1
  m_PreserveUVs: 0
  m_IgnoreNormalsForChartDetection: 0
  m_ImportantGI: 0
  m_StitchLightmapSeams: 1
  m_SelectedEditorRenderState: 3
  m_MinimumChartSize: 4
  m_AutoUVMaxDistance: 0.5
  m_AutoUVMaxAngle: 89
  m_LightmapParameters: {fileID: 0}
  m_SortingLayerID: 0
  m_SortingLayer: 0
  m_SortingOrder: 0
  serializedVersion: 2
  m_Quality: 0
  m_UpdateWhenOffscreen: 0
  m_SkinnedMotionVectors: 1
  m_Mesh: {fileID: 4300010, guid: a50cd06a0668d1a418d586a2944e3ed5, type: 3}
  m_Bones:
  - {fileID: 4126503885711522}
  - {fileID: 4989090799191106}
  - {fileID: 4601202157104068}
  - {fileID: 4262036049574412}
  - {fileID: 4553271016686658}
  - {fileID: 4631115421022552}
  - {fileID: 4902622719025336}
  - {fileID: 4617807866573612}
  - {fileID: 4127911727306416}
  - {fileID: 4513298969763580}
  - {fileID: 4660255790010246}
  - {fileID: 4501710217679214}
  - {fileID: 4560055581439608}
  - {fileID: 4888351131131176}
  - {fileID: 4466865001989010}
  - {fileID: 4537212362510854}
  - {fileID: 4282794962123234}
  - {fileID: 4479491893653310}
  - {fileID: 4311295535969032}
  - {fileID: 4371745685903772}
  - {fileID: 4213632767839780}
  - {fileID: 4609493299269268}
  - {fileID: 4204949961472384}
  - {fileID: 4750721027814448}
  - {fileID: 4457419654995938}
  - {fileID: 4989779744055174}
  - {fileID: 4695245593314644}
  - {fileID: 4218663422984900}
  - {fileID: 4846300618272398}
  - {fileID: 4767971958850650}
  - {fileID: 4943969476639552}
  - {fileID: 4405512925850162}
  - {fileID: 4305624847783708}
  - {fileID: 4738543612806020}
  - {fileID: 4511122004756990}
  - {fileID: 4421323432092938}
  - {fileID: 4852381176437968}
  - {fileID: 4262038750106164}
  - {fileID: 4665497756585074}
  - {fileID: 4171947991725432}
  - {fileID: 4036884547687828}
  - {fileID: 4405093732578160}
  - {fileID: 4762820446997994}
  - {fileID: 4642324463211748}
  - {fileID: 4932497365270714}
  - {fileID: 4416874678015742}
  - {fileID: 4691668724006914}
  - {fileID: 4099127232496944}
  - {fileID: 4502431616319154}
  m_BlendShapeWeights: []
  m_RootBone: {fileID: 4126503885711522}
  m_AABB:
    m_Center: {x: -0.0093589425, y: 0.9434749, z: 0.013898134}
    m_Extent: {x: 1.4619842, y: 1.0403415, z: 0.4199332}
  m_DirtyAABB: 0
--- !u!1 &1814489136541376
GameObject:
  m_ObjectHideFlags: 0
  m_CorrespondingSourceObject: {fileID: 0}
  m_PrefabInstance: {fileID: 0}
  m_PrefabAsset: {fileID: 0}
  serializedVersion: 6
  m_Component:
  - component: {fileID: 4700688279953658}
  - component: {fileID: 137194101290506224}
  m_Layer: 0
  m_Name: Character_MechanicalGolem_01
  m_TagString: Untagged
  m_Icon: {fileID: 0}
  m_NavMeshLayer: 0
  m_StaticEditorFlags: 0
  m_IsActive: 0
--- !u!4 &4700688279953658
Transform:
  m_ObjectHideFlags: 0
  m_CorrespondingSourceObject: {fileID: 0}
  m_PrefabInstance: {fileID: 0}
  m_PrefabAsset: {fileID: 0}
  m_GameObject: {fileID: 1814489136541376}
  m_LocalRotation: {x: 0, y: -0, z: -0, w: 1}
  m_LocalPosition: {x: -0, y: 0, z: 0}
  m_LocalScale: {x: 1, y: 1, z: 1}
  m_Children: []
  m_Father: {fileID: 4804301688967996}
  m_RootOrder: 5
  m_LocalEulerAnglesHint: {x: 0, y: 0, z: 0}
--- !u!137 &137194101290506224
SkinnedMeshRenderer:
  m_ObjectHideFlags: 0
  m_CorrespondingSourceObject: {fileID: 0}
  m_PrefabInstance: {fileID: 0}
  m_PrefabAsset: {fileID: 0}
  m_GameObject: {fileID: 1814489136541376}
  m_Enabled: 1
  m_CastShadows: 1
  m_ReceiveShadows: 1
  m_DynamicOccludee: 1
  m_MotionVectors: 1
  m_LightProbeUsage: 1
  m_ReflectionProbeUsage: 1
  m_RayTracingMode: 3
  m_RayTraceProcedural: 0
  m_RenderingLayerMask: 1
  m_RendererPriority: 0
  m_Materials:
  - {fileID: 2100000, guid: caf01dd5152f3934d8079e6160aa3b1e, type: 2}
  m_StaticBatchInfo:
    firstSubMesh: 0
    subMeshCount: 0
  m_StaticBatchRoot: {fileID: 0}
  m_ProbeAnchor: {fileID: 0}
  m_LightProbeVolumeOverride: {fileID: 0}
  m_ScaleInLightmap: 1
  m_ReceiveGI: 1
  m_PreserveUVs: 0
  m_IgnoreNormalsForChartDetection: 0
  m_ImportantGI: 0
  m_StitchLightmapSeams: 1
  m_SelectedEditorRenderState: 3
  m_MinimumChartSize: 4
  m_AutoUVMaxDistance: 0.5
  m_AutoUVMaxAngle: 89
  m_LightmapParameters: {fileID: 0}
  m_SortingLayerID: 0
  m_SortingLayer: 0
  m_SortingOrder: 0
  serializedVersion: 2
  m_Quality: 0
  m_UpdateWhenOffscreen: 0
  m_SkinnedMotionVectors: 1
  m_Mesh: {fileID: 4300016, guid: a50cd06a0668d1a418d586a2944e3ed5, type: 3}
  m_Bones:
  - {fileID: 4126503885711522}
  - {fileID: 4989090799191106}
  - {fileID: 4601202157104068}
  - {fileID: 4262036049574412}
  - {fileID: 4553271016686658}
  - {fileID: 4631115421022552}
  - {fileID: 4902622719025336}
  - {fileID: 4617807866573612}
  - {fileID: 4127911727306416}
  - {fileID: 4513298969763580}
  - {fileID: 4660255790010246}
  - {fileID: 4501710217679214}
  - {fileID: 4560055581439608}
  - {fileID: 4888351131131176}
  - {fileID: 4466865001989010}
  - {fileID: 4537212362510854}
  - {fileID: 4282794962123234}
  - {fileID: 4479491893653310}
  - {fileID: 4311295535969032}
  - {fileID: 4371745685903772}
  - {fileID: 4213632767839780}
  - {fileID: 4609493299269268}
  - {fileID: 4204949961472384}
  - {fileID: 4750721027814448}
  - {fileID: 4457419654995938}
  - {fileID: 4989779744055174}
  - {fileID: 4695245593314644}
  - {fileID: 4218663422984900}
  - {fileID: 4846300618272398}
  - {fileID: 4767971958850650}
  - {fileID: 4943969476639552}
  - {fileID: 4405512925850162}
  - {fileID: 4305624847783708}
  - {fileID: 4738543612806020}
  - {fileID: 4511122004756990}
  - {fileID: 4421323432092938}
  - {fileID: 4852381176437968}
  - {fileID: 4262038750106164}
  - {fileID: 4665497756585074}
  - {fileID: 4171947991725432}
  - {fileID: 4036884547687828}
  - {fileID: 4405093732578160}
  - {fileID: 4762820446997994}
  - {fileID: 4642324463211748}
  - {fileID: 4932497365270714}
  - {fileID: 4416874678015742}
  - {fileID: 4691668724006914}
  - {fileID: 4099127232496944}
  - {fileID: 4502431616319154}
  m_BlendShapeWeights: []
  m_RootBone: {fileID: 4126503885711522}
  m_AABB:
    m_Center: {x: 0.000000059604645, y: 0.8628965, z: -0.009381667}
    m_Extent: {x: 1.4625807, y: 0.9403073, z: 0.42791557}
  m_DirtyAABB: 0
--- !u!1 &1818683329187272
GameObject:
  m_ObjectHideFlags: 0
  m_CorrespondingSourceObject: {fileID: 0}
  m_PrefabInstance: {fileID: 0}
  m_PrefabAsset: {fileID: 0}
  serializedVersion: 6
  m_Component:
  - component: {fileID: 4479491893653310}
  m_Layer: 0
  m_Name: IndexFinger_02
  m_TagString: Untagged
  m_Icon: {fileID: 0}
  m_NavMeshLayer: 0
  m_StaticEditorFlags: 0
  m_IsActive: 1
--- !u!4 &4479491893653310
Transform:
  m_ObjectHideFlags: 0
  m_CorrespondingSourceObject: {fileID: 0}
  m_PrefabInstance: {fileID: 0}
  m_PrefabAsset: {fileID: 0}
  m_GameObject: {fileID: 1818683329187272}
  m_LocalRotation: {x: -0.0015534081, y: -0.010691182, z: 0.13226552, w: 0.9911555}
  m_LocalPosition: {x: -0.0614739, y: -3.1441861e-19, z: 0}
  m_LocalScale: {x: 1, y: 1, z: 1}
  m_Children:
  - {fileID: 4311295535969032}
  m_Father: {fileID: 4282794962123234}
  m_RootOrder: 0
  m_LocalEulerAnglesHint: {x: 0, y: 0, z: 0}
--- !u!1 &1879890994003188
GameObject:
  m_ObjectHideFlags: 0
  m_CorrespondingSourceObject: {fileID: 0}
  m_PrefabInstance: {fileID: 0}
  m_PrefabAsset: {fileID: 0}
  serializedVersion: 6
  m_Component:
  - component: {fileID: 4063953315584156}
  - component: {fileID: 137325492851450306}
  m_Layer: 0
  m_Name: Character_Slayer_01
  m_TagString: Untagged
  m_Icon: {fileID: 0}
  m_NavMeshLayer: 0
  m_StaticEditorFlags: 0
  m_IsActive: 0
--- !u!4 &4063953315584156
Transform:
  m_ObjectHideFlags: 0
  m_CorrespondingSourceObject: {fileID: 0}
  m_PrefabInstance: {fileID: 0}
  m_PrefabAsset: {fileID: 0}
  m_GameObject: {fileID: 1879890994003188}
  m_LocalRotation: {x: 0, y: -0, z: -0, w: 1}
  m_LocalPosition: {x: -0, y: 0, z: 0}
  m_LocalScale: {x: 1, y: 1, z: 1}
  m_Children: []
  m_Father: {fileID: 4804301688967996}
  m_RootOrder: 9
  m_LocalEulerAnglesHint: {x: 0, y: 0, z: 0}
--- !u!137 &137325492851450306
SkinnedMeshRenderer:
  m_ObjectHideFlags: 0
  m_CorrespondingSourceObject: {fileID: 0}
  m_PrefabInstance: {fileID: 0}
  m_PrefabAsset: {fileID: 0}
  m_GameObject: {fileID: 1879890994003188}
  m_Enabled: 1
  m_CastShadows: 1
  m_ReceiveShadows: 1
  m_DynamicOccludee: 1
  m_MotionVectors: 1
  m_LightProbeUsage: 1
  m_ReflectionProbeUsage: 1
  m_RayTracingMode: 3
  m_RayTraceProcedural: 0
  m_RenderingLayerMask: 1
  m_RendererPriority: 0
  m_Materials:
  - {fileID: 2100000, guid: caf01dd5152f3934d8079e6160aa3b1e, type: 2}
  m_StaticBatchInfo:
    firstSubMesh: 0
    subMeshCount: 0
  m_StaticBatchRoot: {fileID: 0}
  m_ProbeAnchor: {fileID: 0}
  m_LightProbeVolumeOverride: {fileID: 0}
  m_ScaleInLightmap: 1
  m_ReceiveGI: 1
  m_PreserveUVs: 0
  m_IgnoreNormalsForChartDetection: 0
  m_ImportantGI: 0
  m_StitchLightmapSeams: 1
  m_SelectedEditorRenderState: 3
  m_MinimumChartSize: 4
  m_AutoUVMaxDistance: 0.5
  m_AutoUVMaxAngle: 89
  m_LightmapParameters: {fileID: 0}
  m_SortingLayerID: 0
  m_SortingLayer: 0
  m_SortingOrder: 0
  serializedVersion: 2
  m_Quality: 0
  m_UpdateWhenOffscreen: 0
  m_SkinnedMotionVectors: 1
  m_Mesh: {fileID: 4300014, guid: a50cd06a0668d1a418d586a2944e3ed5, type: 3}
  m_Bones:
  - {fileID: 4126503885711522}
  - {fileID: 4989090799191106}
  - {fileID: 4601202157104068}
  - {fileID: 4262036049574412}
  - {fileID: 4553271016686658}
  - {fileID: 4631115421022552}
  - {fileID: 4902622719025336}
  - {fileID: 4617807866573612}
  - {fileID: 4127911727306416}
  - {fileID: 4513298969763580}
  - {fileID: 4660255790010246}
  - {fileID: 4501710217679214}
  - {fileID: 4560055581439608}
  - {fileID: 4888351131131176}
  - {fileID: 4466865001989010}
  - {fileID: 4537212362510854}
  - {fileID: 4282794962123234}
  - {fileID: 4479491893653310}
  - {fileID: 4311295535969032}
  - {fileID: 4371745685903772}
  - {fileID: 4213632767839780}
  - {fileID: 4609493299269268}
  - {fileID: 4204949961472384}
  - {fileID: 4750721027814448}
  - {fileID: 4457419654995938}
  - {fileID: 4989779744055174}
  - {fileID: 4695245593314644}
  - {fileID: 4218663422984900}
  - {fileID: 4846300618272398}
  - {fileID: 4767971958850650}
  - {fileID: 4943969476639552}
  - {fileID: 4405512925850162}
  - {fileID: 4305624847783708}
  - {fileID: 4738543612806020}
  - {fileID: 4511122004756990}
  - {fileID: 4421323432092938}
  - {fileID: 4852381176437968}
  - {fileID: 4262038750106164}
  - {fileID: 4665497756585074}
  - {fileID: 4171947991725432}
  - {fileID: 4036884547687828}
  - {fileID: 4405093732578160}
  - {fileID: 4762820446997994}
  - {fileID: 4642324463211748}
  - {fileID: 4932497365270714}
  - {fileID: 4416874678015742}
  - {fileID: 4691668724006914}
  - {fileID: 4099127232496944}
  - {fileID: 4502431616319154}
  m_BlendShapeWeights: []
  m_RootBone: {fileID: 4126503885711522}
  m_AABB:
    m_Center: {x: 0.000849247, y: 0.9183638, z: 0.04248427}
    m_Extent: {x: 1.4639642, y: 0.99041593, z: 0.40946007}
  m_DirtyAABB: 0
--- !u!1 &1888299962535434
GameObject:
  m_ObjectHideFlags: 0
  m_CorrespondingSourceObject: {fileID: 0}
  m_PrefabInstance: {fileID: 0}
  m_PrefabAsset: {fileID: 0}
  serializedVersion: 6
  m_Component:
  - component: {fileID: 4416874678015742}
  m_Layer: 0
  m_Name: LowerLeg_R
  m_TagString: Untagged
  m_Icon: {fileID: 0}
  m_NavMeshLayer: 0
  m_StaticEditorFlags: 0
  m_IsActive: 1
--- !u!4 &4416874678015742
Transform:
  m_ObjectHideFlags: 0
  m_CorrespondingSourceObject: {fileID: 0}
  m_PrefabInstance: {fileID: 0}
  m_PrefabAsset: {fileID: 0}
  m_GameObject: {fileID: 1888299962535434}
  m_LocalRotation: {x: 1.3156143e-14, y: -3.1502578e-15, z: 1.20719415e-14, w: 1}
  m_LocalPosition: {x: 0.37842068, y: 0.00000027396194, z: 0.0000002682214}
  m_LocalScale: {x: 1, y: 1, z: 1}
  m_Children:
  - {fileID: 4691668724006914}
  m_Father: {fileID: 4932497365270714}
  m_RootOrder: 0
  m_LocalEulerAnglesHint: {x: 0, y: 0, z: 0}
--- !u!1 &1891755960066998
GameObject:
  m_ObjectHideFlags: 0
  m_CorrespondingSourceObject: {fileID: 0}
  m_PrefabInstance: {fileID: 0}
  m_PrefabAsset: {fileID: 0}
  serializedVersion: 6
  m_Component:
  - component: {fileID: 4511122004756990}
  m_Layer: 0
  m_Name: IndexFinger_04 1
  m_TagString: Untagged
  m_Icon: {fileID: 0}
  m_NavMeshLayer: 0
  m_StaticEditorFlags: 0
  m_IsActive: 1
--- !u!4 &4511122004756990
Transform:
  m_ObjectHideFlags: 0
  m_CorrespondingSourceObject: {fileID: 0}
  m_PrefabInstance: {fileID: 0}
  m_PrefabAsset: {fileID: 0}
  m_GameObject: {fileID: 1891755960066998}
  m_LocalRotation: {x: -0.00597543, y: -0.02776615, z: -0.21030392, w: 0.9772234}
  m_LocalPosition: {x: 0.059107542, y: -0.0000048901334, z: -0.00000042587297}
  m_LocalScale: {x: 1, y: 1, z: 1}
  m_Children: []
  m_Father: {fileID: 4738543612806020}
  m_RootOrder: 0
  m_LocalEulerAnglesHint: {x: 0, y: 0, z: 0}
--- !u!1 &1898779840802234
GameObject:
  m_ObjectHideFlags: 0
  m_CorrespondingSourceObject: {fileID: 0}
  m_PrefabInstance: {fileID: 0}
  m_PrefabAsset: {fileID: 0}
  serializedVersion: 6
  m_Component:
  - component: {fileID: 4695245593314644}
  m_Layer: 0
  m_Name: Elbow_R
  m_TagString: Untagged
  m_Icon: {fileID: 0}
  m_NavMeshLayer: 0
  m_StaticEditorFlags: 0
  m_IsActive: 1
--- !u!4 &4695245593314644
Transform:
  m_ObjectHideFlags: 0
  m_CorrespondingSourceObject: {fileID: 0}
  m_PrefabInstance: {fileID: 0}
  m_PrefabAsset: {fileID: 0}
  m_GameObject: {fileID: 1898779840802234}
  m_LocalRotation: {x: 0.000000012882286, y: 0.059024446, z: -7.6168255e-10, w: 0.99825656}
  m_LocalPosition: {x: 0.45683342, y: 8.5265126e-16, z: 0.00000003960579}
  m_LocalScale: {x: 1, y: 1, z: 1}
  m_Children:
  - {fileID: 4218663422984900}
  m_Father: {fileID: 4989779744055174}
  m_RootOrder: 0
  m_LocalEulerAnglesHint: {x: 0, y: 0, z: 0}
--- !u!1 &1910662853766864
GameObject:
  m_ObjectHideFlags: 0
  m_CorrespondingSourceObject: {fileID: 0}
  m_PrefabInstance: {fileID: 0}
  m_PrefabAsset: {fileID: 0}
  serializedVersion: 6
  m_Component:
  - component: {fileID: 4262036049574412}
  m_Layer: 0
  m_Name: Spine_02
  m_TagString: Untagged
  m_Icon: {fileID: 0}
  m_NavMeshLayer: 0
  m_StaticEditorFlags: 0
  m_IsActive: 1
--- !u!4 &4262036049574412
Transform:
  m_ObjectHideFlags: 0
  m_CorrespondingSourceObject: {fileID: 0}
  m_PrefabInstance: {fileID: 0}
  m_PrefabAsset: {fileID: 0}
  m_GameObject: {fileID: 1910662853766864}
  m_LocalRotation: {x: 0.99518615, y: -0.098002784, z: -1.741653e-15, w: -1.0998396e-16}
  m_LocalPosition: {x: -0.18151169, y: 4.5519144e-17, z: -1.1814681e-17}
  m_LocalScale: {x: 1, y: 1, z: 1}
  m_Children:
  - {fileID: 4553271016686658}
  m_Father: {fileID: 4601202157104068}
  m_RootOrder: 0
  m_LocalEulerAnglesHint: {x: 0, y: 0, z: 0}
--- !u!1 &1918649790063322
GameObject:
  m_ObjectHideFlags: 0
  m_CorrespondingSourceObject: {fileID: 0}
  m_PrefabInstance: {fileID: 0}
  m_PrefabAsset: {fileID: 0}
  serializedVersion: 6
  m_Component:
  - component: {fileID: 4218663422984900}
  m_Layer: 0
  m_Name: Hand_R
  m_TagString: Untagged
  m_Icon: {fileID: 0}
  m_NavMeshLayer: 0
  m_StaticEditorFlags: 0
  m_IsActive: 1
--- !u!4 &4218663422984900
Transform:
  m_ObjectHideFlags: 0
  m_CorrespondingSourceObject: {fileID: 0}
  m_PrefabInstance: {fileID: 0}
  m_PrefabAsset: {fileID: 0}
  m_GameObject: {fileID: 1918649790063322}
  m_LocalRotation: {x: 0.054274846, y: 0.395974, z: 0.12447924, w: 0.9081651}
  m_LocalPosition: {x: 0.328678, y: -7.958079e-15, z: -0.00000031490552}
  m_LocalScale: {x: 1, y: 1, z: 1}
  m_Children:
  - {fileID: 4421323432092938}
  - {fileID: 4405512925850162}
  - {fileID: 4846300618272398}
  m_Father: {fileID: 4695245593314644}
  m_RootOrder: 0
  m_LocalEulerAnglesHint: {x: 0, y: 0, z: 0}
--- !u!1 &1921968588301004
GameObject:
  m_ObjectHideFlags: 0
  m_CorrespondingSourceObject: {fileID: 0}
  m_PrefabInstance: {fileID: 0}
  m_PrefabAsset: {fileID: 0}
  serializedVersion: 6
  m_Component:
  - component: {fileID: 4421323432092938}
  m_Layer: 0
  m_Name: Finger_01 1
  m_TagString: Untagged
  m_Icon: {fileID: 0}
  m_NavMeshLayer: 0
  m_StaticEditorFlags: 0
  m_IsActive: 1
--- !u!4 &4421323432092938
Transform:
  m_ObjectHideFlags: 0
  m_CorrespondingSourceObject: {fileID: 0}
  m_PrefabInstance: {fileID: 0}
  m_PrefabAsset: {fileID: 0}
  m_GameObject: {fileID: 1921968588301004}
  m_LocalRotation: {x: -0.10106448, y: -0.46700662, z: -0.052073725, w: 0.87691456}
  m_LocalPosition: {x: 0.051991317, y: -0.012054317, z: 0.14853004}
  m_LocalScale: {x: 1, y: 1, z: 1}
  m_Children:
  - {fileID: 4852381176437968}
  m_Father: {fileID: 4218663422984900}
  m_RootOrder: 0
  m_LocalEulerAnglesHint: {x: 0, y: 0, z: 0}
--- !u!1 &1934508238812812
GameObject:
  m_ObjectHideFlags: 0
  m_CorrespondingSourceObject: {fileID: 0}
  m_PrefabInstance: {fileID: 0}
  m_PrefabAsset: {fileID: 0}
  serializedVersion: 6
  m_Component:
  - component: {fileID: 4043079554339452}
  - component: {fileID: 137291935918203632}
  m_Layer: 0
  m_Name: Character_ElementalGolem_01
  m_TagString: Untagged
  m_Icon: {fileID: 0}
  m_NavMeshLayer: 0
  m_StaticEditorFlags: 0
  m_IsActive: 0
--- !u!4 &4043079554339452
Transform:
  m_ObjectHideFlags: 0
  m_CorrespondingSourceObject: {fileID: 0}
  m_PrefabInstance: {fileID: 0}
  m_PrefabAsset: {fileID: 0}
  m_GameObject: {fileID: 1934508238812812}
  m_LocalRotation: {x: 0, y: -0, z: -0, w: 1}
  m_LocalPosition: {x: -0, y: 0, z: 0}
  m_LocalScale: {x: 1, y: 1, z: 1}
  m_Children: []
  m_Father: {fileID: 4804301688967996}
  m_RootOrder: 3
  m_LocalEulerAnglesHint: {x: 0, y: 0, z: 0}
--- !u!137 &137291935918203632
SkinnedMeshRenderer:
  m_ObjectHideFlags: 0
  m_CorrespondingSourceObject: {fileID: 0}
  m_PrefabInstance: {fileID: 0}
  m_PrefabAsset: {fileID: 0}
  m_GameObject: {fileID: 1934508238812812}
  m_Enabled: 1
  m_CastShadows: 1
  m_ReceiveShadows: 1
  m_DynamicOccludee: 1
  m_MotionVectors: 1
  m_LightProbeUsage: 1
  m_ReflectionProbeUsage: 1
  m_RayTracingMode: 3
  m_RayTraceProcedural: 0
  m_RenderingLayerMask: 1
  m_RendererPriority: 0
  m_Materials:
  - {fileID: 2100000, guid: caf01dd5152f3934d8079e6160aa3b1e, type: 2}
  m_StaticBatchInfo:
    firstSubMesh: 0
    subMeshCount: 0
  m_StaticBatchRoot: {fileID: 0}
  m_ProbeAnchor: {fileID: 0}
  m_LightProbeVolumeOverride: {fileID: 0}
  m_ScaleInLightmap: 1
  m_ReceiveGI: 1
  m_PreserveUVs: 0
  m_IgnoreNormalsForChartDetection: 0
  m_ImportantGI: 0
  m_StitchLightmapSeams: 1
  m_SelectedEditorRenderState: 3
  m_MinimumChartSize: 4
  m_AutoUVMaxDistance: 0.5
  m_AutoUVMaxAngle: 89
  m_LightmapParameters: {fileID: 0}
  m_SortingLayerID: 0
  m_SortingLayer: 0
  m_SortingOrder: 0
  serializedVersion: 2
  m_Quality: 0
  m_UpdateWhenOffscreen: 0
  m_SkinnedMotionVectors: 1
  m_Mesh: {fileID: 4300002, guid: a50cd06a0668d1a418d586a2944e3ed5, type: 3}
  m_Bones:
  - {fileID: 4126503885711522}
  - {fileID: 4989090799191106}
  - {fileID: 4601202157104068}
  - {fileID: 4262036049574412}
  - {fileID: 4553271016686658}
  - {fileID: 4631115421022552}
  - {fileID: 4902622719025336}
  - {fileID: 4617807866573612}
  - {fileID: 4127911727306416}
  - {fileID: 4513298969763580}
  - {fileID: 4660255790010246}
  - {fileID: 4501710217679214}
  - {fileID: 4560055581439608}
  - {fileID: 4888351131131176}
  - {fileID: 4466865001989010}
  - {fileID: 4537212362510854}
  - {fileID: 4282794962123234}
  - {fileID: 4479491893653310}
  - {fileID: 4311295535969032}
  - {fileID: 4371745685903772}
  - {fileID: 4213632767839780}
  - {fileID: 4609493299269268}
  - {fileID: 4204949961472384}
  - {fileID: 4750721027814448}
  - {fileID: 4457419654995938}
  - {fileID: 4989779744055174}
  - {fileID: 4695245593314644}
  - {fileID: 4218663422984900}
  - {fileID: 4846300618272398}
  - {fileID: 4767971958850650}
  - {fileID: 4943969476639552}
  - {fileID: 4405512925850162}
  - {fileID: 4305624847783708}
  - {fileID: 4738543612806020}
  - {fileID: 4511122004756990}
  - {fileID: 4421323432092938}
  - {fileID: 4852381176437968}
  - {fileID: 4262038750106164}
  - {fileID: 4665497756585074}
  - {fileID: 4171947991725432}
  - {fileID: 4036884547687828}
  - {fileID: 4405093732578160}
  - {fileID: 4762820446997994}
  - {fileID: 4642324463211748}
  - {fileID: 4932497365270714}
  - {fileID: 4416874678015742}
  - {fileID: 4691668724006914}
  - {fileID: 4099127232496944}
  - {fileID: 4502431616319154}
  m_BlendShapeWeights: []
  m_RootBone: {fileID: 4126503885711522}
  m_AABB:
    m_Center: {x: -0.00013124943, y: 0.87951803, z: 0.024444416}
    m_Extent: {x: 1.4533635, y: 0.99762917, z: 0.42728543}
  m_DirtyAABB: 0
--- !u!1 &1935390548297380
GameObject:
  m_ObjectHideFlags: 0
  m_CorrespondingSourceObject: {fileID: 0}
  m_PrefabInstance: {fileID: 0}
  m_PrefabAsset: {fileID: 0}
  serializedVersion: 6
  m_Component:
  - component: {fileID: 4282794962123234}
  m_Layer: 0
  m_Name: IndexFinger_01
  m_TagString: Untagged
  m_Icon: {fileID: 0}
  m_NavMeshLayer: 0
  m_StaticEditorFlags: 0
  m_IsActive: 1
--- !u!4 &4282794962123234
Transform:
  m_ObjectHideFlags: 0
  m_CorrespondingSourceObject: {fileID: 0}
  m_PrefabInstance: {fileID: 0}
  m_PrefabAsset: {fileID: 0}
  m_GameObject: {fileID: 1935390548297380}
  m_LocalRotation: {x: -0.05360258, y: -0.37485918, z: -0.12035185, w: 0.9176725}
  m_LocalPosition: {x: -0.120755404, y: 0.042213865, z: -0.0984221}
  m_LocalScale: {x: 1, y: 1, z: 1}
  m_Children:
  - {fileID: 4479491893653310}
  m_Father: {fileID: 4560055581439608}
  m_RootOrder: 1
  m_LocalEulerAnglesHint: {x: 0, y: 0, z: 0}
--- !u!1 &1949372857698700
GameObject:
  m_ObjectHideFlags: 0
  m_CorrespondingSourceObject: {fileID: 0}
  m_PrefabInstance: {fileID: 0}
  m_PrefabAsset: {fileID: 0}
  serializedVersion: 6
  m_Component:
  - component: {fileID: 4631115421022552}
  m_Layer: 0
  m_Name: Neck
  m_TagString: Untagged
  m_Icon: {fileID: 0}
  m_NavMeshLayer: 0
  m_StaticEditorFlags: 0
  m_IsActive: 1
--- !u!4 &4631115421022552
Transform:
  m_ObjectHideFlags: 0
  m_CorrespondingSourceObject: {fileID: 0}
  m_PrefabInstance: {fileID: 0}
  m_PrefabAsset: {fileID: 0}
  m_GameObject: {fileID: 1949372857698700}
  m_LocalRotation: {x: 7.0104127e-15, y: 1.2999221e-15, z: 0.3090158, w: 0.9510569}
  m_LocalPosition: {x: -0.18112935, y: 0.0169739, z: -0.0000000011960342}
  m_LocalScale: {x: 1, y: 1, z: 1}
  m_Children:
  - {fileID: 4902622719025336}
  m_Father: {fileID: 4553271016686658}
  m_RootOrder: 2
  m_LocalEulerAnglesHint: {x: 0, y: 0, z: 0}
