%YAML 1.1
%TAG !u! tag:unity3d.com,2011:
--- !u!1 &1010550850812422
GameObject:
  m_ObjectHideFlags: 0
  m_CorrespondingSourceObject: {fileID: 0}
  m_PrefabInstance: {fileID: 0}
  m_PrefabAsset: {fileID: 0}
  serializedVersion: 6
  m_Component:
  - component: {fileID: 4184038513711718}
  m_Layer: 0
  m_Name: Head
  m_TagString: Untagged
  m_Icon: {fileID: 0}
  m_NavMeshLayer: 0
  m_StaticEditorFlags: 0
  m_IsActive: 1
--- !u!4 &4184038513711718
Transform:
  m_ObjectHideFlags: 0
  m_CorrespondingSourceObject: {fileID: 0}
  m_PrefabInstance: {fileID: 0}
  m_PrefabAsset: {fileID: 0}
  m_GameObject: {fileID: 1010550850812422}
  m_LocalRotation: {x: 2.7247159e-15, y: 2.640653e-15, z: 0.10955092, w: 0.9939812}
  m_LocalPosition: {x: -0.08285272, y: 0.036295444, z: -0.0000000011654561}
  m_LocalScale: {x: 1, y: 1, z: 1}
  m_Children:
  - {fileID: 4788085560962488}
  - {fileID: 4152240246130716}
  m_Father: {fileID: 4970587296839388}
  m_RootOrder: 0
  m_LocalEulerAnglesHint: {x: 0, y: 0, z: 0}
--- !u!1 &1015048106234922
GameObject:
  m_ObjectHideFlags: 0
  m_CorrespondingSourceObject: {fileID: 0}
  m_PrefabInstance: {fileID: 0}
  m_PrefabAsset: {fileID: 0}
  serializedVersion: 6
  m_Component:
  - component: {fileID: 4147102940230390}
  - component: {fileID: 137296526964164324}
  m_Layer: 0
  m_Name: Character_MutantGuy_01
  m_TagString: Untagged
  m_Icon: {fileID: 0}
  m_NavMeshLayer: 0
  m_StaticEditorFlags: 0
  m_IsActive: 0
--- !u!4 &4147102940230390
Transform:
  m_ObjectHideFlags: 0
  m_CorrespondingSourceObject: {fileID: 0}
  m_PrefabInstance: {fileID: 0}
  m_PrefabAsset: {fileID: 0}
  m_GameObject: {fileID: 1015048106234922}
  m_LocalRotation: {x: 0, y: -0, z: -0, w: 1}
  m_LocalPosition: {x: -0, y: 0, z: 0}
  m_LocalScale: {x: 1, y: 1, z: 1}
  m_Children: []
  m_Father: {fileID: 4692428868606460}
  m_RootOrder: 6
  m_LocalEulerAnglesHint: {x: 0, y: 0, z: 0}
--- !u!137 &137296526964164324
SkinnedMeshRenderer:
  m_ObjectHideFlags: 0
  m_CorrespondingSourceObject: {fileID: 0}
  m_PrefabInstance: {fileID: 0}
  m_PrefabAsset: {fileID: 0}
  m_GameObject: {fileID: 1015048106234922}
  m_Enabled: 1
  m_CastShadows: 1
  m_ReceiveShadows: 1
  m_DynamicOccludee: 1
  m_MotionVectors: 1
  m_LightProbeUsage: 1
  m_ReflectionProbeUsage: 1
  m_RayTracingMode: 3
  m_RayTraceProcedural: 0
  m_RenderingLayerMask: 1
  m_RendererPriority: 0
  m_Materials:
  - {fileID: 2100000, guid: caf01dd5152f3934d8079e6160aa3b1e, type: 2}
  m_StaticBatchInfo:
    firstSubMesh: 0
    subMeshCount: 0
  m_StaticBatchRoot: {fileID: 0}
  m_ProbeAnchor: {fileID: 0}
  m_LightProbeVolumeOverride: {fileID: 0}
  m_ScaleInLightmap: 1
  m_ReceiveGI: 1
  m_PreserveUVs: 0
  m_IgnoreNormalsForChartDetection: 0
  m_ImportantGI: 0
  m_StitchLightmapSeams: 1
  m_SelectedEditorRenderState: 3
  m_MinimumChartSize: 4
  m_AutoUVMaxDistance: 0.5
  m_AutoUVMaxAngle: 89
  m_LightmapParameters: {fileID: 0}
  m_SortingLayerID: 0
  m_SortingLayer: 0
  m_SortingOrder: 0
  serializedVersion: 2
  m_Quality: 0
  m_UpdateWhenOffscreen: 0
  m_SkinnedMotionVectors: 1
  m_Mesh: {fileID: 4300018, guid: a50cd06a0668d1a418d586a2944e3ed5, type: 3}
  m_Bones:
  - {fileID: 4968511642078380}
  - {fileID: 4553062615120186}
  - {fileID: 4427220032631432}
  - {fileID: 4434679777089430}
  - {fileID: 4165745833526514}
  - {fileID: 4970587296839388}
  - {fileID: 4184038513711718}
  - {fileID: 4788085560962488}
  - {fileID: 4152240246130716}
  - {fileID: 4445995347944722}
  - {fileID: 4663785794863714}
  - {fileID: 4119437400692876}
  - {fileID: 4683457810060112}
  - {fileID: 4381990739272310}
  - {fileID: 4636170757142470}
  - {fileID: 4704002114178304}
  - {fileID: 4780538011062674}
  - {fileID: 4717518706611268}
  - {fileID: 4115618638106878}
  - {fileID: 4630173923874424}
  - {fileID: 4487589127568162}
  - {fileID: 4572632112700390}
  - {fileID: 4349412276591670}
  - {fileID: 4000995580774292}
  - {fileID: 4786282514825284}
  - {fileID: 4537040476099648}
  - {fileID: 4830897669595748}
  - {fileID: 4631429041712160}
  - {fileID: 4634444341657240}
  - {fileID: 4641557900079640}
  - {fileID: 4450254054513082}
  - {fileID: 4124099871441192}
  - {fileID: 4271894998424936}
  - {fileID: 4569545920726756}
  - {fileID: 4589032205310254}
  - {fileID: 4007700562513260}
  - {fileID: 4507534520411542}
  - {fileID: 4450412268276666}
  - {fileID: 4331497315866350}
  - {fileID: 4344324633210848}
  - {fileID: 4342624019667014}
  - {fileID: 4602082797215118}
  - {fileID: 4753958972932600}
  - {fileID: 4447231994661010}
  - {fileID: 4280374109023288}
  - {fileID: 4485496605197988}
  - {fileID: 4234235067232280}
  m_BlendShapeWeights: []
  m_RootBone: {fileID: 4968511642078380}
  m_AABB:
    m_Center: {x: -0.089358985, y: 0.995961, z: 0.0422931}
    m_Extent: {x: 1.5576978, y: 1.098748, z: 0.5417956}
  m_DirtyAABB: 0
--- !u!1 &1021157711818972
GameObject:
  m_ObjectHideFlags: 0
  m_CorrespondingSourceObject: {fileID: 0}
  m_PrefabInstance: {fileID: 0}
  m_PrefabAsset: {fileID: 0}
  serializedVersion: 6
  m_Component:
  - component: {fileID: 4704002114178304}
  m_Layer: 0
  m_Name: Thumb_03
  m_TagString: Untagged
  m_Icon: {fileID: 0}
  m_NavMeshLayer: 0
  m_StaticEditorFlags: 0
  m_IsActive: 1
--- !u!4 &4704002114178304
Transform:
  m_ObjectHideFlags: 0
  m_CorrespondingSourceObject: {fileID: 0}
  m_PrefabInstance: {fileID: 0}
  m_PrefabAsset: {fileID: 0}
  m_GameObject: {fileID: 1021157711818972}
  m_LocalRotation: {x: -0.04663384, y: -0.14921467, z: -0.29463205, w: 0.94273657}
  m_LocalPosition: {x: -0.092271924, y: 4.2188474e-17, z: -2.220446e-16}
  m_LocalScale: {x: 1, y: 1, z: 1}
  m_Children: []
  m_Father: {fileID: 4636170757142470}
  m_RootOrder: 0
  m_LocalEulerAnglesHint: {x: 0, y: 0, z: 0}
--- !u!1 &1027007047874468
GameObject:
  m_ObjectHideFlags: 0
  m_CorrespondingSourceObject: {fileID: 0}
  m_PrefabInstance: {fileID: 0}
  m_PrefabAsset: {fileID: 0}
  serializedVersion: 6
  m_Component:
  - component: {fileID: 4782599394604862}
  - component: {fileID: 137848055034108928}
  m_Layer: 0
  m_Name: Character_BarbarianGiant_01
  m_TagString: Untagged
  m_Icon: {fileID: 0}
  m_NavMeshLayer: 0
  m_StaticEditorFlags: 0
  m_IsActive: 0
--- !u!4 &4782599394604862
Transform:
  m_ObjectHideFlags: 0
  m_CorrespondingSourceObject: {fileID: 0}
  m_PrefabInstance: {fileID: 0}
  m_PrefabAsset: {fileID: 0}
  m_GameObject: {fileID: 1027007047874468}
  m_LocalRotation: {x: 0, y: -0, z: -0, w: 1}
  m_LocalPosition: {x: -0, y: 0, z: 0}
  m_LocalScale: {x: 1, y: 1, z: 1}
  m_Children: []
  m_Father: {fileID: 4692428868606460}
  m_RootOrder: 0
  m_LocalEulerAnglesHint: {x: 0, y: 0, z: 0}
--- !u!137 &137848055034108928
SkinnedMeshRenderer:
  m_ObjectHideFlags: 0
  m_CorrespondingSourceObject: {fileID: 0}
  m_PrefabInstance: {fileID: 0}
  m_PrefabAsset: {fileID: 0}
  m_GameObject: {fileID: 1027007047874468}
  m_Enabled: 1
  m_CastShadows: 1
  m_ReceiveShadows: 1
  m_DynamicOccludee: 1
  m_MotionVectors: 1
  m_LightProbeUsage: 1
  m_ReflectionProbeUsage: 1
  m_RayTracingMode: 3
  m_RayTraceProcedural: 0
  m_RenderingLayerMask: 1
  m_RendererPriority: 0
  m_Materials:
  - {fileID: 2100000, guid: caf01dd5152f3934d8079e6160aa3b1e, type: 2}
  m_StaticBatchInfo:
    firstSubMesh: 0
    subMeshCount: 0
  m_StaticBatchRoot: {fileID: 0}
  m_ProbeAnchor: {fileID: 0}
  m_LightProbeVolumeOverride: {fileID: 0}
  m_ScaleInLightmap: 1
  m_ReceiveGI: 1
  m_PreserveUVs: 0
  m_IgnoreNormalsForChartDetection: 0
  m_ImportantGI: 0
  m_StitchLightmapSeams: 1
  m_SelectedEditorRenderState: 3
  m_MinimumChartSize: 4
  m_AutoUVMaxDistance: 0.5
  m_AutoUVMaxAngle: 89
  m_LightmapParameters: {fileID: 0}
  m_SortingLayerID: 0
  m_SortingLayer: 0
  m_SortingOrder: 0
  serializedVersion: 2
  m_Quality: 0
  m_UpdateWhenOffscreen: 0
  m_SkinnedMotionVectors: 1
  m_Mesh: {fileID: 4300000, guid: a50cd06a0668d1a418d586a2944e3ed5, type: 3}
  m_Bones:
  - {fileID: 4968511642078380}
  - {fileID: 4553062615120186}
  - {fileID: 4427220032631432}
  - {fileID: 4434679777089430}
  - {fileID: 4165745833526514}
  - {fileID: 4970587296839388}
  - {fileID: 4184038513711718}
  - {fileID: 4788085560962488}
  - {fileID: 4152240246130716}
  - {fileID: 4445995347944722}
  - {fileID: 4663785794863714}
  - {fileID: 4119437400692876}
  - {fileID: 4683457810060112}
  - {fileID: 4381990739272310}
  - {fileID: 4636170757142470}
  - {fileID: 4704002114178304}
  - {fileID: 4780538011062674}
  - {fileID: 4717518706611268}
  - {fileID: 4115618638106878}
  - {fileID: 4630173923874424}
  - {fileID: 4487589127568162}
  - {fileID: 4572632112700390}
  - {fileID: 4747897470541468}
  - {fileID: 4766855428946090}
  - {fileID: 4349412276591670}
  - {fileID: 4000995580774292}
  - {fileID: 4786282514825284}
  - {fileID: 4537040476099648}
  - {fileID: 4830897669595748}
  - {fileID: 4631429041712160}
  - {fileID: 4634444341657240}
  - {fileID: 4641557900079640}
  - {fileID: 4450254054513082}
  - {fileID: 4124099871441192}
  - {fileID: 4271894998424936}
  - {fileID: 4569545920726756}
  - {fileID: 4589032205310254}
  - {fileID: 4007700562513260}
  - {fileID: 4507534520411542}
  - {fileID: 4450412268276666}
  - {fileID: 4331497315866350}
  - {fileID: 4344324633210848}
  - {fileID: 4342624019667014}
  - {fileID: 4602082797215118}
  - {fileID: 4753958972932600}
  - {fileID: 4447231994661010}
  - {fileID: 4280374109023288}
  - {fileID: 4485496605197988}
  - {fileID: 4234235067232280}
  m_BlendShapeWeights: []
  m_RootBone: {fileID: 4968511642078380}
  m_AABB:
    m_Center: {x: 0.00000017881393, y: 0.9082171, z: 0.035351098}
    m_Extent: {x: 1.4515893, y: 0.9894341, z: 0.41817784}
  m_DirtyAABB: 0
--- !u!1 &1040827987803840
GameObject:
  m_ObjectHideFlags: 0
  m_CorrespondingSourceObject: {fileID: 0}
  m_PrefabInstance: {fileID: 0}
  m_PrefabAsset: {fileID: 0}
  serializedVersion: 6
  m_Component:
  - component: {fileID: 4328533430279788}
  - component: {fileID: 137989078605221912}
  m_Layer: 0
  m_Name: Character_FortGolem_01
  m_TagString: Untagged
  m_Icon: {fileID: 0}
  m_NavMeshLayer: 0
  m_StaticEditorFlags: 0
  m_IsActive: 0
--- !u!4 &4328533430279788
Transform:
  m_ObjectHideFlags: 0
  m_CorrespondingSourceObject: {fileID: 0}
  m_PrefabInstance: {fileID: 0}
  m_PrefabAsset: {fileID: 0}
  m_GameObject: {fileID: 1040827987803840}
  m_LocalRotation: {x: 0, y: -0, z: -0, w: 1}
  m_LocalPosition: {x: -0, y: 0, z: 0}
  m_LocalScale: {x: 1, y: 1, z: 1}
  m_Children: []
  m_Father: {fileID: 4692428868606460}
  m_RootOrder: 4
  m_LocalEulerAnglesHint: {x: 0, y: 0, z: 0}
--- !u!137 &137989078605221912
SkinnedMeshRenderer:
  m_ObjectHideFlags: 0
  m_CorrespondingSourceObject: {fileID: 0}
  m_PrefabInstance: {fileID: 0}
  m_PrefabAsset: {fileID: 0}
  m_GameObject: {fileID: 1040827987803840}
  m_Enabled: 1
  m_CastShadows: 1
  m_ReceiveShadows: 1
  m_DynamicOccludee: 1
  m_MotionVectors: 1
  m_LightProbeUsage: 1
  m_ReflectionProbeUsage: 1
  m_RayTracingMode: 3
  m_RayTraceProcedural: 0
  m_RenderingLayerMask: 1
  m_RendererPriority: 0
  m_Materials:
  - {fileID: 2100000, guid: caf01dd5152f3934d8079e6160aa3b1e, type: 2}
  m_StaticBatchInfo:
    firstSubMesh: 0
    subMeshCount: 0
  m_StaticBatchRoot: {fileID: 0}
  m_ProbeAnchor: {fileID: 0}
  m_LightProbeVolumeOverride: {fileID: 0}
  m_ScaleInLightmap: 1
  m_ReceiveGI: 1
  m_PreserveUVs: 0
  m_IgnoreNormalsForChartDetection: 0
  m_ImportantGI: 0
  m_StitchLightmapSeams: 1
  m_SelectedEditorRenderState: 3
  m_MinimumChartSize: 4
  m_AutoUVMaxDistance: 0.5
  m_AutoUVMaxAngle: 89
  m_LightmapParameters: {fileID: 0}
  m_SortingLayerID: 0
  m_SortingLayer: 0
  m_SortingOrder: 0
  serializedVersion: 2
  m_Quality: 0
  m_UpdateWhenOffscreen: 0
  m_SkinnedMotionVectors: 1
  m_Mesh: {fileID: 4300004, guid: a50cd06a0668d1a418d586a2944e3ed5, type: 3}
  m_Bones:
  - {fileID: 4968511642078380}
  - {fileID: 4553062615120186}
  - {fileID: 4427220032631432}
  - {fileID: 4434679777089430}
  - {fileID: 4165745833526514}
  - {fileID: 4970587296839388}
  - {fileID: 4184038513711718}
  - {fileID: 4788085560962488}
  - {fileID: 4152240246130716}
  - {fileID: 4445995347944722}
  - {fileID: 4663785794863714}
  - {fileID: 4119437400692876}
  - {fileID: 4683457810060112}
  - {fileID: 4381990739272310}
  - {fileID: 4636170757142470}
  - {fileID: 4704002114178304}
  - {fileID: 4780538011062674}
  - {fileID: 4717518706611268}
  - {fileID: 4115618638106878}
  - {fileID: 4630173923874424}
  - {fileID: 4487589127568162}
  - {fileID: 4572632112700390}
  - {fileID: 4747897470541468}
  - {fileID: 4766855428946090}
  - {fileID: 4349412276591670}
  - {fileID: 4000995580774292}
  - {fileID: 4786282514825284}
  - {fileID: 4537040476099648}
  - {fileID: 4830897669595748}
  - {fileID: 4631429041712160}
  - {fileID: 4634444341657240}
  - {fileID: 4641557900079640}
  - {fileID: 4450254054513082}
  - {fileID: 4124099871441192}
  - {fileID: 4271894998424936}
  - {fileID: 4569545920726756}
  - {fileID: 4589032205310254}
  - {fileID: 4007700562513260}
  - {fileID: 4507534520411542}
  - {fileID: 4450412268276666}
  - {fileID: 4331497315866350}
  - {fileID: 4344324633210848}
  - {fileID: 4342624019667014}
  - {fileID: 4602082797215118}
  - {fileID: 4753958972932600}
  - {fileID: 4447231994661010}
  - {fileID: 4280374109023288}
  - {fileID: 4485496605197988}
  - {fileID: 4234235067232280}
  m_BlendShapeWeights: []
  m_RootBone: {fileID: 4968511642078380}
  m_AABB:
    m_Center: {x: 0, y: 0.8960201, z: -0.0006971657}
    m_Extent: {x: 1.4520414, y: 1.0003002, z: 0.41423014}
  m_DirtyAABB: 0
--- !u!1 &1043619327045340
GameObject:
  m_ObjectHideFlags: 0
  m_CorrespondingSourceObject: {fileID: 0}
  m_PrefabInstance: {fileID: 0}
  m_PrefabAsset: {fileID: 0}
  serializedVersion: 6
  m_Component:
  - component: {fileID: 4344324633210848}
  m_Layer: 0
  m_Name: Ankle_L
  m_TagString: Untagged
  m_Icon: {fileID: 0}
  m_NavMeshLayer: 0
  m_StaticEditorFlags: 0
  m_IsActive: 1
--- !u!4 &4344324633210848
Transform:
  m_ObjectHideFlags: 0
  m_CorrespondingSourceObject: {fileID: 0}
  m_PrefabInstance: {fileID: 0}
  m_PrefabAsset: {fileID: 0}
  m_GameObject: {fileID: 1043619327045340}
  m_LocalRotation: {x: 0.7458738, y: 0.51436746, z: -0.19933209, w: 0.37331632}
  m_LocalPosition: {x: -0.37842098, y: -0.00000000799083, z: -0.00000017884236}
  m_LocalScale: {x: 1, y: 1, z: 1}
  m_Children:
  - {fileID: 4342624019667014}
  m_Father: {fileID: 4331497315866350}
  m_RootOrder: 0
  m_LocalEulerAnglesHint: {x: 0, y: 0, z: 0}
--- !u!1 &1072065698516426
GameObject:
  m_ObjectHideFlags: 0
  m_CorrespondingSourceObject: {fileID: 0}
  m_PrefabInstance: {fileID: 0}
  m_PrefabAsset: {fileID: 0}
  serializedVersion: 6
  m_Component:
  - component: {fileID: 4349412276591670}
  m_Layer: 0
  m_Name: Clavicle_R
  m_TagString: Untagged
  m_Icon: {fileID: 0}
  m_NavMeshLayer: 0
  m_StaticEditorFlags: 0
  m_IsActive: 1
--- !u!4 &4349412276591670
Transform:
  m_ObjectHideFlags: 0
  m_CorrespondingSourceObject: {fileID: 0}
  m_PrefabInstance: {fileID: 0}
  m_PrefabAsset: {fileID: 0}
  m_GameObject: {fileID: 1072065698516426}
  m_LocalRotation: {x: 0.6243929, y: 0.42177823, z: 0.50111043, w: -0.42558777}
  m_LocalPosition: {x: -0.07733742, y: -0.0015131371, z: 0.16716298}
  m_LocalScale: {x: 1, y: 1, z: 1}
  m_Children:
  - {fileID: 4000995580774292}
  m_Father: {fileID: 4165745833526514}
  m_RootOrder: 1
  m_LocalEulerAnglesHint: {x: 0, y: 0, z: 0}
--- !u!1 &1141927967042468
GameObject:
  m_ObjectHideFlags: 0
  m_CorrespondingSourceObject: {fileID: 0}
  m_PrefabInstance: {fileID: 0}
  m_PrefabAsset: {fileID: 0}
  serializedVersion: 6
  m_Component:
  - component: {fileID: 4978503727836054}
  - component: {fileID: 137303589958143526}
  m_Layer: 0
  m_Name: Character_Dwarf_01
  m_TagString: Untagged
  m_Icon: {fileID: 0}
  m_NavMeshLayer: 0
  m_StaticEditorFlags: 0
  m_IsActive: 1
--- !u!4 &4978503727836054
Transform:
  m_ObjectHideFlags: 0
  m_CorrespondingSourceObject: {fileID: 0}
  m_PrefabInstance: {fileID: 0}
  m_PrefabAsset: {fileID: 0}
  m_GameObject: {fileID: 1141927967042468}
  m_LocalRotation: {x: 0, y: -0, z: -0, w: 1}
  m_LocalPosition: {x: -0, y: 0, z: 0}
  m_LocalScale: {x: 1, y: 1, z: 1}
  m_Children: []
  m_Father: {fileID: 4692428868606460}
  m_RootOrder: 2
  m_LocalEulerAnglesHint: {x: 0, y: 0, z: 0}
--- !u!137 &137303589958143526
SkinnedMeshRenderer:
  m_ObjectHideFlags: 0
  m_CorrespondingSourceObject: {fileID: 0}
  m_PrefabInstance: {fileID: 0}
  m_PrefabAsset: {fileID: 0}
  m_GameObject: {fileID: 1141927967042468}
  m_Enabled: 1
  m_CastShadows: 1
  m_ReceiveShadows: 1
  m_DynamicOccludee: 1
  m_MotionVectors: 1
  m_LightProbeUsage: 1
  m_ReflectionProbeUsage: 1
  m_RayTracingMode: 3
  m_RayTraceProcedural: 0
  m_RenderingLayerMask: 1
  m_RendererPriority: 0
  m_Materials:
  - {fileID: 2100000, guid: caf01dd5152f3934d8079e6160aa3b1e, type: 2}
  m_StaticBatchInfo:
    firstSubMesh: 0
    subMeshCount: 0
  m_StaticBatchRoot: {fileID: 0}
  m_ProbeAnchor: {fileID: 0}
  m_LightProbeVolumeOverride: {fileID: 0}
  m_ScaleInLightmap: 1
  m_ReceiveGI: 1
  m_PreserveUVs: 0
  m_IgnoreNormalsForChartDetection: 0
  m_ImportantGI: 0
  m_StitchLightmapSeams: 1
  m_SelectedEditorRenderState: 3
  m_MinimumChartSize: 4
  m_AutoUVMaxDistance: 0.5
  m_AutoUVMaxAngle: 89
  m_LightmapParameters: {fileID: 0}
  m_SortingLayerID: 0
  m_SortingLayer: 0
  m_SortingOrder: 0
  serializedVersion: 2
  m_Quality: 0
  m_UpdateWhenOffscreen: 0
  m_SkinnedMotionVectors: 1
  m_Mesh: {fileID: -7275948975844155278, guid: 4f62b44da4d9d514d8fdc6ef71434554, type: 3}
  m_Bones:
  - {fileID: 4968511642078380}
  - {fileID: 4553062615120186}
  - {fileID: 4427220032631432}
  - {fileID: 4434679777089430}
  - {fileID: 4165745833526514}
  - {fileID: 4970587296839388}
  - {fileID: 4184038513711718}
  - {fileID: 4788085560962488}
  - {fileID: 4152240246130716}
  - {fileID: 4445995347944722}
  - {fileID: 4663785794863714}
  - {fileID: 4119437400692876}
  - {fileID: 4683457810060112}
  - {fileID: 4381990739272310}
  - {fileID: 4636170757142470}
  - {fileID: 4704002114178304}
  - {fileID: 4780538011062674}
  - {fileID: 4717518706611268}
  - {fileID: 4115618638106878}
  - {fileID: 4630173923874424}
  - {fileID: 4487589127568162}
  - {fileID: 4572632112700390}
  - {fileID: 4747897470541468}
  - {fileID: 4766855428946090}
  - {fileID: 4349412276591670}
  - {fileID: 4000995580774292}
  - {fileID: 4786282514825284}
  - {fileID: 4537040476099648}
  - {fileID: 4830897669595748}
  - {fileID: 4631429041712160}
  - {fileID: 4634444341657240}
  - {fileID: 4641557900079640}
  - {fileID: 4450254054513082}
  - {fileID: 4124099871441192}
  - {fileID: 4271894998424936}
  - {fileID: 4569545920726756}
  - {fileID: 4589032205310254}
  - {fileID: 4007700562513260}
  - {fileID: 4507534520411542}
  - {fileID: 4450412268276666}
  - {fileID: 4331497315866350}
  - {fileID: 4344324633210848}
  - {fileID: 4342624019667014}
  - {fileID: 4602082797215118}
  - {fileID: 4753958972932600}
  - {fileID: 4447231994661010}
  - {fileID: 4280374109023288}
  - {fileID: 4485496605197988}
  - {fileID: 4234235067232280}
  m_BlendShapeWeights: []
  m_RootBone: {fileID: 4968511642078380}
  m_AABB:
    m_Center: {x: 0.000000059604645, y: 0.9959277, z: 0.012999177}
    m_Extent: {x: 1.4546254, y: 1.088936, z: 0.46276748}
  m_DirtyAABB: 0
--- !u!1 &1149300337430230
GameObject:
  m_ObjectHideFlags: 0
  m_CorrespondingSourceObject: {fileID: 0}
  m_PrefabInstance: {fileID: 0}
  m_PrefabAsset: {fileID: 0}
  serializedVersion: 6
  m_Component:
  - component: {fileID: 4970587296839388}
  m_Layer: 0
  m_Name: Neck
  m_TagString: Untagged
  m_Icon: {fileID: 0}
  m_NavMeshLayer: 0
  m_StaticEditorFlags: 0
  m_IsActive: 1
--- !u!4 &4970587296839388
Transform:
  m_ObjectHideFlags: 0
  m_CorrespondingSourceObject: {fileID: 0}
  m_PrefabInstance: {fileID: 0}
  m_PrefabAsset: {fileID: 0}
  m_GameObject: {fileID: 1149300337430230}
  m_LocalRotation: {x: 7.0104127e-15, y: 1.2999221e-15, z: 0.3090158, w: 0.9510569}
  m_LocalPosition: {x: -0.18112935, y: 0.0169739, z: -0.0000000011960342}
  m_LocalScale: {x: 1, y: 1, z: 1}
  m_Children:
  - {fileID: 4184038513711718}
  m_Father: {fileID: 4165745833526514}
  m_RootOrder: 2
  m_LocalEulerAnglesHint: {x: 0, y: 0, z: 0}
--- !u!1 &1157782216124882
GameObject:
  m_ObjectHideFlags: 0
  m_CorrespondingSourceObject: {fileID: 0}
  m_PrefabInstance: {fileID: 0}
  m_PrefabAsset: {fileID: 0}
  serializedVersion: 6
  m_Component:
  - component: {fileID: 4636170757142470}
  m_Layer: 0
  m_Name: Thumb_02
  m_TagString: Untagged
  m_Icon: {fileID: 0}
  m_NavMeshLayer: 0
  m_StaticEditorFlags: 0
  m_IsActive: 1
--- !u!4 &4636170757142470
Transform:
  m_ObjectHideFlags: 0
  m_CorrespondingSourceObject: {fileID: 0}
  m_PrefabInstance: {fileID: 0}
  m_PrefabAsset: {fileID: 0}
  m_GameObject: {fileID: 1157782216124882}
  m_LocalRotation: {x: -0.051516745, y: -0.11325954, z: 0.1766006, w: 0.9763865}
  m_LocalPosition: {x: -0.09701814, y: 4.396483e-16, z: 1.8651746e-16}
  m_LocalScale: {x: 1, y: 1, z: 1}
  m_Children:
  - {fileID: 4704002114178304}
  m_Father: {fileID: 4381990739272310}
  m_RootOrder: 0
  m_LocalEulerAnglesHint: {x: 0, y: 0, z: 0}
--- !u!1 &1172250000698322
GameObject:
  m_ObjectHideFlags: 0
  m_CorrespondingSourceObject: {fileID: 0}
  m_PrefabInstance: {fileID: 0}
  m_PrefabAsset: {fileID: 0}
  serializedVersion: 6
  m_Component:
  - component: {fileID: 4631429041712160}
  m_Layer: 0
  m_Name: Thumb_02 1
  m_TagString: Untagged
  m_Icon: {fileID: 0}
  m_NavMeshLayer: 0
  m_StaticEditorFlags: 0
  m_IsActive: 1
--- !u!4 &4631429041712160
Transform:
  m_ObjectHideFlags: 0
  m_CorrespondingSourceObject: {fileID: 0}
  m_PrefabInstance: {fileID: 0}
  m_PrefabAsset: {fileID: 0}
  m_GameObject: {fileID: 1172250000698322}
  m_LocalRotation: {x: -0.051516745, y: -0.11325954, z: 0.1766006, w: 0.9763865}
  m_LocalPosition: {x: 0.09702438, y: -0.0000012559718, z: 0.000003968674}
  m_LocalScale: {x: 1, y: 1, z: 1}
  m_Children:
  - {fileID: 4634444341657240}
  m_Father: {fileID: 4830897669595748}
  m_RootOrder: 0
  m_LocalEulerAnglesHint: {x: 0, y: 0, z: 0}
--- !u!1 &1190527634769358
GameObject:
  m_ObjectHideFlags: 0
  m_CorrespondingSourceObject: {fileID: 0}
  m_PrefabInstance: {fileID: 0}
  m_PrefabAsset: {fileID: 0}
  serializedVersion: 6
  m_Component:
  - component: {fileID: 4552150889869348}
  - component: {fileID: 137187243781339330}
  m_Layer: 0
  m_Name: Character_Pig_Butcher_01
  m_TagString: Untagged
  m_Icon: {fileID: 0}
  m_NavMeshLayer: 0
  m_StaticEditorFlags: 0
  m_IsActive: 0
--- !u!4 &4552150889869348
Transform:
  m_ObjectHideFlags: 0
  m_CorrespondingSourceObject: {fileID: 0}
  m_PrefabInstance: {fileID: 0}
  m_PrefabAsset: {fileID: 0}
  m_GameObject: {fileID: 1190527634769358}
  m_LocalRotation: {x: 0, y: -0, z: -0, w: 1}
  m_LocalPosition: {x: -0, y: 0, z: 0}
  m_LocalScale: {x: 1, y: 1, z: 1}
  m_Children: []
  m_Father: {fileID: 4692428868606460}
  m_RootOrder: 7
  m_LocalEulerAnglesHint: {x: 0, y: 0, z: 0}
--- !u!137 &137187243781339330
SkinnedMeshRenderer:
  m_ObjectHideFlags: 0
  m_CorrespondingSourceObject: {fileID: 0}
  m_PrefabInstance: {fileID: 0}
  m_PrefabAsset: {fileID: 0}
  m_GameObject: {fileID: 1190527634769358}
  m_Enabled: 1
  m_CastShadows: 1
  m_ReceiveShadows: 1
  m_DynamicOccludee: 1
  m_MotionVectors: 1
  m_LightProbeUsage: 1
  m_ReflectionProbeUsage: 1
  m_RayTracingMode: 3
  m_RayTraceProcedural: 0
  m_RenderingLayerMask: 1
  m_RendererPriority: 0
  m_Materials:
  - {fileID: 2100000, guid: caf01dd5152f3934d8079e6160aa3b1e, type: 2}
  m_StaticBatchInfo:
    firstSubMesh: 0
    subMeshCount: 0
  m_StaticBatchRoot: {fileID: 0}
  m_ProbeAnchor: {fileID: 0}
  m_LightProbeVolumeOverride: {fileID: 0}
  m_ScaleInLightmap: 1
  m_ReceiveGI: 1
  m_PreserveUVs: 0
  m_IgnoreNormalsForChartDetection: 0
  m_ImportantGI: 0
  m_StitchLightmapSeams: 1
  m_SelectedEditorRenderState: 3
  m_MinimumChartSize: 4
  m_AutoUVMaxDistance: 0.5
  m_AutoUVMaxAngle: 89
  m_LightmapParameters: {fileID: 0}
  m_SortingLayerID: 0
  m_SortingLayer: 0
  m_SortingOrder: 0
  serializedVersion: 2
  m_Quality: 0
  m_UpdateWhenOffscreen: 0
  m_SkinnedMotionVectors: 1
  m_Mesh: {fileID: 4300012, guid: a50cd06a0668d1a418d586a2944e3ed5, type: 3}
  m_Bones:
  - {fileID: 4968511642078380}
  - {fileID: 4553062615120186}
  - {fileID: 4427220032631432}
  - {fileID: 4434679777089430}
  - {fileID: 4165745833526514}
  - {fileID: 4970587296839388}
  - {fileID: 4184038513711718}
  - {fileID: 4788085560962488}
  - {fileID: 4152240246130716}
  - {fileID: 4445995347944722}
  - {fileID: 4663785794863714}
  - {fileID: 4119437400692876}
  - {fileID: 4683457810060112}
  - {fileID: 4381990739272310}
  - {fileID: 4636170757142470}
  - {fileID: 4704002114178304}
  - {fileID: 4780538011062674}
  - {fileID: 4717518706611268}
  - {fileID: 4115618638106878}
  - {fileID: 4630173923874424}
  - {fileID: 4487589127568162}
  - {fileID: 4572632112700390}
  - {fileID: 4747897470541468}
  - {fileID: 4766855428946090}
  - {fileID: 4349412276591670}
  - {fileID: 4000995580774292}
  - {fileID: 4786282514825284}
  - {fileID: 4537040476099648}
  - {fileID: 4830897669595748}
  - {fileID: 4631429041712160}
  - {fileID: 4634444341657240}
  - {fileID: 4641557900079640}
  - {fileID: 4450254054513082}
  - {fileID: 4124099871441192}
  - {fileID: 4271894998424936}
  - {fileID: 4569545920726756}
  - {fileID: 4589032205310254}
  - {fileID: 4007700562513260}
  - {fileID: 4507534520411542}
  - {fileID: 4450412268276666}
  - {fileID: 4331497315866350}
  - {fileID: 4344324633210848}
  - {fileID: 4342624019667014}
  - {fileID: 4602082797215118}
  - {fileID: 4753958972932600}
  - {fileID: 4447231994661010}
  - {fileID: 4280374109023288}
  - {fileID: 4485496605197988}
  - {fileID: 4234235067232280}
  m_BlendShapeWeights: []
  m_RootBone: {fileID: 4968511642078380}
  m_AABB:
    m_Center: {x: 0.00000011920929, y: 0.9029965, z: -0.012227356}
    m_Extent: {x: 1.451589, y: 0.9868483, z: 0.46186703}
  m_DirtyAABB: 0
--- !u!1 &1190996606669430
GameObject:
  m_ObjectHideFlags: 0
  m_CorrespondingSourceObject: {fileID: 0}
  m_PrefabInstance: {fileID: 0}
  m_PrefabAsset: {fileID: 0}
  serializedVersion: 6
  m_Component:
  - component: {fileID: 4450412268276666}
  m_Layer: 0
  m_Name: UpperLeg_L
  m_TagString: Untagged
  m_Icon: {fileID: 0}
  m_NavMeshLayer: 0
  m_StaticEditorFlags: 0
  m_IsActive: 1
--- !u!4 &4450412268276666
Transform:
  m_ObjectHideFlags: 0
  m_CorrespondingSourceObject: {fileID: 0}
  m_PrefabInstance: {fileID: 0}
  m_PrefabAsset: {fileID: 0}
  m_GameObject: {fileID: 1190996606669430}
  m_LocalRotation: {x: -0.2668567, y: -0.21296215, z: 0.49947354, w: 0.7962166}
  m_LocalPosition: {x: -0.13062388, y: -8.881784e-18, z: -1.11022296e-17}
  m_LocalScale: {x: 1, y: 1, z: 1}
  m_Children:
  - {fileID: 4331497315866350}
  m_Father: {fileID: 4553062615120186}
  m_RootOrder: 1
  m_LocalEulerAnglesHint: {x: 0, y: 0, z: 0}
--- !u!1 &1191530368881080
GameObject:
  m_ObjectHideFlags: 0
  m_CorrespondingSourceObject: {fileID: 0}
  m_PrefabInstance: {fileID: 0}
  m_PrefabAsset: {fileID: 0}
  serializedVersion: 6
  m_Component:
  - component: {fileID: 4007700562513260}
  m_Layer: 0
  m_Name: Finger_03 1
  m_TagString: Untagged
  m_Icon: {fileID: 0}
  m_NavMeshLayer: 0
  m_StaticEditorFlags: 0
  m_IsActive: 1
--- !u!4 &4007700562513260
Transform:
  m_ObjectHideFlags: 0
  m_CorrespondingSourceObject: {fileID: 0}
  m_PrefabInstance: {fileID: 0}
  m_PrefabAsset: {fileID: 0}
  m_GameObject: {fileID: 1191530368881080}
  m_LocalRotation: {x: -0.023977656, y: -0.06974028, z: 0.11959571, w: 0.99007994}
  m_LocalPosition: {x: 0.05329311, y: 0.0000014939407, z: 0.00000036493486}
  m_LocalScale: {x: 1, y: 1, z: 1}
  m_Children:
  - {fileID: 4507534520411542}
  m_Father: {fileID: 4589032205310254}
  m_RootOrder: 0
  m_LocalEulerAnglesHint: {x: 0, y: 0, z: 0}
--- !u!1 &1214276034720074
GameObject:
  m_ObjectHideFlags: 0
  m_CorrespondingSourceObject: {fileID: 0}
  m_PrefabInstance: {fileID: 0}
  m_PrefabAsset: {fileID: 0}
  serializedVersion: 6
  m_Component:
  - component: {fileID: 4589032205310254}
  m_Layer: 0
  m_Name: Finger_02 1
  m_TagString: Untagged
  m_Icon: {fileID: 0}
  m_NavMeshLayer: 0
  m_StaticEditorFlags: 0
  m_IsActive: 1
--- !u!4 &4589032205310254
Transform:
  m_ObjectHideFlags: 0
  m_CorrespondingSourceObject: {fileID: 0}
  m_PrefabInstance: {fileID: 0}
  m_PrefabAsset: {fileID: 0}
  m_GameObject: {fileID: 1214276034720074}
  m_LocalRotation: {x: 0.0035674032, y: 0.019343419, z: 0.028556598, w: 0.99939865}
  m_LocalPosition: {x: 0.064152494, y: 0.000001623162, z: -0.000000044617604}
  m_LocalScale: {x: 1, y: 1, z: 1}
  m_Children:
  - {fileID: 4007700562513260}
  m_Father: {fileID: 4569545920726756}
  m_RootOrder: 0
  m_LocalEulerAnglesHint: {x: 0, y: 0, z: 0}
--- !u!1 &1227877447930318
GameObject:
  m_ObjectHideFlags: 0
  m_CorrespondingSourceObject: {fileID: 0}
  m_PrefabInstance: {fileID: 0}
  m_PrefabAsset: {fileID: 0}
  serializedVersion: 6
  m_Component:
  - component: {fileID: 4445995347944722}
  m_Layer: 0
  m_Name: Clavicle_L
  m_TagString: Untagged
  m_Icon: {fileID: 0}
  m_NavMeshLayer: 0
  m_StaticEditorFlags: 0
  m_IsActive: 1
--- !u!4 &4445995347944722
Transform:
  m_ObjectHideFlags: 0
  m_CorrespondingSourceObject: {fileID: 0}
  m_PrefabInstance: {fileID: 0}
  m_PrefabAsset: {fileID: 0}
  m_GameObject: {fileID: 1227877447930318}
  m_LocalRotation: {x: 0.42177826, y: -0.6243929, z: 0.4255878, w: 0.5011104}
  m_LocalPosition: {x: -0.07733449, y: -0.0015139526, z: -0.16716343}
  m_LocalScale: {x: 1, y: 1, z: 1}
  m_Children:
  - {fileID: 4663785794863714}
  m_Father: {fileID: 4165745833526514}
  m_RootOrder: 0
  m_LocalEulerAnglesHint: {x: 0, y: 0, z: 0}
--- !u!1 &1235786178795618
GameObject:
  m_ObjectHideFlags: 0
  m_CorrespondingSourceObject: {fileID: 0}
  m_PrefabInstance: {fileID: 0}
  m_PrefabAsset: {fileID: 0}
  serializedVersion: 6
  m_Component:
  - component: {fileID: 4553062615120186}
  m_Layer: 0
  m_Name: Hips
  m_TagString: Untagged
  m_Icon: {fileID: 0}
  m_NavMeshLayer: 0
  m_StaticEditorFlags: 0
  m_IsActive: 1
--- !u!4 &4553062615120186
Transform:
  m_ObjectHideFlags: 0
  m_CorrespondingSourceObject: {fileID: 0}
  m_PrefabInstance: {fileID: 0}
  m_PrefabAsset: {fileID: 0}
  m_GameObject: {fileID: 1235786178795618}
  m_LocalRotation: {x: -2.9400024e-16, y: 5.6125208e-15, z: 0.16770098, w: 0.98583794}
  m_LocalPosition: {x: -0, y: 0.8762761, z: 0}
  m_LocalScale: {x: 1, y: 1, z: 1}
  m_Children:
  - {fileID: 4427220032631432}
  - {fileID: 4450412268276666}
  - {fileID: 4753958972932600}
  m_Father: {fileID: 4968511642078380}
  m_RootOrder: 0
  m_LocalEulerAnglesHint: {x: 0, y: 0, z: 0}
--- !u!1 &1249383443694216
GameObject:
  m_ObjectHideFlags: 0
  m_CorrespondingSourceObject: {fileID: 0}
  m_PrefabInstance: {fileID: 0}
  m_PrefabAsset: {fileID: 0}
  serializedVersion: 6
  m_Component:
  - component: {fileID: 4065333536566620}
  - component: {fileID: 137190828689588544}
  m_Layer: 0
  m_Name: Character_Slayer_01
  m_TagString: Untagged
  m_Icon: {fileID: 0}
  m_NavMeshLayer: 0
  m_StaticEditorFlags: 0
  m_IsActive: 0
--- !u!4 &4065333536566620
Transform:
  m_ObjectHideFlags: 0
  m_CorrespondingSourceObject: {fileID: 0}
  m_PrefabInstance: {fileID: 0}
  m_PrefabAsset: {fileID: 0}
  m_GameObject: {fileID: 1249383443694216}
  m_LocalRotation: {x: 0, y: -0, z: -0, w: 1}
  m_LocalPosition: {x: -0, y: 0, z: 0}
  m_LocalScale: {x: 1, y: 1, z: 1}
  m_Children: []
  m_Father: {fileID: 4692428868606460}
  m_RootOrder: 9
  m_LocalEulerAnglesHint: {x: 0, y: 0, z: 0}
--- !u!137 &137190828689588544
SkinnedMeshRenderer:
  m_ObjectHideFlags: 0
  m_CorrespondingSourceObject: {fileID: 0}
  m_PrefabInstance: {fileID: 0}
  m_PrefabAsset: {fileID: 0}
  m_GameObject: {fileID: 1249383443694216}
  m_Enabled: 1
  m_CastShadows: 1
  m_ReceiveShadows: 1
  m_DynamicOccludee: 1
  m_MotionVectors: 1
  m_LightProbeUsage: 1
  m_ReflectionProbeUsage: 1
  m_RayTracingMode: 3
  m_RayTraceProcedural: 0
  m_RenderingLayerMask: 1
  m_RendererPriority: 0
  m_Materials:
  - {fileID: 2100000, guid: caf01dd5152f3934d8079e6160aa3b1e, type: 2}
  m_StaticBatchInfo:
    firstSubMesh: 0
    subMeshCount: 0
  m_StaticBatchRoot: {fileID: 0}
  m_ProbeAnchor: {fileID: 0}
  m_LightProbeVolumeOverride: {fileID: 0}
  m_ScaleInLightmap: 1
  m_ReceiveGI: 1
  m_PreserveUVs: 0
  m_IgnoreNormalsForChartDetection: 0
  m_ImportantGI: 0
  m_StitchLightmapSeams: 1
  m_SelectedEditorRenderState: 3
  m_MinimumChartSize: 4
  m_AutoUVMaxDistance: 0.5
  m_AutoUVMaxAngle: 89
  m_LightmapParameters: {fileID: 0}
  m_SortingLayerID: 0
  m_SortingLayer: 0
  m_SortingOrder: 0
  serializedVersion: 2
  m_Quality: 0
  m_UpdateWhenOffscreen: 0
  m_SkinnedMotionVectors: 1
  m_Mesh: {fileID: 4300014, guid: a50cd06a0668d1a418d586a2944e3ed5, type: 3}
  m_Bones:
  - {fileID: 4968511642078380}
  - {fileID: 4553062615120186}
  - {fileID: 4427220032631432}
  - {fileID: 4434679777089430}
  - {fileID: 4165745833526514}
  - {fileID: 4970587296839388}
  - {fileID: 4184038513711718}
  - {fileID: 4788085560962488}
  - {fileID: 4152240246130716}
  - {fileID: 4445995347944722}
  - {fileID: 4663785794863714}
  - {fileID: 4119437400692876}
  - {fileID: 4683457810060112}
  - {fileID: 4381990739272310}
  - {fileID: 4636170757142470}
  - {fileID: 4704002114178304}
  - {fileID: 4780538011062674}
  - {fileID: 4717518706611268}
  - {fileID: 4115618638106878}
  - {fileID: 4630173923874424}
  - {fileID: 4487589127568162}
  - {fileID: 4572632112700390}
  - {fileID: 4747897470541468}
  - {fileID: 4766855428946090}
  - {fileID: 4349412276591670}
  - {fileID: 4000995580774292}
  - {fileID: 4786282514825284}
  - {fileID: 4537040476099648}
  - {fileID: 4830897669595748}
  - {fileID: 4631429041712160}
  - {fileID: 4634444341657240}
  - {fileID: 4641557900079640}
  - {fileID: 4450254054513082}
  - {fileID: 4124099871441192}
  - {fileID: 4271894998424936}
  - {fileID: 4569545920726756}
  - {fileID: 4589032205310254}
  - {fileID: 4007700562513260}
  - {fileID: 4507534520411542}
  - {fileID: 4450412268276666}
  - {fileID: 4331497315866350}
  - {fileID: 4344324633210848}
  - {fileID: 4342624019667014}
  - {fileID: 4602082797215118}
  - {fileID: 4753958972932600}
  - {fileID: 4447231994661010}
  - {fileID: 4280374109023288}
  - {fileID: 4485496605197988}
  - {fileID: 4234235067232280}
  m_BlendShapeWeights: []
  m_RootBone: {fileID: 4968511642078380}
  m_AABB:
    m_Center: {x: 0.000849247, y: 0.9183638, z: 0.04248427}
    m_Extent: {x: 1.4639642, y: 0.99041593, z: 0.40946007}
  m_DirtyAABB: 0
--- !u!1 &1257923758734852
GameObject:
  m_ObjectHideFlags: 0
  m_CorrespondingSourceObject: {fileID: 0}
  m_PrefabInstance: {fileID: 0}
  m_PrefabAsset: {fileID: 0}
  serializedVersion: 6
  m_Component:
  - component: {fileID: 4587245446612044}
  - component: {fileID: 137037217432635202}
  m_Layer: 0
  m_Name: Character_Troll_01
  m_TagString: Untagged
  m_Icon: {fileID: 0}
  m_NavMeshLayer: 0
  m_StaticEditorFlags: 0
  m_IsActive: 0
--- !u!4 &4587245446612044
Transform:
  m_ObjectHideFlags: 0
  m_CorrespondingSourceObject: {fileID: 0}
  m_PrefabInstance: {fileID: 0}
  m_PrefabAsset: {fileID: 0}
  m_GameObject: {fileID: 1257923758734852}
  m_LocalRotation: {x: 0, y: -0, z: -0, w: 1}
  m_LocalPosition: {x: -0, y: 0, z: 0}
  m_LocalScale: {x: 1, y: 1, z: 1}
  m_Children: []
  m_Father: {fileID: 4692428868606460}
  m_RootOrder: 10
  m_LocalEulerAnglesHint: {x: 0, y: 0, z: 0}
--- !u!137 &137037217432635202
SkinnedMeshRenderer:
  m_ObjectHideFlags: 0
  m_CorrespondingSourceObject: {fileID: 0}
  m_PrefabInstance: {fileID: 0}
  m_PrefabAsset: {fileID: 0}
  m_GameObject: {fileID: 1257923758734852}
  m_Enabled: 1
  m_CastShadows: 1
  m_ReceiveShadows: 1
  m_DynamicOccludee: 1
  m_MotionVectors: 1
  m_LightProbeUsage: 1
  m_ReflectionProbeUsage: 1
  m_RayTracingMode: 3
  m_RayTraceProcedural: 0
  m_RenderingLayerMask: 1
  m_RendererPriority: 0
  m_Materials:
  - {fileID: 2100000, guid: caf01dd5152f3934d8079e6160aa3b1e, type: 2}
  m_StaticBatchInfo:
    firstSubMesh: 0
    subMeshCount: 0
  m_StaticBatchRoot: {fileID: 0}
  m_ProbeAnchor: {fileID: 0}
  m_LightProbeVolumeOverride: {fileID: 0}
  m_ScaleInLightmap: 1
  m_ReceiveGI: 1
  m_PreserveUVs: 0
  m_IgnoreNormalsForChartDetection: 0
  m_ImportantGI: 0
  m_StitchLightmapSeams: 1
  m_SelectedEditorRenderState: 3
  m_MinimumChartSize: 4
  m_AutoUVMaxDistance: 0.5
  m_AutoUVMaxAngle: 89
  m_LightmapParameters: {fileID: 0}
  m_SortingLayerID: 0
  m_SortingLayer: 0
  m_SortingOrder: 0
  serializedVersion: 2
  m_Quality: 0
  m_UpdateWhenOffscreen: 0
  m_SkinnedMotionVectors: 1
  m_Mesh: {fileID: 4300006, guid: a50cd06a0668d1a418d586a2944e3ed5, type: 3}
  m_Bones:
  - {fileID: 4968511642078380}
  - {fileID: 4553062615120186}
  - {fileID: 4427220032631432}
  - {fileID: 4434679777089430}
  - {fileID: 4165745833526514}
  - {fileID: 4970587296839388}
  - {fileID: 4184038513711718}
  - {fileID: 4788085560962488}
  - {fileID: 4152240246130716}
  - {fileID: 4445995347944722}
  - {fileID: 4663785794863714}
  - {fileID: 4119437400692876}
  - {fileID: 4683457810060112}
  - {fileID: 4381990739272310}
  - {fileID: 4636170757142470}
  - {fileID: 4704002114178304}
  - {fileID: 4780538011062674}
  - {fileID: 4717518706611268}
  - {fileID: 4115618638106878}
  - {fileID: 4630173923874424}
  - {fileID: 4487589127568162}
  - {fileID: 4572632112700390}
  - {fileID: 4747897470541468}
  - {fileID: 4766855428946090}
  - {fileID: 4349412276591670}
  - {fileID: 4000995580774292}
  - {fileID: 4786282514825284}
  - {fileID: 4537040476099648}
  - {fileID: 4830897669595748}
  - {fileID: 4631429041712160}
  - {fileID: 4634444341657240}
  - {fileID: 4641557900079640}
  - {fileID: 4450254054513082}
  - {fileID: 4124099871441192}
  - {fileID: 4271894998424936}
  - {fileID: 4569545920726756}
  - {fileID: 4589032205310254}
  - {fileID: 4007700562513260}
  - {fileID: 4507534520411542}
  - {fileID: 4450412268276666}
  - {fileID: 4331497315866350}
  - {fileID: 4344324633210848}
  - {fileID: 4342624019667014}
  - {fileID: 4602082797215118}
  - {fileID: 4753958972932600}
  - {fileID: 4447231994661010}
  - {fileID: 4280374109023288}
  - {fileID: 4485496605197988}
  - {fileID: 4234235067232280}
  m_BlendShapeWeights: []
  m_RootBone: {fileID: 4968511642078380}
  m_AABB:
    m_Center: {x: 0.00000011920929, y: 0.8836477, z: 0.022629485}
    m_Extent: {x: 1.4515892, y: 0.9803884, z: 0.3923989}
  m_DirtyAABB: 0
--- !u!1 &1283617822823620
GameObject:
  m_ObjectHideFlags: 0
  m_CorrespondingSourceObject: {fileID: 0}
  m_PrefabInstance: {fileID: 0}
  m_PrefabAsset: {fileID: 0}
  serializedVersion: 6
  m_Component:
  - component: {fileID: 4641557900079640}
  m_Layer: 0
  m_Name: IndexFinger_01 1
  m_TagString: Untagged
  m_Icon: {fileID: 0}
  m_NavMeshLayer: 0
  m_StaticEditorFlags: 0
  m_IsActive: 1
--- !u!4 &4641557900079640
Transform:
  m_ObjectHideFlags: 0
  m_CorrespondingSourceObject: {fileID: 0}
  m_PrefabInstance: {fileID: 0}
  m_PrefabAsset: {fileID: 0}
  m_GameObject: {fileID: 1283617822823620}
  m_LocalRotation: {x: -0.05360258, y: -0.37485918, z: -0.12035185, w: 0.9176725}
  m_LocalPosition: {x: 0.12075663, y: -0.04220975, z: 0.09842222}
  m_LocalScale: {x: 1, y: 1, z: 1}
  m_Children:
  - {fileID: 4450254054513082}
  m_Father: {fileID: 4537040476099648}
  m_RootOrder: 1
  m_LocalEulerAnglesHint: {x: 0, y: 0, z: 0}
--- !u!1 &1286132367064028
GameObject:
  m_ObjectHideFlags: 0
  m_CorrespondingSourceObject: {fileID: 0}
  m_PrefabInstance: {fileID: 0}
  m_PrefabAsset: {fileID: 0}
  serializedVersion: 6
  m_Component:
  - component: {fileID: 4634444341657240}
  m_Layer: 0
  m_Name: Thumb_03 1
  m_TagString: Untagged
  m_Icon: {fileID: 0}
  m_NavMeshLayer: 0
  m_StaticEditorFlags: 0
  m_IsActive: 1
--- !u!4 &4634444341657240
Transform:
  m_ObjectHideFlags: 0
  m_CorrespondingSourceObject: {fileID: 0}
  m_PrefabInstance: {fileID: 0}
  m_PrefabAsset: {fileID: 0}
  m_GameObject: {fileID: 1286132367064028}
  m_LocalRotation: {x: -0.04663384, y: -0.14921467, z: -0.29463205, w: 0.94273657}
  m_LocalPosition: {x: 0.09227324, y: 0.0000074613017, z: -0.000000493297}
  m_LocalScale: {x: 1, y: 1, z: 1}
  m_Children: []
  m_Father: {fileID: 4631429041712160}
  m_RootOrder: 0
  m_LocalEulerAnglesHint: {x: 0, y: 0, z: 0}
--- !u!1 &1313458518955254
GameObject:
  m_ObjectHideFlags: 0
  m_CorrespondingSourceObject: {fileID: 0}
  m_PrefabInstance: {fileID: 0}
  m_PrefabAsset: {fileID: 0}
  serializedVersion: 6
  m_Component:
  - component: {fileID: 4788085560962488}
  m_Layer: 0
  m_Name: Eyebrows
  m_TagString: Untagged
  m_Icon: {fileID: 0}
  m_NavMeshLayer: 0
  m_StaticEditorFlags: 0
  m_IsActive: 1
--- !u!4 &4788085560962488
Transform:
  m_ObjectHideFlags: 0
  m_CorrespondingSourceObject: {fileID: 0}
  m_PrefabInstance: {fileID: 0}
  m_PrefabAsset: {fileID: 0}
  m_GameObject: {fileID: 1313458518955254}
  m_LocalRotation: {x: 0.8059357, y: -0.5920031, z: 1.1494296e-15, w: 9.202946e-16}
  m_LocalPosition: {x: -0.19999892, y: 0.02186953, z: 1.6423345e-10}
  m_LocalScale: {x: 1, y: 1, z: 1}
  m_Children: []
  m_Father: {fileID: 4184038513711718}
  m_RootOrder: 0
  m_LocalEulerAnglesHint: {x: 0, y: 0, z: 0}
--- !u!1 &1336387548459538
GameObject:
  m_ObjectHideFlags: 0
  m_CorrespondingSourceObject: {fileID: 0}
  m_PrefabInstance: {fileID: 0}
  m_PrefabAsset: {fileID: 0}
  serializedVersion: 6
  m_Component:
  - component: {fileID: 4331497315866350}
  m_Layer: 0
  m_Name: LowerLeg_L
  m_TagString: Untagged
  m_Icon: {fileID: 0}
  m_NavMeshLayer: 0
  m_StaticEditorFlags: 0
  m_IsActive: 1
--- !u!4 &4331497315866350
Transform:
  m_ObjectHideFlags: 0
  m_CorrespondingSourceObject: {fileID: 0}
  m_PrefabInstance: {fileID: 0}
  m_PrefabAsset: {fileID: 0}
  m_GameObject: {fileID: 1336387548459538}
  m_LocalRotation: {x: 7.4940054e-16, y: -9.2374025e-17, z: 3.0335977e-15, w: 1}
  m_LocalPosition: {x: -0.37842098, y: 1.02140514e-16, z: 2.2204459e-17}
  m_LocalScale: {x: 1, y: 1, z: 1}
  m_Children:
  - {fileID: 4344324633210848}
  m_Father: {fileID: 4450412268276666}
  m_RootOrder: 0
  m_LocalEulerAnglesHint: {x: 0, y: 0, z: 0}
--- !u!1 &1341764931475956
GameObject:
  m_ObjectHideFlags: 0
  m_CorrespondingSourceObject: {fileID: 0}
  m_PrefabInstance: {fileID: 0}
  m_PrefabAsset: {fileID: 0}
  serializedVersion: 6
  m_Component:
  - component: {fileID: 4355333947663426}
  - component: {fileID: 137089478863570410}
  m_Layer: 0
  m_Name: Character_ElementalGolem_01
  m_TagString: Untagged
  m_Icon: {fileID: 0}
  m_NavMeshLayer: 0
  m_StaticEditorFlags: 0
  m_IsActive: 0
--- !u!4 &4355333947663426
Transform:
  m_ObjectHideFlags: 0
  m_CorrespondingSourceObject: {fileID: 0}
  m_PrefabInstance: {fileID: 0}
  m_PrefabAsset: {fileID: 0}
  m_GameObject: {fileID: 1341764931475956}
  m_LocalRotation: {x: 0, y: -0, z: -0, w: 1}
  m_LocalPosition: {x: -0, y: 0, z: 0}
  m_LocalScale: {x: 1, y: 1, z: 1}
  m_Children: []
  m_Father: {fileID: 4692428868606460}
  m_RootOrder: 3
  m_LocalEulerAnglesHint: {x: 0, y: 0, z: 0}
--- !u!137 &137089478863570410
SkinnedMeshRenderer:
  m_ObjectHideFlags: 0
  m_CorrespondingSourceObject: {fileID: 0}
  m_PrefabInstance: {fileID: 0}
  m_PrefabAsset: {fileID: 0}
  m_GameObject: {fileID: 1341764931475956}
  m_Enabled: 1
  m_CastShadows: 1
  m_ReceiveShadows: 1
  m_DynamicOccludee: 1
  m_MotionVectors: 1
  m_LightProbeUsage: 1
  m_ReflectionProbeUsage: 1
  m_RayTracingMode: 3
  m_RayTraceProcedural: 0
  m_RenderingLayerMask: 1
  m_RendererPriority: 0
  m_Materials:
  - {fileID: 2100000, guid: caf01dd5152f3934d8079e6160aa3b1e, type: 2}
  m_StaticBatchInfo:
    firstSubMesh: 0
    subMeshCount: 0
  m_StaticBatchRoot: {fileID: 0}
  m_ProbeAnchor: {fileID: 0}
  m_LightProbeVolumeOverride: {fileID: 0}
  m_ScaleInLightmap: 1
  m_ReceiveGI: 1
  m_PreserveUVs: 0
  m_IgnoreNormalsForChartDetection: 0
  m_ImportantGI: 0
  m_StitchLightmapSeams: 1
  m_SelectedEditorRenderState: 3
  m_MinimumChartSize: 4
  m_AutoUVMaxDistance: 0.5
  m_AutoUVMaxAngle: 89
  m_LightmapParameters: {fileID: 0}
  m_SortingLayerID: 0
  m_SortingLayer: 0
  m_SortingOrder: 0
  serializedVersion: 2
  m_Quality: 0
  m_UpdateWhenOffscreen: 0
  m_SkinnedMotionVectors: 1
  m_Mesh: {fileID: 4300002, guid: a50cd06a0668d1a418d586a2944e3ed5, type: 3}
  m_Bones:
  - {fileID: 4968511642078380}
  - {fileID: 4553062615120186}
  - {fileID: 4427220032631432}
  - {fileID: 4434679777089430}
  - {fileID: 4165745833526514}
  - {fileID: 4970587296839388}
  - {fileID: 4184038513711718}
  - {fileID: 4788085560962488}
  - {fileID: 4152240246130716}
  - {fileID: 4445995347944722}
  - {fileID: 4663785794863714}
  - {fileID: 4119437400692876}
  - {fileID: 4683457810060112}
  - {fileID: 4381990739272310}
  - {fileID: 4636170757142470}
  - {fileID: 4704002114178304}
  - {fileID: 4780538011062674}
  - {fileID: 4717518706611268}
  - {fileID: 4115618638106878}
  - {fileID: 4630173923874424}
  - {fileID: 4487589127568162}
  - {fileID: 4572632112700390}
  - {fileID: 4747897470541468}
  - {fileID: 4766855428946090}
  - {fileID: 4349412276591670}
  - {fileID: 4000995580774292}
  - {fileID: 4786282514825284}
  - {fileID: 4537040476099648}
  - {fileID: 4830897669595748}
  - {fileID: 4631429041712160}
  - {fileID: 4634444341657240}
  - {fileID: 4641557900079640}
  - {fileID: 4450254054513082}
  - {fileID: 4124099871441192}
  - {fileID: 4271894998424936}
  - {fileID: 4569545920726756}
  - {fileID: 4589032205310254}
  - {fileID: 4007700562513260}
  - {fileID: 4507534520411542}
  - {fileID: 4450412268276666}
  - {fileID: 4331497315866350}
  - {fileID: 4344324633210848}
  - {fileID: 4342624019667014}
  - {fileID: 4602082797215118}
  - {fileID: 4753958972932600}
  - {fileID: 4447231994661010}
  - {fileID: 4280374109023288}
  - {fileID: 4485496605197988}
  - {fileID: 4234235067232280}
  m_BlendShapeWeights: []
  m_RootBone: {fileID: 4968511642078380}
  m_AABB:
    m_Center: {x: -0.00013124943, y: 0.87951803, z: 0.024444416}
    m_Extent: {x: 1.4533635, y: 0.99762917, z: 0.42728543}
  m_DirtyAABB: 0
--- !u!1 &1351610838860928
GameObject:
  m_ObjectHideFlags: 0
  m_CorrespondingSourceObject: {fileID: 0}
  m_PrefabInstance: {fileID: 0}
  m_PrefabAsset: {fileID: 0}
  serializedVersion: 6
  m_Component:
  - component: {fileID: 4381990739272310}
  m_Layer: 0
  m_Name: Thumb_01
  m_TagString: Untagged
  m_Icon: {fileID: 0}
  m_NavMeshLayer: 0
  m_StaticEditorFlags: 0
  m_IsActive: 1
--- !u!4 &4381990739272310
Transform:
  m_ObjectHideFlags: 0
  m_CorrespondingSourceObject: {fileID: 0}
  m_PrefabInstance: {fileID: 0}
  m_PrefabAsset: {fileID: 0}
  m_GameObject: {fileID: 1351610838860928}
  m_LocalRotation: {x: -0.044153277, y: -0.16584834, z: -0.012062183, w: 0.9850885}
  m_LocalPosition: {x: -0.08908812, y: -2.753353e-16, z: -4.4408918e-17}
  m_LocalScale: {x: 1, y: 1, z: 1}
  m_Children:
  - {fileID: 4636170757142470}
  m_Father: {fileID: 4683457810060112}
  m_RootOrder: 2
  m_LocalEulerAnglesHint: {x: 0, y: 0, z: 0}
--- !u!1 &1358886770589158
GameObject:
  m_ObjectHideFlags: 0
  m_CorrespondingSourceObject: {fileID: 0}
  m_PrefabInstance: {fileID: 0}
  m_PrefabAsset: {fileID: 0}
  serializedVersion: 6
  m_Component:
  - component: {fileID: 4485496605197988}
  m_Layer: 0
  m_Name: Ball_R
  m_TagString: Untagged
  m_Icon: {fileID: 0}
  m_NavMeshLayer: 0
  m_StaticEditorFlags: 0
  m_IsActive: 1
--- !u!4 &4485496605197988
Transform:
  m_ObjectHideFlags: 0
  m_CorrespondingSourceObject: {fileID: 0}
  m_PrefabInstance: {fileID: 0}
  m_PrefabAsset: {fileID: 0}
  m_GameObject: {fileID: 1358886770589158}
  m_LocalRotation: {x: 8.331955e-17, y: -2.5633195e-15, z: -0.23606834, w: 0.9717365}
  m_LocalPosition: {x: 0.12877613, y: -0.000000010258867, z: -1.0658141e-16}
  m_LocalScale: {x: 1, y: 1, z: 1}
  m_Children:
  - {fileID: 4234235067232280}
  m_Father: {fileID: 4280374109023288}
  m_RootOrder: 0
  m_LocalEulerAnglesHint: {x: 0, y: 0, z: 0}
--- !u!1 &1384075982596074
GameObject:
  m_ObjectHideFlags: 0
  m_CorrespondingSourceObject: {fileID: 0}
  m_PrefabInstance: {fileID: 0}
  m_PrefabAsset: {fileID: 0}
  serializedVersion: 6
  m_Component:
  - component: {fileID: 4786282514825284}
  m_Layer: 0
  m_Name: Elbow_R
  m_TagString: Untagged
  m_Icon: {fileID: 0}
  m_NavMeshLayer: 0
  m_StaticEditorFlags: 0
  m_IsActive: 1
--- !u!4 &4786282514825284
Transform:
  m_ObjectHideFlags: 0
  m_CorrespondingSourceObject: {fileID: 0}
  m_PrefabInstance: {fileID: 0}
  m_PrefabAsset: {fileID: 0}
  m_GameObject: {fileID: 1384075982596074}
  m_LocalRotation: {x: 0.000000012882286, y: 0.059024446, z: -7.6168255e-10, w: 0.99825656}
  m_LocalPosition: {x: 0.45683342, y: 8.5265126e-16, z: 0.00000003960579}
  m_LocalScale: {x: 1, y: 1, z: 1}
  m_Children:
  - {fileID: 4537040476099648}
  m_Father: {fileID: 4000995580774292}
  m_RootOrder: 0
  m_LocalEulerAnglesHint: {x: 0, y: 0, z: 0}
--- !u!1 &1392642853453638
GameObject:
  m_ObjectHideFlags: 0
  m_CorrespondingSourceObject: {fileID: 0}
  m_PrefabInstance: {fileID: 0}
  m_PrefabAsset: {fileID: 0}
  serializedVersion: 6
  m_Component:
  - component: {fileID: 4717518706611268}
  m_Layer: 0
  m_Name: IndexFinger_02
  m_TagString: Untagged
  m_Icon: {fileID: 0}
  m_NavMeshLayer: 0
  m_StaticEditorFlags: 0
  m_IsActive: 1
--- !u!4 &4717518706611268
Transform:
  m_ObjectHideFlags: 0
  m_CorrespondingSourceObject: {fileID: 0}
  m_PrefabInstance: {fileID: 0}
  m_PrefabAsset: {fileID: 0}
  m_GameObject: {fileID: 1392642853453638}
  m_LocalRotation: {x: -0.0015534081, y: -0.010691182, z: 0.13226552, w: 0.9911555}
  m_LocalPosition: {x: -0.0614739, y: -3.1441861e-19, z: 0}
  m_LocalScale: {x: 1, y: 1, z: 1}
  m_Children:
  - {fileID: 4115618638106878}
  m_Father: {fileID: 4780538011062674}
  m_RootOrder: 0
  m_LocalEulerAnglesHint: {x: 0, y: 0, z: 0}
--- !u!1 &1409715717658258
GameObject:
  m_ObjectHideFlags: 0
  m_CorrespondingSourceObject: {fileID: 0}
  m_PrefabInstance: {fileID: 0}
  m_PrefabAsset: {fileID: 0}
  serializedVersion: 6
  m_Component:
  - component: {fileID: 4630173923874424}
  m_Layer: 0
  m_Name: IndexFinger_04
  m_TagString: Untagged
  m_Icon: {fileID: 0}
  m_NavMeshLayer: 0
  m_StaticEditorFlags: 0
  m_IsActive: 1
--- !u!4 &4630173923874424
Transform:
  m_ObjectHideFlags: 0
  m_CorrespondingSourceObject: {fileID: 0}
  m_PrefabInstance: {fileID: 0}
  m_PrefabAsset: {fileID: 0}
  m_GameObject: {fileID: 1409715717658258}
  m_LocalRotation: {x: -0.00597543, y: -0.02776615, z: -0.21030392, w: 0.9772234}
  m_LocalPosition: {x: -0.059118144, y: -1.8624858e-16, z: -5.551115e-19}
  m_LocalScale: {x: 1, y: 1, z: 1}
  m_Children: []
  m_Father: {fileID: 4115618638106878}
  m_RootOrder: 0
  m_LocalEulerAnglesHint: {x: 0, y: 0, z: 0}
--- !u!1 &1413048798873132
GameObject:
  m_ObjectHideFlags: 0
  m_CorrespondingSourceObject: {fileID: 0}
  m_PrefabInstance: {fileID: 0}
  m_PrefabAsset: {fileID: 0}
  serializedVersion: 6
  m_Component:
  - component: {fileID: 4342624019667014}
  m_Layer: 0
  m_Name: Ball_L
  m_TagString: Untagged
  m_Icon: {fileID: 0}
  m_NavMeshLayer: 0
  m_StaticEditorFlags: 0
  m_IsActive: 1
--- !u!4 &4342624019667014
Transform:
  m_ObjectHideFlags: 0
  m_CorrespondingSourceObject: {fileID: 0}
  m_PrefabInstance: {fileID: 0}
  m_PrefabAsset: {fileID: 0}
  m_GameObject: {fileID: 1413048798873132}
  m_LocalRotation: {x: 1.196298e-15, y: -4.923229e-16, z: -0.23606834, w: 0.9717365}
  m_LocalPosition: {x: -0.12877615, y: 3.5527136e-17, z: 3.3500888e-17}
  m_LocalScale: {x: 1, y: 1, z: 1}
  m_Children:
  - {fileID: 4602082797215118}
  m_Father: {fileID: 4344324633210848}
  m_RootOrder: 0
  m_LocalEulerAnglesHint: {x: 0, y: 0, z: 0}
--- !u!1 &1424397132370762
GameObject:
  m_ObjectHideFlags: 0
  m_CorrespondingSourceObject: {fileID: 0}
  m_PrefabInstance: {fileID: 0}
  m_PrefabAsset: {fileID: 0}
  serializedVersion: 6
  m_Component:
  - component: {fileID: 4602082797215118}
  m_Layer: 0
  m_Name: Toes_L
  m_TagString: Untagged
  m_Icon: {fileID: 0}
  m_NavMeshLayer: 0
  m_StaticEditorFlags: 0
  m_IsActive: 1
--- !u!4 &4602082797215118
Transform:
  m_ObjectHideFlags: 0
  m_CorrespondingSourceObject: {fileID: 0}
  m_PrefabInstance: {fileID: 0}
  m_PrefabAsset: {fileID: 0}
  m_GameObject: {fileID: 1424397132370762}
  m_LocalRotation: {x: -1.36058335e-14, y: -0.7071068, z: -1.36058335e-14, w: 0.7071068}
  m_LocalPosition: {x: -0.0729575, y: 8.228515e-18, z: -1.3369588e-15}
  m_LocalScale: {x: 1, y: 1, z: 1}
  m_Children: []
  m_Father: {fileID: 4342624019667014}
  m_RootOrder: 0
  m_LocalEulerAnglesHint: {x: 0, y: 0, z: 0}
--- !u!1 &1450040917693698
GameObject:
  m_ObjectHideFlags: 0
  m_CorrespondingSourceObject: {fileID: 0}
  m_PrefabInstance: {fileID: 0}
  m_PrefabAsset: {fileID: 0}
  serializedVersion: 6
  m_Component:
  - component: {fileID: 4766855428946090}
  m_Layer: 0
  m_Name: Finger_04
  m_TagString: Untagged
  m_Icon: {fileID: 0}
  m_NavMeshLayer: 0
  m_StaticEditorFlags: 0
  m_IsActive: 1
--- !u!4 &4766855428946090
Transform:
  m_ObjectHideFlags: 0
  m_CorrespondingSourceObject: {fileID: 0}
  m_PrefabInstance: {fileID: 0}
  m_PrefabAsset: {fileID: 0}
  m_GameObject: {fileID: 1450040917693698}
  m_LocalRotation: {x: 0.021918453, y: 0.095466346, z: -0.22269535, w: 0.9699549}
  m_LocalPosition: {x: -0.047222238, y: -3.8635761e-16, z: -5.662137e-17}
  m_LocalScale: {x: 1, y: 1, z: 1}
  m_Children: []
  m_Father: {fileID: 4747897470541468}
  m_RootOrder: 0
  m_LocalEulerAnglesHint: {x: 0, y: 0, z: 0}
--- !u!1 &1456680831441982
GameObject:
  m_ObjectHideFlags: 0
  m_CorrespondingSourceObject: {fileID: 0}
  m_PrefabInstance: {fileID: 0}
  m_PrefabAsset: {fileID: 0}
  serializedVersion: 6
  m_Component:
  - component: {fileID: 4119437400692876}
  m_Layer: 0
  m_Name: Elbow_L
  m_TagString: Untagged
  m_Icon: {fileID: 0}
  m_NavMeshLayer: 0
  m_StaticEditorFlags: 0
  m_IsActive: 1
--- !u!4 &4119437400692876
Transform:
  m_ObjectHideFlags: 0
  m_CorrespondingSourceObject: {fileID: 0}
  m_PrefabInstance: {fileID: 0}
  m_PrefabAsset: {fileID: 0}
  m_GameObject: {fileID: 1456680831441982}
  m_LocalRotation: {x: -9.216485e-17, y: 0.059024446, z: 2.8739455e-15, w: 0.99825656}
  m_LocalPosition: {x: -0.4568335, y: -1.3457903e-16, z: 2.1094237e-16}
  m_LocalScale: {x: 1, y: 1, z: 1}
  m_Children:
  - {fileID: 4683457810060112}
  m_Father: {fileID: 4663785794863714}
  m_RootOrder: 0
  m_LocalEulerAnglesHint: {x: 0, y: 0, z: 0}
--- !u!1 &1523692851155610
GameObject:
  m_ObjectHideFlags: 0
  m_CorrespondingSourceObject: {fileID: 0}
  m_PrefabInstance: {fileID: 0}
  m_PrefabAsset: {fileID: 0}
  serializedVersion: 6
  m_Component:
  - component: {fileID: 4152240246130716}
  m_Layer: 0
  m_Name: Eyes
  m_TagString: Untagged
  m_Icon: {fileID: 0}
  m_NavMeshLayer: 0
  m_StaticEditorFlags: 0
  m_IsActive: 1
--- !u!4 &4152240246130716
Transform:
  m_ObjectHideFlags: 0
  m_CorrespondingSourceObject: {fileID: 0}
  m_PrefabInstance: {fileID: 0}
  m_PrefabAsset: {fileID: 0}
  m_GameObject: {fileID: 1523692851155610}
  m_LocalRotation: {x: 0.15786923, y: -0.6892585, z: 0.15786923, w: 0.6892585}
  m_LocalPosition: {x: -0.18457133, y: 0.010586951, z: 7.950428e-11}
  m_LocalScale: {x: 1, y: 1, z: 1}
  m_Children: []
  m_Father: {fileID: 4184038513711718}
  m_RootOrder: 1
  m_LocalEulerAnglesHint: {x: 0, y: 0, z: 0}
--- !u!1 &1552369483161556
GameObject:
  m_ObjectHideFlags: 0
  m_CorrespondingSourceObject: {fileID: 0}
  m_PrefabInstance: {fileID: 0}
  m_PrefabAsset: {fileID: 0}
  serializedVersion: 6
  m_Component:
  - component: {fileID: 4117656802366982}
  - component: {fileID: 137094970406261254}
  m_Layer: 0
  m_Name: Character_Big_Ork_01
  m_TagString: Untagged
  m_Icon: {fileID: 0}
  m_NavMeshLayer: 0
  m_StaticEditorFlags: 0
  m_IsActive: 0
--- !u!4 &4117656802366982
Transform:
  m_ObjectHideFlags: 0
  m_CorrespondingSourceObject: {fileID: 0}
  m_PrefabInstance: {fileID: 0}
  m_PrefabAsset: {fileID: 0}
  m_GameObject: {fileID: 1552369483161556}
  m_LocalRotation: {x: 0, y: -0, z: -0, w: 1}
  m_LocalPosition: {x: -0, y: 0, z: 0}
  m_LocalScale: {x: 1, y: 1, z: 1}
  m_Children: []
  m_Father: {fileID: 4692428868606460}
  m_RootOrder: 1
  m_LocalEulerAnglesHint: {x: 0, y: 0, z: 0}
--- !u!137 &137094970406261254
SkinnedMeshRenderer:
  m_ObjectHideFlags: 0
  m_CorrespondingSourceObject: {fileID: 0}
  m_PrefabInstance: {fileID: 0}
  m_PrefabAsset: {fileID: 0}
  m_GameObject: {fileID: 1552369483161556}
  m_Enabled: 1
  m_CastShadows: 1
  m_ReceiveShadows: 1
  m_DynamicOccludee: 1
  m_MotionVectors: 1
  m_LightProbeUsage: 1
  m_ReflectionProbeUsage: 1
  m_RayTracingMode: 3
  m_RayTraceProcedural: 0
  m_RenderingLayerMask: 1
  m_RendererPriority: 0
  m_Materials:
  - {fileID: 2100000, guid: caf01dd5152f3934d8079e6160aa3b1e, type: 2}
  m_StaticBatchInfo:
    firstSubMesh: 0
    subMeshCount: 0
  m_StaticBatchRoot: {fileID: 0}
  m_ProbeAnchor: {fileID: 0}
  m_LightProbeVolumeOverride: {fileID: 0}
  m_ScaleInLightmap: 1
  m_ReceiveGI: 1
  m_PreserveUVs: 0
  m_IgnoreNormalsForChartDetection: 0
  m_ImportantGI: 0
  m_StitchLightmapSeams: 1
  m_SelectedEditorRenderState: 3
  m_MinimumChartSize: 4
  m_AutoUVMaxDistance: 0.5
  m_AutoUVMaxAngle: 89
  m_LightmapParameters: {fileID: 0}
  m_SortingLayerID: 0
  m_SortingLayer: 0
  m_SortingOrder: 0
  serializedVersion: 2
  m_Quality: 0
  m_UpdateWhenOffscreen: 0
  m_SkinnedMotionVectors: 1
  m_Mesh: {fileID: 4300010, guid: a50cd06a0668d1a418d586a2944e3ed5, type: 3}
  m_Bones:
  - {fileID: 4968511642078380}
  - {fileID: 4553062615120186}
  - {fileID: 4427220032631432}
  - {fileID: 4434679777089430}
  - {fileID: 4165745833526514}
  - {fileID: 4970587296839388}
  - {fileID: 4184038513711718}
  - {fileID: 4788085560962488}
  - {fileID: 4152240246130716}
  - {fileID: 4445995347944722}
  - {fileID: 4663785794863714}
  - {fileID: 4119437400692876}
  - {fileID: 4683457810060112}
  - {fileID: 4381990739272310}
  - {fileID: 4636170757142470}
  - {fileID: 4704002114178304}
  - {fileID: 4780538011062674}
  - {fileID: 4717518706611268}
  - {fileID: 4115618638106878}
  - {fileID: 4630173923874424}
  - {fileID: 4487589127568162}
  - {fileID: 4572632112700390}
  - {fileID: 4747897470541468}
  - {fileID: 4766855428946090}
  - {fileID: 4349412276591670}
  - {fileID: 4000995580774292}
  - {fileID: 4786282514825284}
  - {fileID: 4537040476099648}
  - {fileID: 4830897669595748}
  - {fileID: 4631429041712160}
  - {fileID: 4634444341657240}
  - {fileID: 4641557900079640}
  - {fileID: 4450254054513082}
  - {fileID: 4124099871441192}
  - {fileID: 4271894998424936}
  - {fileID: 4569545920726756}
  - {fileID: 4589032205310254}
  - {fileID: 4007700562513260}
  - {fileID: 4507534520411542}
  - {fileID: 4450412268276666}
  - {fileID: 4331497315866350}
  - {fileID: 4344324633210848}
  - {fileID: 4342624019667014}
  - {fileID: 4602082797215118}
  - {fileID: 4753958972932600}
  - {fileID: 4447231994661010}
  - {fileID: 4280374109023288}
  - {fileID: 4485496605197988}
  - {fileID: 4234235067232280}
  m_BlendShapeWeights: []
  m_RootBone: {fileID: 4968511642078380}
  m_AABB:
    m_Center: {x: -0.0093589425, y: 0.9434749, z: 0.013898134}
    m_Extent: {x: 1.4619842, y: 1.0403415, z: 0.4199332}
  m_DirtyAABB: 0
--- !u!1 &1554062041243788
GameObject:
  m_ObjectHideFlags: 0
  m_CorrespondingSourceObject: {fileID: 0}
  m_PrefabInstance: {fileID: 0}
  m_PrefabAsset: {fileID: 0}
  serializedVersion: 6
  m_Component:
  - component: {fileID: 4115618638106878}
  m_Layer: 0
  m_Name: IndexFinger_03
  m_TagString: Untagged
  m_Icon: {fileID: 0}
  m_NavMeshLayer: 0
  m_StaticEditorFlags: 0
  m_IsActive: 1
--- !u!4 &4115618638106878
Transform:
  m_ObjectHideFlags: 0
  m_CorrespondingSourceObject: {fileID: 0}
  m_PrefabInstance: {fileID: 0}
  m_PrefabAsset: {fileID: 0}
  m_GameObject: {fileID: 1554062041243788}
  m_LocalRotation: {x: -0.009142615, y: -0.025011526, z: 0.07340528, w: 0.99694663}
  m_LocalPosition: {x: -0.057940163, y: 1.8041123e-18, z: -2.5535128e-17}
  m_LocalScale: {x: 1, y: 1, z: 1}
  m_Children:
  - {fileID: 4630173923874424}
  m_Father: {fileID: 4717518706611268}
  m_RootOrder: 0
  m_LocalEulerAnglesHint: {x: 0, y: 0, z: 0}
--- !u!1 &1657530356791846
GameObject:
  m_ObjectHideFlags: 0
  m_CorrespondingSourceObject: {fileID: 0}
  m_PrefabInstance: {fileID: 0}
  m_PrefabAsset: {fileID: 0}
  serializedVersion: 6
  m_Component:
  - component: {fileID: 4234235067232280}
  m_Layer: 0
  m_Name: Toes_R
  m_TagString: Untagged
  m_Icon: {fileID: 0}
  m_NavMeshLayer: 0
  m_StaticEditorFlags: 0
  m_IsActive: 1
--- !u!4 &4234235067232280
Transform:
  m_ObjectHideFlags: 0
  m_CorrespondingSourceObject: {fileID: 0}
  m_PrefabInstance: {fileID: 0}
  m_PrefabAsset: {fileID: 0}
  m_GameObject: {fileID: 1657530356791846}
  m_LocalRotation: {x: -3.31909e-14, y: -0.7071068, z: -3.31909e-14, w: 0.7071068}
  m_LocalPosition: {x: 0.0729575, y: -4.0909496e-14, z: 3.5527136e-17}
  m_LocalScale: {x: 1, y: 1, z: 1}
  m_Children: []
  m_Father: {fileID: 4485496605197988}
  m_RootOrder: 0
  m_LocalEulerAnglesHint: {x: 0, y: 0, z: 0}
--- !u!1 &1660410961648180
GameObject:
  m_ObjectHideFlags: 0
  m_CorrespondingSourceObject: {fileID: 0}
  m_PrefabInstance: {fileID: 0}
  m_PrefabAsset: {fileID: 0}
  serializedVersion: 6
  m_Component:
  - component: {fileID: 4636264170680292}
  - component: {fileID: 137509710926368920}
  m_Layer: 0
  m_Name: Character_RedDemon_01
  m_TagString: Untagged
  m_Icon: {fileID: 0}
  m_NavMeshLayer: 0
  m_StaticEditorFlags: 0
  m_IsActive: 0
--- !u!4 &4636264170680292
Transform:
  m_ObjectHideFlags: 0
  m_CorrespondingSourceObject: {fileID: 0}
  m_PrefabInstance: {fileID: 0}
  m_PrefabAsset: {fileID: 0}
  m_GameObject: {fileID: 1660410961648180}
  m_LocalRotation: {x: 0, y: -0, z: -0, w: 1}
  m_LocalPosition: {x: -0, y: 0, z: 0}
  m_LocalScale: {x: 1, y: 1, z: 1}
  m_Children: []
  m_Father: {fileID: 4692428868606460}
  m_RootOrder: 8
  m_LocalEulerAnglesHint: {x: 0, y: 0, z: 0}
--- !u!137 &137509710926368920
SkinnedMeshRenderer:
  m_ObjectHideFlags: 0
  m_CorrespondingSourceObject: {fileID: 0}
  m_PrefabInstance: {fileID: 0}
  m_PrefabAsset: {fileID: 0}
  m_GameObject: {fileID: 1660410961648180}
  m_Enabled: 1
  m_CastShadows: 1
  m_ReceiveShadows: 1
  m_DynamicOccludee: 1
  m_MotionVectors: 1
  m_LightProbeUsage: 1
  m_ReflectionProbeUsage: 1
  m_RayTracingMode: 3
  m_RayTraceProcedural: 0
  m_RenderingLayerMask: 1
  m_RendererPriority: 0
  m_Materials:
  - {fileID: 2100000, guid: caf01dd5152f3934d8079e6160aa3b1e, type: 2}
  m_StaticBatchInfo:
    firstSubMesh: 0
    subMeshCount: 0
  m_StaticBatchRoot: {fileID: 0}
  m_ProbeAnchor: {fileID: 0}
  m_LightProbeVolumeOverride: {fileID: 0}
  m_ScaleInLightmap: 1
  m_ReceiveGI: 1
  m_PreserveUVs: 0
  m_IgnoreNormalsForChartDetection: 0
  m_ImportantGI: 0
  m_StitchLightmapSeams: 1
  m_SelectedEditorRenderState: 3
  m_MinimumChartSize: 4
  m_AutoUVMaxDistance: 0.5
  m_AutoUVMaxAngle: 89
  m_LightmapParameters: {fileID: 0}
  m_SortingLayerID: 0
  m_SortingLayer: 0
  m_SortingOrder: 0
  serializedVersion: 2
  m_Quality: 0
  m_UpdateWhenOffscreen: 0
  m_SkinnedMotionVectors: 1
  m_Mesh: {fileID: 4300008, guid: a50cd06a0668d1a418d586a2944e3ed5, type: 3}
  m_Bones:
  - {fileID: 4968511642078380}
  - {fileID: 4553062615120186}
  - {fileID: 4427220032631432}
  - {fileID: 4434679777089430}
  - {fileID: 4165745833526514}
  - {fileID: 4970587296839388}
  - {fileID: 4184038513711718}
  - {fileID: 4788085560962488}
  - {fileID: 4152240246130716}
  - {fileID: 4445995347944722}
  - {fileID: 4663785794863714}
  - {fileID: 4119437400692876}
  - {fileID: 4683457810060112}
  - {fileID: 4381990739272310}
  - {fileID: 4636170757142470}
  - {fileID: 4704002114178304}
  - {fileID: 4780538011062674}
  - {fileID: 4717518706611268}
  - {fileID: 4115618638106878}
  - {fileID: 4630173923874424}
  - {fileID: 4487589127568162}
  - {fileID: 4572632112700390}
  - {fileID: 4747897470541468}
  - {fileID: 4766855428946090}
  - {fileID: 4349412276591670}
  - {fileID: 4000995580774292}
  - {fileID: 4786282514825284}
  - {fileID: 4537040476099648}
  - {fileID: 4830897669595748}
  - {fileID: 4631429041712160}
  - {fileID: 4634444341657240}
  - {fileID: 4641557900079640}
  - {fileID: 4450254054513082}
  - {fileID: 4124099871441192}
  - {fileID: 4271894998424936}
  - {fileID: 4569545920726756}
  - {fileID: 4589032205310254}
  - {fileID: 4007700562513260}
  - {fileID: 4507534520411542}
  - {fileID: 4450412268276666}
  - {fileID: 4331497315866350}
  - {fileID: 4344324633210848}
  - {fileID: 4342624019667014}
  - {fileID: 4602082797215118}
  - {fileID: 4753958972932600}
  - {fileID: 4447231994661010}
  - {fileID: 4280374109023288}
  - {fileID: 4485496605197988}
  - {fileID: 4234235067232280}
  m_BlendShapeWeights: []
  m_RootBone: {fileID: 4968511642078380}
  m_AABB:
    m_Center: {x: 0.00000011920929, y: 0.99551123, z: 0.04906304}
    m_Extent: {x: 1.4562893, y: 1.0842607, z: 0.40284848}
  m_DirtyAABB: 0
--- !u!1 &1664919250062634
GameObject:
  m_ObjectHideFlags: 0
  m_CorrespondingSourceObject: {fileID: 0}
  m_PrefabInstance: {fileID: 0}
  m_PrefabAsset: {fileID: 0}
  serializedVersion: 6
  m_Component:
  - component: {fileID: 4569545920726756}
  m_Layer: 0
  m_Name: Finger_01 1
  m_TagString: Untagged
  m_Icon: {fileID: 0}
  m_NavMeshLayer: 0
  m_StaticEditorFlags: 0
  m_IsActive: 1
--- !u!4 &4569545920726756
Transform:
  m_ObjectHideFlags: 0
  m_CorrespondingSourceObject: {fileID: 0}
  m_PrefabInstance: {fileID: 0}
  m_PrefabAsset: {fileID: 0}
  m_GameObject: {fileID: 1664919250062634}
  m_LocalRotation: {x: -0.10106448, y: -0.46700662, z: -0.052073725, w: 0.87691456}
  m_LocalPosition: {x: 0.051991317, y: -0.012054317, z: 0.14853004}
  m_LocalScale: {x: 1, y: 1, z: 1}
  m_Children:
  - {fileID: 4589032205310254}
  m_Father: {fileID: 4537040476099648}
  m_RootOrder: 0
  m_LocalEulerAnglesHint: {x: 0, y: 0, z: 0}
--- !u!1 &1670173618471382
GameObject:
  m_ObjectHideFlags: 0
  m_CorrespondingSourceObject: {fileID: 0}
  m_PrefabInstance: {fileID: 0}
  m_PrefabAsset: {fileID: 0}
  serializedVersion: 6
  m_Component:
  - component: {fileID: 4663785794863714}
  m_Layer: 0
  m_Name: Shoulder_L
  m_TagString: Untagged
  m_Icon: {fileID: 0}
  m_NavMeshLayer: 0
  m_StaticEditorFlags: 0
  m_IsActive: 1
--- !u!4 &4663785794863714
Transform:
  m_ObjectHideFlags: 0
  m_CorrespondingSourceObject: {fileID: 0}
  m_PrefabInstance: {fileID: 0}
  m_PrefabAsset: {fileID: 0}
  m_GameObject: {fileID: 1670173618471382}
  m_LocalRotation: {x: 0.002854416, y: 0.05185208, z: -0.05489182, w: 0.997141}
  m_LocalPosition: {x: -0.16134125, y: -4.7947756e-17, z: -5.7731595e-17}
  m_LocalScale: {x: 1, y: 1, z: 1}
  m_Children:
  - {fileID: 4119437400692876}
  m_Father: {fileID: 4445995347944722}
  m_RootOrder: 0
  m_LocalEulerAnglesHint: {x: 0, y: 0, z: 0}
--- !u!1 &1680976465371778
GameObject:
  m_ObjectHideFlags: 0
  m_CorrespondingSourceObject: {fileID: 0}
  m_PrefabInstance: {fileID: 0}
  m_PrefabAsset: {fileID: 0}
  serializedVersion: 6
  m_Component:
  - component: {fileID: 4165745833526514}
  m_Layer: 0
  m_Name: Spine_03
  m_TagString: Untagged
  m_Icon: {fileID: 0}
  m_NavMeshLayer: 0
  m_StaticEditorFlags: 0
  m_IsActive: 1
--- !u!4 &4165745833526514
Transform:
  m_ObjectHideFlags: 0
  m_CorrespondingSourceObject: {fileID: 0}
  m_PrefabInstance: {fileID: 0}
  m_PrefabAsset: {fileID: 0}
  m_GameObject: {fileID: 1680976465371778}
  m_LocalRotation: {x: 0.97811157, y: -0.20808119, z: 8.1877877e-10, w: 1.7418517e-10}
  m_LocalPosition: {x: -0.17903724, y: 2.5588683e-17, z: -5.236993e-15}
  m_LocalScale: {x: 1, y: 1, z: 1}
  m_Children:
  - {fileID: 4445995347944722}
  - {fileID: 4349412276591670}
  - {fileID: 4970587296839388}
  m_Father: {fileID: 4434679777089430}
  m_RootOrder: 0
  m_LocalEulerAnglesHint: {x: 0, y: 0, z: 0}
--- !u!1 &1682556511560202
GameObject:
  m_ObjectHideFlags: 0
  m_CorrespondingSourceObject: {fileID: 0}
  m_PrefabInstance: {fileID: 0}
  m_PrefabAsset: {fileID: 0}
  serializedVersion: 6
  m_Component:
  - component: {fileID: 4427220032631432}
  m_Layer: 0
  m_Name: Spine_01
  m_TagString: Untagged
  m_Icon: {fileID: 0}
  m_NavMeshLayer: 0
  m_StaticEditorFlags: 0
  m_IsActive: 1
--- !u!4 &4427220032631432
Transform:
  m_ObjectHideFlags: 0
  m_CorrespondingSourceObject: {fileID: 0}
  m_PrefabInstance: {fileID: 0}
  m_PrefabAsset: {fileID: 0}
  m_GameObject: {fileID: 1682556511560202}
  m_LocalRotation: {x: -0.39460626, y: 0.58675885, z: -0.5664237, w: 0.42327797}
  m_LocalPosition: {x: 0.03397978, y: 0.0969857, z: -0.015528781}
  m_LocalScale: {x: 1, y: 1, z: 1}
  m_Children:
  - {fileID: 4434679777089430}
  m_Father: {fileID: 4553062615120186}
  m_RootOrder: 0
  m_LocalEulerAnglesHint: {x: 0, y: 0, z: 0}
--- !u!1 &1712618142784700
GameObject:
  m_ObjectHideFlags: 0
  m_CorrespondingSourceObject: {fileID: 0}
  m_PrefabInstance: {fileID: 0}
  m_PrefabAsset: {fileID: 0}
  serializedVersion: 6
  m_Component:
  - component: {fileID: 4124099871441192}
  m_Layer: 0
  m_Name: IndexFinger_03 1
  m_TagString: Untagged
  m_Icon: {fileID: 0}
  m_NavMeshLayer: 0
  m_StaticEditorFlags: 0
  m_IsActive: 1
--- !u!4 &4124099871441192
Transform:
  m_ObjectHideFlags: 0
  m_CorrespondingSourceObject: {fileID: 0}
  m_PrefabInstance: {fileID: 0}
  m_PrefabAsset: {fileID: 0}
  m_GameObject: {fileID: 1712618142784700}
  m_LocalRotation: {x: -0.009142615, y: -0.025011526, z: 0.07340528, w: 0.99694663}
  m_LocalPosition: {x: 0.05794711, y: 0.0000061344235, z: 0.00000056286797}
  m_LocalScale: {x: 1, y: 1, z: 1}
  m_Children:
  - {fileID: 4271894998424936}
  m_Father: {fileID: 4450254054513082}
  m_RootOrder: 0
  m_LocalEulerAnglesHint: {x: 0, y: 0, z: 0}
--- !u!1 &1745612225141962
GameObject:
  m_ObjectHideFlags: 0
  m_CorrespondingSourceObject: {fileID: 0}
  m_PrefabInstance: {fileID: 0}
  m_PrefabAsset: {fileID: 0}
  serializedVersion: 6
  m_Component:
  - component: {fileID: 4753958972932600}
  m_Layer: 0
  m_Name: UpperLeg_R
  m_TagString: Untagged
  m_Icon: {fileID: 0}
  m_NavMeshLayer: 0
  m_StaticEditorFlags: 0
  m_IsActive: 1
--- !u!4 &4753958972932600
Transform:
  m_ObjectHideFlags: 0
  m_CorrespondingSourceObject: {fileID: 0}
  m_PrefabInstance: {fileID: 0}
  m_PrefabAsset: {fileID: 0}
  m_GameObject: {fileID: 1745612225141962}
  m_LocalRotation: {x: -0.5862797, y: 0.73465014, z: 0.28922027, w: -0.18143037}
  m_LocalPosition: {x: 0.102061786, y: -0.08152349, z: -1.1102199e-17}
  m_LocalScale: {x: 1, y: 1, z: 1}
  m_Children:
  - {fileID: 4447231994661010}
  m_Father: {fileID: 4553062615120186}
  m_RootOrder: 2
  m_LocalEulerAnglesHint: {x: 0, y: 0, z: 0}
--- !u!1 &1760197513268418
GameObject:
  m_ObjectHideFlags: 0
  m_CorrespondingSourceObject: {fileID: 0}
  m_PrefabInstance: {fileID: 0}
  m_PrefabAsset: {fileID: 0}
  serializedVersion: 6
  m_Component:
  - component: {fileID: 4780538011062674}
  m_Layer: 0
  m_Name: IndexFinger_01
  m_TagString: Untagged
  m_Icon: {fileID: 0}
  m_NavMeshLayer: 0
  m_StaticEditorFlags: 0
  m_IsActive: 1
--- !u!4 &4780538011062674
Transform:
  m_ObjectHideFlags: 0
  m_CorrespondingSourceObject: {fileID: 0}
  m_PrefabInstance: {fileID: 0}
  m_PrefabAsset: {fileID: 0}
  m_GameObject: {fileID: 1760197513268418}
  m_LocalRotation: {x: -0.05360258, y: -0.37485918, z: -0.12035185, w: 0.9176725}
  m_LocalPosition: {x: -0.120755404, y: 0.042213865, z: -0.0984221}
  m_LocalScale: {x: 1, y: 1, z: 1}
  m_Children:
  - {fileID: 4717518706611268}
  m_Father: {fileID: 4683457810060112}
  m_RootOrder: 1
  m_LocalEulerAnglesHint: {x: 0, y: 0, z: 0}
--- !u!1 &1770217730696952
GameObject:
  m_ObjectHideFlags: 0
  m_CorrespondingSourceObject: {fileID: 0}
  m_PrefabInstance: {fileID: 0}
  m_PrefabAsset: {fileID: 0}
  serializedVersion: 6
  m_Component:
  - component: {fileID: 4683457810060112}
  m_Layer: 0
  m_Name: Hand_L
  m_TagString: Untagged
  m_Icon: {fileID: 0}
  m_NavMeshLayer: 0
  m_StaticEditorFlags: 0
  m_IsActive: 1
--- !u!4 &4683457810060112
Transform:
  m_ObjectHideFlags: 0
  m_CorrespondingSourceObject: {fileID: 0}
  m_PrefabInstance: {fileID: 0}
  m_PrefabAsset: {fileID: 0}
  m_GameObject: {fileID: 1770217730696952}
  m_LocalRotation: {x: 0.05427486, y: 0.395974, z: 0.124479234, w: 0.9081651}
  m_LocalPosition: {x: -0.3286817, y: -5.684342e-16, z: 1.4654943e-16}
  m_LocalScale: {x: 1, y: 1, z: 1}
  m_Children:
  - {fileID: 4487589127568162}
  - {fileID: 4780538011062674}
  - {fileID: 4381990739272310}
  m_Father: {fileID: 4119437400692876}
  m_RootOrder: 0
  m_LocalEulerAnglesHint: {x: 0, y: 0, z: 0}
--- !u!1 &1773764881647730
GameObject:
  m_ObjectHideFlags: 0
  m_CorrespondingSourceObject: {fileID: 0}
  m_PrefabInstance: {fileID: 0}
  m_PrefabAsset: {fileID: 0}
  serializedVersion: 6
  m_Component:
  - component: {fileID: 4572632112700390}
  m_Layer: 0
  m_Name: Finger_02
  m_TagString: Untagged
  m_Icon: {fileID: 0}
  m_NavMeshLayer: 0
  m_StaticEditorFlags: 0
  m_IsActive: 1
--- !u!4 &4572632112700390
Transform:
  m_ObjectHideFlags: 0
  m_CorrespondingSourceObject: {fileID: 0}
  m_PrefabInstance: {fileID: 0}
  m_PrefabAsset: {fileID: 0}
  m_GameObject: {fileID: 1773764881647730}
  m_LocalRotation: {x: 0.0035674032, y: 0.019343419, z: 0.028556598, w: 0.99939865}
  m_LocalPosition: {x: -0.0641512, y: 1.8214596e-19, z: 2.220446e-18}
  m_LocalScale: {x: 1, y: 1, z: 1}
  m_Children:
  - {fileID: 4747897470541468}
  m_Father: {fileID: 4487589127568162}
  m_RootOrder: 0
  m_LocalEulerAnglesHint: {x: 0, y: 0, z: 0}
--- !u!1 &1798199166925560
GameObject:
  m_ObjectHideFlags: 0
  m_CorrespondingSourceObject: {fileID: 0}
  m_PrefabInstance: {fileID: 0}
  m_PrefabAsset: {fileID: 0}
  serializedVersion: 6
  m_Component:
  - component: {fileID: 4968511642078380}
  m_Layer: 0
  m_Name: Root
  m_TagString: Untagged
  m_Icon: {fileID: 0}
  m_NavMeshLayer: 0
  m_StaticEditorFlags: 0
  m_IsActive: 1
--- !u!4 &4968511642078380
Transform:
  m_ObjectHideFlags: 0
  m_CorrespondingSourceObject: {fileID: 0}
  m_PrefabInstance: {fileID: 0}
  m_PrefabAsset: {fileID: 0}
  m_GameObject: {fileID: 1798199166925560}
  m_LocalRotation: {x: 0, y: -0, z: -0, w: 1}
  m_LocalPosition: {x: -0, y: 0, z: 0}
  m_LocalScale: {x: 1, y: 1, z: 1}
  m_Children:
  - {fileID: 4553062615120186}
  m_Father: {fileID: 4692428868606460}
  m_RootOrder: 11
  m_LocalEulerAnglesHint: {x: 0, y: 0, z: 0}
--- !u!1 &1809668898295726
GameObject:
  m_ObjectHideFlags: 0
  m_CorrespondingSourceObject: {fileID: 0}
  m_PrefabInstance: {fileID: 0}
  m_PrefabAsset: {fileID: 0}
  serializedVersion: 6
  m_Component:
  - component: {fileID: 4280374109023288}
  m_Layer: 0
  m_Name: Ankle_R
  m_TagString: Untagged
  m_Icon: {fileID: 0}
  m_NavMeshLayer: 0
  m_StaticEditorFlags: 0
  m_IsActive: 1
--- !u!4 &4280374109023288
Transform:
  m_ObjectHideFlags: 0
  m_CorrespondingSourceObject: {fileID: 0}
  m_PrefabInstance: {fileID: 0}
  m_PrefabAsset: {fileID: 0}
  m_GameObject: {fileID: 1809668898295726}
  m_LocalRotation: {x: 0.7458738, y: 0.51436746, z: -0.19933209, w: 0.37331632}
  m_LocalPosition: {x: 0.37842116, y: 0.0000002667152, z: 0.00000034490833}
  m_LocalScale: {x: 1, y: 1, z: 1}
  m_Children:
  - {fileID: 4485496605197988}
  m_Father: {fileID: 4447231994661010}
  m_RootOrder: 0
  m_LocalEulerAnglesHint: {x: 0, y: 0, z: 0}
--- !u!1 &1815747264463022
GameObject:
  m_ObjectHideFlags: 0
  m_CorrespondingSourceObject: {fileID: 0}
  m_PrefabInstance: {fileID: 0}
  m_PrefabAsset: {fileID: 0}
  serializedVersion: 6
  m_Component:
  - component: {fileID: 4000995580774292}
  m_Layer: 0
  m_Name: Shoulder_R
  m_TagString: Untagged
  m_Icon: {fileID: 0}
  m_NavMeshLayer: 0
  m_StaticEditorFlags: 0
  m_IsActive: 1
--- !u!4 &4000995580774292
Transform:
  m_ObjectHideFlags: 0
  m_CorrespondingSourceObject: {fileID: 0}
  m_PrefabInstance: {fileID: 0}
  m_PrefabAsset: {fileID: 0}
  m_GameObject: {fileID: 1815747264463022}
  m_LocalRotation: {x: 0.002854416, y: 0.05185208, z: -0.05489182, w: 0.997141}
  m_LocalPosition: {x: 0.16134152, y: 0.00000022487666, z: -0.00000006441897}
  m_LocalScale: {x: 1, y: 1, z: 1}
  m_Children:
  - {fileID: 4786282514825284}
  m_Father: {fileID: 4349412276591670}
  m_RootOrder: 0
  m_LocalEulerAnglesHint: {x: 0, y: 0, z: 0}
--- !u!1 &1820919466449660
GameObject:
  m_ObjectHideFlags: 0
  m_CorrespondingSourceObject: {fileID: 0}
  m_PrefabInstance: {fileID: 0}
  m_PrefabAsset: {fileID: 0}
  serializedVersion: 6
  m_Component:
  - component: {fileID: 4692428868606460}
  - component: {fileID: 95439086998023792}
  - component: {fileID: -6475133355537541190}
  m_Layer: 0
  m_Name: Character_BR_Dwarf_01
  m_TagString: Untagged
  m_Icon: {fileID: 0}
  m_NavMeshLayer: 0
  m_StaticEditorFlags: 0
  m_IsActive: 1
--- !u!4 &4692428868606460
Transform:
  m_ObjectHideFlags: 0
  m_CorrespondingSourceObject: {fileID: 0}
  m_PrefabInstance: {fileID: 0}
  m_PrefabAsset: {fileID: 0}
  m_GameObject: {fileID: 1820919466449660}
  m_LocalRotation: {x: 0, y: 0, z: 0, w: 1}
  m_LocalPosition: {x: 0, y: 0, z: 0}
  m_LocalScale: {x: 0.75, y: 0.75, z: 0.75}
  m_Children:
  - {fileID: 4782599394604862}
  - {fileID: 4117656802366982}
  - {fileID: 4978503727836054}
  - {fileID: 4355333947663426}
  - {fileID: 4328533430279788}
  - {fileID: 4110770874427970}
  - {fileID: 4147102940230390}
  - {fileID: 4552150889869348}
  - {fileID: 4636264170680292}
  - {fileID: 4065333536566620}
  - {fileID: 4587245446612044}
  - {fileID: 4968511642078380}
  m_Father: {fileID: 0}
  m_RootOrder: 0
  m_LocalEulerAnglesHint: {x: 0, y: 0, z: 0}
--- !u!95 &95439086998023792
Animator:
  serializedVersion: 3
  m_ObjectHideFlags: 0
  m_CorrespondingSourceObject: {fileID: 0}
  m_PrefabInstance: {fileID: 0}
  m_PrefabAsset: {fileID: 0}
  m_GameObject: {fileID: 1820919466449660}
  m_Enabled: 1
  m_Avatar: {fileID: 9000000, guid: 4f62b44da4d9d514d8fdc6ef71434554, type: 3}
  m_Controller: {fileID: 9100000, guid: 6e460db62e3333f4888fe9ba9d0366fc, type: 2}
  m_CullingMode: 1
  m_UpdateMode: 0
  m_ApplyRootMotion: 0
  m_LinearVelocityBlending: 0
  m_WarningMessage: 
  m_HasTransformHierarchy: 1
  m_AllowConstantClipSamplingOptimization: 1
  m_KeepAnimatorControllerStateOnDisable: 0
--- !u!114 &-6475133355537541190
MonoBehaviour:
  m_ObjectHideFlags: 0
  m_CorrespondingSourceObject: {fileID: 0}
  m_PrefabInstance: {fileID: 0}
  m_PrefabAsset: {fileID: 0}
  m_GameObject: {fileID: 1820919466449660}
  m_Enabled: 1
  m_EditorHideFlags: 0
  m_Script: {fileID: 11500000, guid: 3cc298df91de2f447a688a6cbcaab9d4, type: 3}
  m_Name: 
  m_EditorClassIdentifier: 
--- !u!1 &1833544915534518
GameObject:
  m_ObjectHideFlags: 0
  m_CorrespondingSourceObject: {fileID: 0}
  m_PrefabInstance: {fileID: 0}
  m_PrefabAsset: {fileID: 0}
  serializedVersion: 6
  m_Component:
  - component: {fileID: 4487589127568162}
  m_Layer: 0
  m_Name: Finger_01
  m_TagString: Untagged
  m_Icon: {fileID: 0}
  m_NavMeshLayer: 0
  m_StaticEditorFlags: 0
  m_IsActive: 1
--- !u!4 &4487589127568162
Transform:
  m_ObjectHideFlags: 0
  m_CorrespondingSourceObject: {fileID: 0}
  m_PrefabInstance: {fileID: 0}
  m_PrefabAsset: {fileID: 0}
  m_GameObject: {fileID: 1833544915534518}
  m_LocalRotation: {x: -0.10106448, y: -0.46700662, z: -0.052073725, w: 0.87691456}
  m_LocalPosition: {x: -0.051985342, y: 0.012058426, z: -0.14852415}
  m_LocalScale: {x: 1, y: 1, z: 1}
  m_Children:
  - {fileID: 4572632112700390}
  m_Father: {fileID: 4683457810060112}
  m_RootOrder: 0
  m_LocalEulerAnglesHint: {x: 0, y: 0, z: 0}
--- !u!1 &1881145533360608
GameObject:
  m_ObjectHideFlags: 0
  m_CorrespondingSourceObject: {fileID: 0}
  m_PrefabInstance: {fileID: 0}
  m_PrefabAsset: {fileID: 0}
  serializedVersion: 6
  m_Component:
  - component: {fileID: 4110770874427970}
  - component: {fileID: 137700040932222138}
  m_Layer: 0
  m_Name: Character_MechanicalGolem_01
  m_TagString: Untagged
  m_Icon: {fileID: 0}
  m_NavMeshLayer: 0
  m_StaticEditorFlags: 0
  m_IsActive: 0
--- !u!4 &4110770874427970
Transform:
  m_ObjectHideFlags: 0
  m_CorrespondingSourceObject: {fileID: 0}
  m_PrefabInstance: {fileID: 0}
  m_PrefabAsset: {fileID: 0}
  m_GameObject: {fileID: 1881145533360608}
  m_LocalRotation: {x: 0, y: -0, z: -0, w: 1}
  m_LocalPosition: {x: -0, y: 0, z: 0}
  m_LocalScale: {x: 1, y: 1, z: 1}
  m_Children: []
  m_Father: {fileID: 4692428868606460}
  m_RootOrder: 5
  m_LocalEulerAnglesHint: {x: 0, y: 0, z: 0}
--- !u!137 &137700040932222138
SkinnedMeshRenderer:
  m_ObjectHideFlags: 0
  m_CorrespondingSourceObject: {fileID: 0}
  m_PrefabInstance: {fileID: 0}
  m_PrefabAsset: {fileID: 0}
  m_GameObject: {fileID: 1881145533360608}
  m_Enabled: 1
  m_CastShadows: 1
  m_ReceiveShadows: 1
  m_DynamicOccludee: 1
  m_MotionVectors: 1
  m_LightProbeUsage: 1
  m_ReflectionProbeUsage: 1
  m_RayTracingMode: 3
  m_RayTraceProcedural: 0
  m_RenderingLayerMask: 1
  m_RendererPriority: 0
  m_Materials:
  - {fileID: 2100000, guid: caf01dd5152f3934d8079e6160aa3b1e, type: 2}
  m_StaticBatchInfo:
    firstSubMesh: 0
    subMeshCount: 0
  m_StaticBatchRoot: {fileID: 0}
  m_ProbeAnchor: {fileID: 0}
  m_LightProbeVolumeOverride: {fileID: 0}
  m_ScaleInLightmap: 1
  m_ReceiveGI: 1
  m_PreserveUVs: 0
  m_IgnoreNormalsForChartDetection: 0
  m_ImportantGI: 0
  m_StitchLightmapSeams: 1
  m_SelectedEditorRenderState: 3
  m_MinimumChartSize: 4
  m_AutoUVMaxDistance: 0.5
  m_AutoUVMaxAngle: 89
  m_LightmapParameters: {fileID: 0}
  m_SortingLayerID: 0
  m_SortingLayer: 0
  m_SortingOrder: 0
  serializedVersion: 2
  m_Quality: 0
  m_UpdateWhenOffscreen: 0
  m_SkinnedMotionVectors: 1
  m_Mesh: {fileID: 4300016, guid: a50cd06a0668d1a418d586a2944e3ed5, type: 3}
  m_Bones:
  - {fileID: 4968511642078380}
  - {fileID: 4553062615120186}
  - {fileID: 4427220032631432}
  - {fileID: 4434679777089430}
  - {fileID: 4165745833526514}
  - {fileID: 4970587296839388}
  - {fileID: 4184038513711718}
  - {fileID: 4788085560962488}
  - {fileID: 4152240246130716}
  - {fileID: 4445995347944722}
  - {fileID: 4663785794863714}
  - {fileID: 4119437400692876}
  - {fileID: 4683457810060112}
  - {fileID: 4381990739272310}
  - {fileID: 4636170757142470}
  - {fileID: 4704002114178304}
  - {fileID: 4780538011062674}
  - {fileID: 4717518706611268}
  - {fileID: 4115618638106878}
  - {fileID: 4630173923874424}
  - {fileID: 4487589127568162}
  - {fileID: 4572632112700390}
  - {fileID: 4747897470541468}
  - {fileID: 4766855428946090}
  - {fileID: 4349412276591670}
  - {fileID: 4000995580774292}
  - {fileID: 4786282514825284}
  - {fileID: 4537040476099648}
  - {fileID: 4830897669595748}
  - {fileID: 4631429041712160}
  - {fileID: 4634444341657240}
  - {fileID: 4641557900079640}
  - {fileID: 4450254054513082}
  - {fileID: 4124099871441192}
  - {fileID: 4271894998424936}
  - {fileID: 4569545920726756}
  - {fileID: 4589032205310254}
  - {fileID: 4007700562513260}
  - {fileID: 4507534520411542}
  - {fileID: 4450412268276666}
  - {fileID: 4331497315866350}
  - {fileID: 4344324633210848}
  - {fileID: 4342624019667014}
  - {fileID: 4602082797215118}
  - {fileID: 4753958972932600}
  - {fileID: 4447231994661010}
  - {fileID: 4280374109023288}
  - {fileID: 4485496605197988}
  - {fileID: 4234235067232280}
  m_BlendShapeWeights: []
  m_RootBone: {fileID: 4968511642078380}
  m_AABB:
    m_Center: {x: 0.000000059604645, y: 0.8628965, z: -0.009381667}
    m_Extent: {x: 1.4625807, y: 0.9403073, z: 0.42791557}
  m_DirtyAABB: 0
--- !u!1 &1924273477640478
GameObject:
  m_ObjectHideFlags: 0
  m_CorrespondingSourceObject: {fileID: 0}
  m_PrefabInstance: {fileID: 0}
  m_PrefabAsset: {fileID: 0}
  serializedVersion: 6
  m_Component:
  - component: {fileID: 4271894998424936}
  m_Layer: 0
  m_Name: IndexFinger_04 1
  m_TagString: Untagged
  m_Icon: {fileID: 0}
  m_NavMeshLayer: 0
  m_StaticEditorFlags: 0
  m_IsActive: 1
--- !u!4 &4271894998424936
Transform:
  m_ObjectHideFlags: 0
  m_CorrespondingSourceObject: {fileID: 0}
  m_PrefabInstance: {fileID: 0}
  m_PrefabAsset: {fileID: 0}
  m_GameObject: {fileID: 1924273477640478}
  m_LocalRotation: {x: -0.00597543, y: -0.02776615, z: -0.21030392, w: 0.9772234}
  m_LocalPosition: {x: 0.059107542, y: -0.0000048901334, z: -0.00000042587297}
  m_LocalScale: {x: 1, y: 1, z: 1}
  m_Children: []
  m_Father: {fileID: 4124099871441192}
  m_RootOrder: 0
  m_LocalEulerAnglesHint: {x: 0, y: 0, z: 0}
--- !u!1 &1932456300858048
GameObject:
  m_ObjectHideFlags: 0
  m_CorrespondingSourceObject: {fileID: 0}
  m_PrefabInstance: {fileID: 0}
  m_PrefabAsset: {fileID: 0}
  serializedVersion: 6
  m_Component:
  - component: {fileID: 4830897669595748}
  m_Layer: 0
  m_Name: Thumb_01 1
  m_TagString: Untagged
  m_Icon: {fileID: 0}
  m_NavMeshLayer: 0
  m_StaticEditorFlags: 0
  m_IsActive: 1
--- !u!4 &4830897669595748
Transform:
  m_ObjectHideFlags: 0
  m_CorrespondingSourceObject: {fileID: 0}
  m_PrefabInstance: {fileID: 0}
  m_PrefabAsset: {fileID: 0}
  m_GameObject: {fileID: 1932456300858048}
  m_LocalRotation: {x: -0.044153277, y: -0.16584834, z: -0.012062183, w: 0.9850885}
  m_LocalPosition: {x: 0.08908848, y: -0.0000018401335, z: 0.0000010454004}
  m_LocalScale: {x: 1, y: 1, z: 1}
  m_Children:
  - {fileID: 4631429041712160}
  m_Father: {fileID: 4537040476099648}
  m_RootOrder: 2
  m_LocalEulerAnglesHint: {x: 0, y: 0, z: 0}
--- !u!1 &1939153680546666
GameObject:
  m_ObjectHideFlags: 0
  m_CorrespondingSourceObject: {fileID: 0}
  m_PrefabInstance: {fileID: 0}
  m_PrefabAsset: {fileID: 0}
  serializedVersion: 6
  m_Component:
  - component: {fileID: 4507534520411542}
  m_Layer: 0
  m_Name: Finger_04 1
  m_TagString: Untagged
  m_Icon: {fileID: 0}
  m_NavMeshLayer: 0
  m_StaticEditorFlags: 0
  m_IsActive: 1
--- !u!4 &4507534520411542
Transform:
  m_ObjectHideFlags: 0
  m_CorrespondingSourceObject: {fileID: 0}
  m_PrefabInstance: {fileID: 0}
  m_PrefabAsset: {fileID: 0}
  m_GameObject: {fileID: 1939153680546666}
  m_LocalRotation: {x: 0.021918453, y: 0.095466346, z: -0.22269535, w: 0.9699549}
  m_LocalPosition: {x: 0.047220778, y: -0.000008236042, z: -0.00000043038915}
  m_LocalScale: {x: 1, y: 1, z: 1}
  m_Children: []
  m_Father: {fileID: 4007700562513260}
  m_RootOrder: 0
  m_LocalEulerAnglesHint: {x: 0, y: 0, z: 0}
--- !u!1 &1958913657793982
GameObject:
  m_ObjectHideFlags: 0
  m_CorrespondingSourceObject: {fileID: 0}
  m_PrefabInstance: {fileID: 0}
  m_PrefabAsset: {fileID: 0}
  serializedVersion: 6
  m_Component:
  - component: {fileID: 4747897470541468}
  m_Layer: 0
  m_Name: Finger_03
  m_TagString: Untagged
  m_Icon: {fileID: 0}
  m_NavMeshLayer: 0
  m_StaticEditorFlags: 0
  m_IsActive: 1
--- !u!4 &4747897470541468
Transform:
  m_ObjectHideFlags: 0
  m_CorrespondingSourceObject: {fileID: 0}
  m_PrefabInstance: {fileID: 0}
  m_PrefabAsset: {fileID: 0}
  m_GameObject: {fileID: 1958913657793982}
  m_LocalRotation: {x: -0.023977656, y: -0.06974028, z: 0.11959571, w: 0.99007994}
  m_LocalPosition: {x: -0.05330061, y: -1.7347668e-16, z: 4.2188474e-17}
  m_LocalScale: {x: 1, y: 1, z: 1}
  m_Children:
  - {fileID: 4766855428946090}
  m_Father: {fileID: 4572632112700390}
  m_RootOrder: 0
  m_LocalEulerAnglesHint: {x: 0, y: 0, z: 0}
--- !u!1 &1967876820328660
GameObject:
  m_ObjectHideFlags: 0
  m_CorrespondingSourceObject: {fileID: 0}
  m_PrefabInstance: {fileID: 0}
  m_PrefabAsset: {fileID: 0}
  serializedVersion: 6
  m_Component:
  - component: {fileID: 4450254054513082}
  m_Layer: 0
  m_Name: IndexFinger_02 1
  m_TagString: Untagged
  m_Icon: {fileID: 0}
  m_NavMeshLayer: 0
  m_StaticEditorFlags: 0
  m_IsActive: 1
--- !u!4 &4450254054513082
Transform:
  m_ObjectHideFlags: 0
  m_CorrespondingSourceObject: {fileID: 0}
  m_PrefabInstance: {fileID: 0}
  m_PrefabAsset: {fileID: 0}
  m_GameObject: {fileID: 1967876820328660}
  m_LocalRotation: {x: -0.0015534081, y: -0.010691182, z: 0.13226552, w: 0.9911555}
  m_LocalPosition: {x: 0.061476283, y: -0.0000047270864, z: 0.00000030396376}
  m_LocalScale: {x: 1, y: 1, z: 1}
  m_Children:
  - {fileID: 4124099871441192}
  m_Father: {fileID: 4641557900079640}
  m_RootOrder: 0
  m_LocalEulerAnglesHint: {x: 0, y: 0, z: 0}
--- !u!1 &1968242679899132
GameObject:
  m_ObjectHideFlags: 0
  m_CorrespondingSourceObject: {fileID: 0}
  m_PrefabInstance: {fileID: 0}
  m_PrefabAsset: {fileID: 0}
  serializedVersion: 6
  m_Component:
  - component: {fileID: 4447231994661010}
  m_Layer: 0
  m_Name: LowerLeg_R
  m_TagString: Untagged
  m_Icon: {fileID: 0}
  m_NavMeshLayer: 0
  m_StaticEditorFlags: 0
  m_IsActive: 1
--- !u!4 &4447231994661010
Transform:
  m_ObjectHideFlags: 0
  m_CorrespondingSourceObject: {fileID: 0}
  m_PrefabInstance: {fileID: 0}
  m_PrefabAsset: {fileID: 0}
  m_GameObject: {fileID: 1968242679899132}
  m_LocalRotation: {x: 1.3156143e-14, y: -3.1502578e-15, z: 1.20719415e-14, w: 1}
  m_LocalPosition: {x: 0.37842068, y: 0.00000027396194, z: 0.0000002682214}
  m_LocalScale: {x: 1, y: 1, z: 1}
  m_Children:
  - {fileID: 4280374109023288}
  m_Father: {fileID: 4753958972932600}
  m_RootOrder: 0
  m_LocalEulerAnglesHint: {x: 0, y: 0, z: 0}
--- !u!1 &1968942094192586
GameObject:
  m_ObjectHideFlags: 0
  m_CorrespondingSourceObject: {fileID: 0}
  m_PrefabInstance: {fileID: 0}
  m_PrefabAsset: {fileID: 0}
  serializedVersion: 6
  m_Component:
  - component: {fileID: 4537040476099648}
  m_Layer: 0
  m_Name: Hand_R
  m_TagString: Untagged
  m_Icon: {fileID: 0}
  m_NavMeshLayer: 0
  m_StaticEditorFlags: 0
  m_IsActive: 1
--- !u!4 &4537040476099648
Transform:
  m_ObjectHideFlags: 0
  m_CorrespondingSourceObject: {fileID: 0}
  m_PrefabInstance: {fileID: 0}
  m_PrefabAsset: {fileID: 0}
  m_GameObject: {fileID: 1968942094192586}
  m_LocalRotation: {x: 0.054274846, y: 0.395974, z: 0.12447924, w: 0.9081651}
  m_LocalPosition: {x: 0.328678, y: -7.958079e-15, z: -0.00000031490552}
  m_LocalScale: {x: 1, y: 1, z: 1}
  m_Children:
  - {fileID: 4569545920726756}
  - {fileID: 4641557900079640}
  - {fileID: 4830897669595748}
  m_Father: {fileID: 4786282514825284}
  m_RootOrder: 0
  m_LocalEulerAnglesHint: {x: 0, y: 0, z: 0}
--- !u!1 &1970298546560540
GameObject:
  m_ObjectHideFlags: 0
  m_CorrespondingSourceObject: {fileID: 0}
  m_PrefabInstance: {fileID: 0}
  m_PrefabAsset: {fileID: 0}
  serializedVersion: 6
  m_Component:
  - component: {fileID: 4434679777089430}
  m_Layer: 0
  m_Name: Spine_02
  m_TagString: Untagged
  m_Icon: {fileID: 0}
  m_NavMeshLayer: 0
  m_StaticEditorFlags: 0
  m_IsActive: 1
--- !u!4 &4434679777089430
Transform:
  m_ObjectHideFlags: 0
  m_CorrespondingSourceObject: {fileID: 0}
  m_PrefabInstance: {fileID: 0}
  m_PrefabAsset: {fileID: 0}
  m_GameObject: {fileID: 1970298546560540}
  m_LocalRotation: {x: 0.99518615, y: -0.098002784, z: -1.741653e-15, w: -1.0998396e-16}
  m_LocalPosition: {x: -0.18151169, y: 4.5519144e-17, z: -1.1814681e-17}
  m_LocalScale: {x: 1, y: 1, z: 1}
  m_Children:
  - {fileID: 4165745833526514}
  m_Father: {fileID: 4427220032631432}
  m_RootOrder: 0
  m_LocalEulerAnglesHint: {x: 0, y: 0, z: 0}
