%YAML 1.1
%TAG !u! tag:unity3d.com,2011:
--- !u!114 &11400000
MonoBehaviour:
  m_ObjectHideFlags: 0
  m_CorrespondingSourceObject: {fileID: 0}
  m_PrefabInstance: {fileID: 0}
  m_PrefabAsset: {fileID: 0}
  m_GameObject: {fileID: 0}
  m_Enabled: 1
  m_EditorHideFlags: 0
  m_Script: {fileID: 11500000, guid: 0c5f6a3cd85490c4c9c6e45cae79de1f, type: 3}
  m_Name: Curiousity Land Rover's Lvoer
  m_EditorClassIdentifier: 
  Prefab: {fileID: 4559718105561196977, guid: 1aed337f536dc7346ab4f3eaefc06d58, type: 3}
  WeightMultiplier: 1
  Names:
  - Curiousity's "Companion"
  - 5e-3KS Bot
  WelcomeText:
  - Beep Beep! (Hi hun, I'm looking for {item_name}.)
  DescribeAgain:
  - Beep Whirrrrr (Sure sweetie it's {item_article} {item_name}.)
  - Doo Weep! (Sugar you're looking for {item_article} {item_nameonly}, {item_desc}.)
  WrongItem:
  - ERROR (I'm still a robot hun, and that doesn't add up)
  RightItem:
  - Beep Beep BEEP! (Yesss, thank you SO much, he'll be so happy when I get back
    ;) )
  NoItem:
  - -Sad Whir- (Don't worry yourself, can't help it)
  Lying:
  - BRR ERROR BEEP (You tryna lie to me? What do you take me for?)
  WelcomeSound: {fileID: 8300000, guid: 02d343f11fac0d6408e48e189642e898, type: 3}
  NegativeSound: {fileID: 8300000, guid: 706ba02610d681e419d81c3633edaf3a, type: 3}
  PositiveSound: {fileID: 8300000, guid: 8d169392bdb93894fb395269d50df373, type: 3}
  SadSound: {fileID: 8300000, guid: 32890a56c60003144a8bfb775fe16b0f, type: 3}
