%YAML 1.1
%TAG !u! tag:unity3d.com,2011:
--- !u!114 &11400000
MonoBehaviour:
  m_ObjectHideFlags: 0
  m_CorrespondingSourceObject: {fileID: 0}
  m_PrefabInstance: {fileID: 0}
  m_PrefabAsset: {fileID: 0}
  m_GameObject: {fileID: 0}
  m_Enabled: 1
  m_EditorHideFlags: 0
  m_Script: {fileID: 11500000, guid: 0c5f6a3cd85490c4c9c6e45cae79de1f, type: 3}
  m_Name: Sentient Grapes
  m_EditorClassIdentifier: 
  Prefab: {fileID: 698881470104071991, guid: b2f059bd593c76e40a9729faff6150c1, type: 3}
  WeightMultiplier: 1
  Names:
  - Wrath
  - Raisin
  - Wine
  WelcomeText:
  - Greetings. We are. The Grape Collective. We want {item_article} {item_name}.
  DescribeAgain:
  - Again. We desire. {item_article} {item_name}.
  - It is. {item_desc}. Known as. {item_nameonly}.
  WrongItem:
  - That is. Incorrect.
  RightItem:
  - That. Is correct. Thanks.
  NoItem:
  - We are. Disappointed. We continue. Onwards.
  Lying:
  - We shrivel. At that. Blatant lie.
  WelcomeSound: {fileID: 8300000, guid: 14800d6563a08d245849f9807a4b202d, type: 3}
  NegativeSound: {fileID: 8300000, guid: 4f811c4f6e5c8e04f8f94a983c381eba, type: 3}
  PositiveSound: {fileID: 8300000, guid: 810314a1a316b054fbaf909a63c8a0ae, type: 3}
  SadSound: {fileID: 8300000, guid: 5d14beba3bfef5c429a766f2d31c48b3, type: 3}
