%YAML 1.1
%TAG !u! tag:unity3d.com,2011:
--- !u!114 &11400000
MonoBehaviour:
  m_ObjectHideFlags: 0
  m_CorrespondingSourceObject: {fileID: 0}
  m_PrefabInstance: {fileID: 0}
  m_PrefabAsset: {fileID: 0}
  m_GameObject: {fileID: 0}
  m_Enabled: 1
  m_EditorHideFlags: 0
  m_Script: {fileID: 11500000, guid: 0c5f6a3cd85490c4c9c6e45cae79de1f, type: 3}
  m_Name: The True Aspect of cherubim, god's light and harbinger of the blessed
  m_EditorClassIdentifier: 
  Prefab: {fileID: 1233347782355984, guid: e218b66930d51a741a5150ddb1bfeec0, type: 3}
  WeightMultiplier: 1
  Names:
  - Kerubiel, They Who Lead The Rest
  - Yael, They Who Attend The Throne
  - Irin, The Two Who Judge
  WelcomeText:
  - Mligzo i xlnv rm kvzxv. Dl blf szev gsv (Mortal, I come in peace. Do you have
    {item_article} {item_name}?)
  DescribeAgain:
  - Pvixszmxv blf nrhfmwvihgllw nb wvhriv uli (Perchance you misunderstood my desire
    for {item_article} {item_name}.)
  - Ig rh rgvnmznvlmob zmw rgvn wvhx. Svzixs wrortvmgob.(It is {item_article} {item_nameonly}
    and looks like {item_desc}. Search diligently.)
  WrongItem:
  - Mligzo blf ziv rmxliivxg. Svzixs ztzrm. (Mortal you are incorrect. Search again.)
  RightItem:
  - Ylf kovzhv nv. Mzb gsv ortsg pvvk blf. (You please me. May the light keep you.)
  NoItem:
  - Nl? imgirtfrmt. Vvib dvoo. (No? Intriguing. Very well.)
  Lying:
  - Dl mlg zggvnkg gl orv gl nv nligzo, i xzm hvv gsv xlolfi lu blfi hlfo. (Do not
    attempt to lie to me mortal, I can see the colour of your soul.)
  WelcomeSound: {fileID: 8300000, guid: 8cc017e5c2a6a9746a2d39acd6c9fd4c, type: 3}
  NegativeSound: {fileID: 8300000, guid: 4d9ffb69cb639234eaf8124e61b04d70, type: 3}
  PositiveSound: {fileID: 8300000, guid: f53fc510a48c94d49ab425dd37f19622, type: 3}
  SadSound: {fileID: 8300000, guid: a6bdc09f71964a8438b572606c58f88f, type: 3}
