%YAML 1.1
%TAG !u! tag:unity3d.com,2011:
--- !u!114 &11400000
MonoBehaviour:
  m_ObjectHideFlags: 0
  m_CorrespondingSourceObject: {fileID: 0}
  m_PrefabInstance: {fileID: 0}
  m_PrefabAsset: {fileID: 0}
  m_GameObject: {fileID: 0}
  m_Enabled: 1
  m_EditorHideFlags: 0
  m_Script: {fileID: 11500000, guid: d8d230948d82b6d4eab1864f76b1f811, type: 3}
  m_Name: Declaration of Dependence
  m_EditorClassIdentifier: 
  Name: Declaration of Dependence
  WeightMultiplier: 1
  Icon: {fileID: 21300000, guid: 2285c41914f9cea428d280c6560fd1b3, type: 3}
  Article: 2
  TintOptions: []
  PrefixWords: []
  Descriptions:
  - 'A parchment stating: "We do declare that we are in complete need of your assistance."'
