%YAML 1.1
%TAG !u! tag:unity3d.com,2011:
--- !u!114 &11400000
MonoBehaviour:
  m_ObjectHideFlags: 0
  m_CorrespondingSourceObject: {fileID: 0}
  m_PrefabInstance: {fileID: 0}
  m_PrefabAsset: {fileID: 0}
  m_GameObject: {fileID: 0}
  m_Enabled: 1
  m_EditorHideFlags: 0
  m_Script: {fileID: 11500000, guid: d8d230948d82b6d4eab1864f76b1f811, type: 3}
  m_Name: Robotic Condom
  m_EditorClassIdentifier: 
  Name: robotic condom
  WeightMultiplier: 1
  Icon: {fileID: 21300000, guid: 50e9bc9da2d380147bfc9dd3ce762ad6, type: 3}
  Article: 0
  TintOptions:
  - {fileID: 11400000, guid: 83934d5fd92e27043a1dbfb75bea03c0, type: 2}
  - {fileID: 11400000, guid: 0feb78ce5941622428386839c7d10e40, type: 2}
  - {fileID: 11400000, guid: c67f02f9abc5de241a4c001d9f9e7dad, type: 2}
  - {fileID: 11400000, guid: 4793a40ace1092849891de0a3ca67a13, type: 2}
  - {fileID: 11400000, guid: c609a46b91cb35d45ba617e6390de765, type: 2}
  PrefixWords: []
  Descriptions:
  - a contraceptive of latex with circuitry lacing it for stimulation
